solution_id,speed_min,speed_max,speed_mean,size_min,size_max,size_mean
raw,1.1190222308388265,3.89839935147884,2.397333561436272,1.0807830813851895,6.1121313418627565,3.066168926764104
unique_ptr,2.05575269714007,4.020825960157669,2.6477454339867235,2.1102349035321493,12.09645629928247,5.4204205377320465
