<?xml version="1.0" encoding="utf-8"  standalone="no"?>
<svg 
 width="350" height="800"
 viewBox="0 0 350 800"
 xmlns="http://www.w3.org/2000/svg"
 xmlns:xlink="http://www.w3.org/1999/xlink"
>

<title>Gnuplot</title>
<desc>Produced by GNUPLOT 5.2 patchlevel 8 </desc>

<g id="gnuplot_canvas">

<rect x="0" y="0" width="350" height="800" fill="none"/>
<defs>

	<circle id='gpDot' r='0.5' stroke-width='0.5' stroke='currentColor'/>
	<path id='gpPt0' stroke-width='0.206' stroke='currentColor' d='M-1,0 h2 M0,-1 v2'/>
	<path id='gpPt1' stroke-width='0.206' stroke='currentColor' d='M-1,-1 L1,1 M1,-1 L-1,1'/>
	<path id='gpPt2' stroke-width='0.206' stroke='currentColor' d='M-1,0 L1,0 M0,-1 L0,1 M-1,-1 L1,1 M-1,1 L1,-1'/>
	<rect id='gpPt3' stroke-width='0.206' stroke='currentColor' x='-1' y='-1' width='2' height='2'/>
	<rect id='gpPt4' stroke-width='0.206' stroke='currentColor' fill='currentColor' x='-1' y='-1' width='2' height='2'/>
	<circle id='gpPt5' stroke-width='0.206' stroke='currentColor' cx='0' cy='0' r='1'/>
	<use xlink:href='#gpPt5' id='gpPt6' fill='currentColor' stroke='none'/>
	<path id='gpPt7' stroke-width='0.206' stroke='currentColor' d='M0,-1.33 L-1.33,0.67 L1.33,0.67 z'/>
	<use xlink:href='#gpPt7' id='gpPt8' fill='currentColor' stroke='none'/>
	<use xlink:href='#gpPt7' id='gpPt9' stroke='currentColor' transform='rotate(180)'/>
	<use xlink:href='#gpPt9' id='gpPt10' fill='currentColor' stroke='none'/>
	<use xlink:href='#gpPt3' id='gpPt11' stroke='currentColor' transform='rotate(45)'/>
	<use xlink:href='#gpPt11' id='gpPt12' fill='currentColor' stroke='none'/>
	<path id='gpPt13' stroke-width='0.206' stroke='currentColor' d='M0,1.330 L1.265,0.411 L0.782,-1.067 L-0.782,-1.076 L-1.265,0.411 z'/>
	<use xlink:href='#gpPt13' id='gpPt14' fill='currentColor' stroke='none'/>
	<filter id='textbox' filterUnits='objectBoundingBox' x='0' y='0' height='1' width='1'>
	  <feFlood flood-color='white' flood-opacity='1' result='bgnd'/>
	  <feComposite in='SourceGraphic' in2='bgnd' operator='atop'/>
	</filter>
	<filter id='greybox' filterUnits='objectBoundingBox' x='0' y='0' height='1' width='1'>
	  <feFlood flood-color='lightgrey' flood-opacity='1' result='grey'/>
	  <feComposite in='SourceGraphic' in2='grey' operator='atop'/>
	</filter>
</defs>
<g fill="none" color="white" stroke="black" stroke-width="1.00" stroke-linecap="butt" stroke-linejoin="miter">
</g>
<g fill="none" color="black" stroke="currentColor" stroke-width="1.00" stroke-linecap="butt" stroke-linejoin="miter">
</g>
<g fill="none" color="black" stroke="currentColor" stroke-width="1.00" stroke-linecap="butt" stroke-linejoin="miter">
	<path stroke='rgb(192, 192, 192)' class="gridline"  d='M82.5,566.0 L295.3,566.0  '/></g>
<g fill="none" color="black" stroke="currentColor" stroke-width="1.00" stroke-linecap="butt" stroke-linejoin="miter">
	<path stroke='black'  d='M82.5,566.0 L92.2,566.0 M295.3,566.0 L285.6,566.0  '/>	<g transform="translate(325.2,566.0) rotate(-90)" stroke="none" fill="black" font-family="arial" font-size="13.00"  text-anchor="end">
		<text> 100</text>
	</g>
</g>
<g fill="none" color="black" stroke="currentColor" stroke-width="1.00" stroke-linecap="butt" stroke-linejoin="miter">
</g>
<g fill="none" color="black" stroke="currentColor" stroke-width="1.00" stroke-linecap="butt" stroke-linejoin="miter">
	<path stroke='rgb(192, 192, 192)' class="gridline"  d='M82.5,545.4 L295.3,545.4  '/></g>
<g fill="none" color="black" stroke="currentColor" stroke-width="1.00" stroke-linecap="butt" stroke-linejoin="miter">
	<path stroke='black'  d='M82.5,545.4 L87.3,545.4 M295.3,545.4 L290.5,545.4  '/></g>
<g fill="none" color="black" stroke="currentColor" stroke-width="1.00" stroke-linecap="butt" stroke-linejoin="miter">
	<path stroke='rgb(192, 192, 192)' class="gridline"  d='M82.5,533.4 L295.3,533.4  '/></g>
<g fill="none" color="black" stroke="currentColor" stroke-width="1.00" stroke-linecap="butt" stroke-linejoin="miter">
	<path stroke='black'  d='M82.5,533.4 L87.3,533.4 M295.3,533.4 L290.5,533.4  '/></g>
<g fill="none" color="black" stroke="currentColor" stroke-width="1.00" stroke-linecap="butt" stroke-linejoin="miter">
	<path stroke='rgb(192, 192, 192)' class="gridline"  d='M82.5,524.9 L295.3,524.9  '/></g>
<g fill="none" color="black" stroke="currentColor" stroke-width="1.00" stroke-linecap="butt" stroke-linejoin="miter">
	<path stroke='black'  d='M82.5,524.9 L87.3,524.9 M295.3,524.9 L290.5,524.9  '/></g>
<g fill="none" color="black" stroke="currentColor" stroke-width="1.00" stroke-linecap="butt" stroke-linejoin="miter">
	<path stroke='rgb(192, 192, 192)' class="gridline"  d='M82.5,518.3 L295.3,518.3  '/></g>
<g fill="none" color="black" stroke="currentColor" stroke-width="1.00" stroke-linecap="butt" stroke-linejoin="miter">
	<path stroke='black'  d='M82.5,518.3 L87.3,518.3 M295.3,518.3 L290.5,518.3  '/></g>
<g fill="none" color="black" stroke="currentColor" stroke-width="1.00" stroke-linecap="butt" stroke-linejoin="miter">
	<path stroke='rgb(192, 192, 192)' class="gridline"  d='M82.5,512.9 L295.3,512.9  '/></g>
<g fill="none" color="black" stroke="currentColor" stroke-width="1.00" stroke-linecap="butt" stroke-linejoin="miter">
	<path stroke='black'  d='M82.5,512.9 L87.3,512.9 M295.3,512.9 L290.5,512.9  '/></g>
<g fill="none" color="black" stroke="currentColor" stroke-width="1.00" stroke-linecap="butt" stroke-linejoin="miter">
	<path stroke='rgb(192, 192, 192)' class="gridline"  d='M82.5,508.3 L295.3,508.3  '/></g>
<g fill="none" color="black" stroke="currentColor" stroke-width="1.00" stroke-linecap="butt" stroke-linejoin="miter">
	<path stroke='black'  d='M82.5,508.3 L87.3,508.3 M295.3,508.3 L290.5,508.3  '/></g>
<g fill="none" color="black" stroke="currentColor" stroke-width="1.00" stroke-linecap="butt" stroke-linejoin="miter">
	<path stroke='rgb(192, 192, 192)' class="gridline"  d='M82.5,504.3 L295.3,504.3  '/></g>
<g fill="none" color="black" stroke="currentColor" stroke-width="1.00" stroke-linecap="butt" stroke-linejoin="miter">
	<path stroke='black'  d='M82.5,504.3 L87.3,504.3 M295.3,504.3 L290.5,504.3  '/></g>
<g fill="none" color="black" stroke="currentColor" stroke-width="1.00" stroke-linecap="butt" stroke-linejoin="miter">
	<path stroke='rgb(192, 192, 192)' class="gridline"  d='M82.5,500.8 L295.3,500.8  '/></g>
<g fill="none" color="black" stroke="currentColor" stroke-width="1.00" stroke-linecap="butt" stroke-linejoin="miter">
	<path stroke='black'  d='M82.5,500.8 L87.3,500.8 M295.3,500.8 L290.5,500.8  '/></g>
<g fill="none" color="black" stroke="currentColor" stroke-width="1.00" stroke-linecap="butt" stroke-linejoin="miter">
	<path stroke='rgb(192, 192, 192)' class="gridline"  d='M82.5,497.7 L295.3,497.7  '/></g>
<g fill="none" color="black" stroke="currentColor" stroke-width="1.00" stroke-linecap="butt" stroke-linejoin="miter">
	<path stroke='black'  d='M82.5,497.7 L92.2,497.7 M295.3,497.7 L285.6,497.7  '/>	<g transform="translate(325.2,497.7) rotate(-90)" stroke="none" fill="black" font-family="arial" font-size="13.00"  text-anchor="end">
		<text> 1000</text>
	</g>
</g>
<g fill="none" color="black" stroke="currentColor" stroke-width="1.00" stroke-linecap="butt" stroke-linejoin="miter">
</g>
<g fill="none" color="black" stroke="currentColor" stroke-width="1.00" stroke-linecap="butt" stroke-linejoin="miter">
	<path stroke='rgb(192, 192, 192)' class="gridline"  d='M82.5,477.1 L295.3,477.1  '/></g>
<g fill="none" color="black" stroke="currentColor" stroke-width="1.00" stroke-linecap="butt" stroke-linejoin="miter">
	<path stroke='black'  d='M82.5,477.1 L87.3,477.1 M295.3,477.1 L290.5,477.1  '/></g>
<g fill="none" color="black" stroke="currentColor" stroke-width="1.00" stroke-linecap="butt" stroke-linejoin="miter">
	<path stroke='rgb(192, 192, 192)' class="gridline"  d='M82.5,465.1 L295.3,465.1  '/></g>
<g fill="none" color="black" stroke="currentColor" stroke-width="1.00" stroke-linecap="butt" stroke-linejoin="miter">
	<path stroke='black'  d='M82.5,465.1 L87.3,465.1 M295.3,465.1 L290.5,465.1  '/></g>
<g fill="none" color="black" stroke="currentColor" stroke-width="1.00" stroke-linecap="butt" stroke-linejoin="miter">
	<path stroke='rgb(192, 192, 192)' class="gridline"  d='M82.5,456.6 L295.3,456.6  '/></g>
<g fill="none" color="black" stroke="currentColor" stroke-width="1.00" stroke-linecap="butt" stroke-linejoin="miter">
	<path stroke='black'  d='M82.5,456.6 L87.3,456.6 M295.3,456.6 L290.5,456.6  '/></g>
<g fill="none" color="black" stroke="currentColor" stroke-width="1.00" stroke-linecap="butt" stroke-linejoin="miter">
	<path stroke='rgb(192, 192, 192)' class="gridline"  d='M82.5,450.0 L295.3,450.0  '/></g>
<g fill="none" color="black" stroke="currentColor" stroke-width="1.00" stroke-linecap="butt" stroke-linejoin="miter">
	<path stroke='black'  d='M82.5,450.0 L87.3,450.0 M295.3,450.0 L290.5,450.0  '/></g>
<g fill="none" color="black" stroke="currentColor" stroke-width="1.00" stroke-linecap="butt" stroke-linejoin="miter">
	<path stroke='rgb(192, 192, 192)' class="gridline"  d='M82.5,444.6 L295.3,444.6  '/></g>
<g fill="none" color="black" stroke="currentColor" stroke-width="1.00" stroke-linecap="butt" stroke-linejoin="miter">
	<path stroke='black'  d='M82.5,444.6 L87.3,444.6 M295.3,444.6 L290.5,444.6  '/></g>
<g fill="none" color="black" stroke="currentColor" stroke-width="1.00" stroke-linecap="butt" stroke-linejoin="miter">
	<path stroke='rgb(192, 192, 192)' class="gridline"  d='M82.5,440.0 L295.3,440.0  '/></g>
<g fill="none" color="black" stroke="currentColor" stroke-width="1.00" stroke-linecap="butt" stroke-linejoin="miter">
	<path stroke='black'  d='M82.5,440.0 L87.3,440.0 M295.3,440.0 L290.5,440.0  '/></g>
<g fill="none" color="black" stroke="currentColor" stroke-width="1.00" stroke-linecap="butt" stroke-linejoin="miter">
	<path stroke='rgb(192, 192, 192)' class="gridline"  d='M82.5,436.0 L295.3,436.0  '/></g>
<g fill="none" color="black" stroke="currentColor" stroke-width="1.00" stroke-linecap="butt" stroke-linejoin="miter">
	<path stroke='black'  d='M82.5,436.0 L87.3,436.0 M295.3,436.0 L290.5,436.0  '/></g>
<g fill="none" color="black" stroke="currentColor" stroke-width="1.00" stroke-linecap="butt" stroke-linejoin="miter">
	<path stroke='rgb(192, 192, 192)' class="gridline"  d='M82.5,432.5 L295.3,432.5  '/></g>
<g fill="none" color="black" stroke="currentColor" stroke-width="1.00" stroke-linecap="butt" stroke-linejoin="miter">
	<path stroke='black'  d='M82.5,432.5 L87.3,432.5 M295.3,432.5 L290.5,432.5  '/></g>
<g fill="none" color="black" stroke="currentColor" stroke-width="1.00" stroke-linecap="butt" stroke-linejoin="miter">
	<path stroke='rgb(192, 192, 192)' class="gridline"  d='M82.5,429.4 L295.3,429.4  '/></g>
<g fill="none" color="black" stroke="currentColor" stroke-width="1.00" stroke-linecap="butt" stroke-linejoin="miter">
	<path stroke='black'  d='M82.5,429.4 L92.2,429.4 M295.3,429.4 L285.6,429.4  '/>	<g transform="translate(325.2,429.4) rotate(-90)" stroke="none" fill="black" font-family="arial" font-size="13.00"  text-anchor="end">
		<text> 10000</text>
	</g>
</g>
<g fill="none" color="black" stroke="currentColor" stroke-width="1.00" stroke-linecap="butt" stroke-linejoin="miter">
</g>
<g fill="none" color="black" stroke="currentColor" stroke-width="1.00" stroke-linecap="butt" stroke-linejoin="miter">
	<path stroke='rgb(192, 192, 192)' class="gridline"  d='M82.5,408.8 L295.3,408.8  '/></g>
<g fill="none" color="black" stroke="currentColor" stroke-width="1.00" stroke-linecap="butt" stroke-linejoin="miter">
	<path stroke='black'  d='M82.5,408.8 L87.3,408.8 M295.3,408.8 L290.5,408.8  '/></g>
<g fill="none" color="black" stroke="currentColor" stroke-width="1.00" stroke-linecap="butt" stroke-linejoin="miter">
	<path stroke='rgb(192, 192, 192)' class="gridline"  d='M82.5,396.8 L295.3,396.8  '/></g>
<g fill="none" color="black" stroke="currentColor" stroke-width="1.00" stroke-linecap="butt" stroke-linejoin="miter">
	<path stroke='black'  d='M82.5,396.8 L87.3,396.8 M295.3,396.8 L290.5,396.8  '/></g>
<g fill="none" color="black" stroke="currentColor" stroke-width="1.00" stroke-linecap="butt" stroke-linejoin="miter">
	<path stroke='rgb(192, 192, 192)' class="gridline"  d='M82.5,388.3 L295.3,388.3  '/></g>
<g fill="none" color="black" stroke="currentColor" stroke-width="1.00" stroke-linecap="butt" stroke-linejoin="miter">
	<path stroke='black'  d='M82.5,388.3 L87.3,388.3 M295.3,388.3 L290.5,388.3  '/></g>
<g fill="none" color="black" stroke="currentColor" stroke-width="1.00" stroke-linecap="butt" stroke-linejoin="miter">
	<path stroke='rgb(192, 192, 192)' class="gridline"  d='M82.5,381.7 L295.3,381.7  '/></g>
<g fill="none" color="black" stroke="currentColor" stroke-width="1.00" stroke-linecap="butt" stroke-linejoin="miter">
	<path stroke='black'  d='M82.5,381.7 L87.3,381.7 M295.3,381.7 L290.5,381.7  '/></g>
<g fill="none" color="black" stroke="currentColor" stroke-width="1.00" stroke-linecap="butt" stroke-linejoin="miter">
	<path stroke='rgb(192, 192, 192)' class="gridline"  d='M82.5,376.3 L295.3,376.3  '/></g>
<g fill="none" color="black" stroke="currentColor" stroke-width="1.00" stroke-linecap="butt" stroke-linejoin="miter">
	<path stroke='black'  d='M82.5,376.3 L87.3,376.3 M295.3,376.3 L290.5,376.3  '/></g>
<g fill="none" color="black" stroke="currentColor" stroke-width="1.00" stroke-linecap="butt" stroke-linejoin="miter">
	<path stroke='rgb(192, 192, 192)' class="gridline"  d='M82.5,371.7 L295.3,371.7  '/></g>
<g fill="none" color="black" stroke="currentColor" stroke-width="1.00" stroke-linecap="butt" stroke-linejoin="miter">
	<path stroke='black'  d='M82.5,371.7 L87.3,371.7 M295.3,371.7 L290.5,371.7  '/></g>
<g fill="none" color="black" stroke="currentColor" stroke-width="1.00" stroke-linecap="butt" stroke-linejoin="miter">
	<path stroke='rgb(192, 192, 192)' class="gridline"  d='M82.5,367.7 L295.3,367.7  '/></g>
<g fill="none" color="black" stroke="currentColor" stroke-width="1.00" stroke-linecap="butt" stroke-linejoin="miter">
	<path stroke='black'  d='M82.5,367.7 L87.3,367.7 M295.3,367.7 L290.5,367.7  '/></g>
<g fill="none" color="black" stroke="currentColor" stroke-width="1.00" stroke-linecap="butt" stroke-linejoin="miter">
	<path stroke='rgb(192, 192, 192)' class="gridline"  d='M82.5,364.2 L295.3,364.2  '/></g>
<g fill="none" color="black" stroke="currentColor" stroke-width="1.00" stroke-linecap="butt" stroke-linejoin="miter">
	<path stroke='black'  d='M82.5,364.2 L87.3,364.2 M295.3,364.2 L290.5,364.2  '/></g>
<g fill="none" color="black" stroke="currentColor" stroke-width="1.00" stroke-linecap="butt" stroke-linejoin="miter">
	<path stroke='rgb(192, 192, 192)' class="gridline"  d='M82.5,361.1 L295.3,361.1  '/></g>
<g fill="none" color="black" stroke="currentColor" stroke-width="1.00" stroke-linecap="butt" stroke-linejoin="miter">
	<path stroke='black'  d='M82.5,361.1 L92.2,361.1 M295.3,361.1 L285.6,361.1  '/>	<g transform="translate(325.2,361.1) rotate(-90)" stroke="none" fill="black" font-family="arial" font-size="13.00"  text-anchor="end">
		<text> 100000</text>
	</g>
</g>
<g fill="none" color="black" stroke="currentColor" stroke-width="1.00" stroke-linecap="butt" stroke-linejoin="miter">
</g>
<g fill="none" color="black" stroke="currentColor" stroke-width="1.00" stroke-linecap="butt" stroke-linejoin="miter">
	<path stroke='rgb(192, 192, 192)' class="gridline"  d='M82.5,340.5 L295.3,340.5  '/></g>
<g fill="none" color="black" stroke="currentColor" stroke-width="1.00" stroke-linecap="butt" stroke-linejoin="miter">
	<path stroke='black'  d='M82.5,340.5 L87.3,340.5 M295.3,340.5 L290.5,340.5  '/></g>
<g fill="none" color="black" stroke="currentColor" stroke-width="1.00" stroke-linecap="butt" stroke-linejoin="miter">
	<path stroke='rgb(192, 192, 192)' class="gridline"  d='M82.5,328.5 L295.3,328.5  '/></g>
<g fill="none" color="black" stroke="currentColor" stroke-width="1.00" stroke-linecap="butt" stroke-linejoin="miter">
	<path stroke='black'  d='M82.5,328.5 L87.3,328.5 M295.3,328.5 L290.5,328.5  '/></g>
<g fill="none" color="black" stroke="currentColor" stroke-width="1.00" stroke-linecap="butt" stroke-linejoin="miter">
	<path stroke='rgb(192, 192, 192)' class="gridline"  d='M82.5,320.0 L295.3,320.0  '/></g>
<g fill="none" color="black" stroke="currentColor" stroke-width="1.00" stroke-linecap="butt" stroke-linejoin="miter">
	<path stroke='black'  d='M82.5,320.0 L87.3,320.0 M295.3,320.0 L290.5,320.0  '/></g>
<g fill="none" color="black" stroke="currentColor" stroke-width="1.00" stroke-linecap="butt" stroke-linejoin="miter">
	<path stroke='rgb(192, 192, 192)' class="gridline"  d='M82.5,313.4 L295.3,313.4  '/></g>
<g fill="none" color="black" stroke="currentColor" stroke-width="1.00" stroke-linecap="butt" stroke-linejoin="miter">
	<path stroke='black'  d='M82.5,313.4 L87.3,313.4 M295.3,313.4 L290.5,313.4  '/></g>
<g fill="none" color="black" stroke="currentColor" stroke-width="1.00" stroke-linecap="butt" stroke-linejoin="miter">
	<path stroke='rgb(192, 192, 192)' class="gridline"  d='M82.5,308.0 L295.3,308.0  '/></g>
<g fill="none" color="black" stroke="currentColor" stroke-width="1.00" stroke-linecap="butt" stroke-linejoin="miter">
	<path stroke='black'  d='M82.5,308.0 L87.3,308.0 M295.3,308.0 L290.5,308.0  '/></g>
<g fill="none" color="black" stroke="currentColor" stroke-width="1.00" stroke-linecap="butt" stroke-linejoin="miter">
	<path stroke='rgb(192, 192, 192)' class="gridline"  d='M82.5,303.4 L295.3,303.4  '/></g>
<g fill="none" color="black" stroke="currentColor" stroke-width="1.00" stroke-linecap="butt" stroke-linejoin="miter">
	<path stroke='black'  d='M82.5,303.4 L87.3,303.4 M295.3,303.4 L290.5,303.4  '/></g>
<g fill="none" color="black" stroke="currentColor" stroke-width="1.00" stroke-linecap="butt" stroke-linejoin="miter">
	<path stroke='rgb(192, 192, 192)' class="gridline"  d='M82.5,299.4 L295.3,299.4  '/></g>
<g fill="none" color="black" stroke="currentColor" stroke-width="1.00" stroke-linecap="butt" stroke-linejoin="miter">
	<path stroke='black'  d='M82.5,299.4 L87.3,299.4 M295.3,299.4 L290.5,299.4  '/></g>
<g fill="none" color="black" stroke="currentColor" stroke-width="1.00" stroke-linecap="butt" stroke-linejoin="miter">
	<path stroke='rgb(192, 192, 192)' class="gridline"  d='M82.5,295.9 L295.3,295.9  '/></g>
<g fill="none" color="black" stroke="currentColor" stroke-width="1.00" stroke-linecap="butt" stroke-linejoin="miter">
	<path stroke='black'  d='M82.5,295.9 L87.3,295.9 M295.3,295.9 L290.5,295.9  '/></g>
<g fill="none" color="black" stroke="currentColor" stroke-width="1.00" stroke-linecap="butt" stroke-linejoin="miter">
	<path stroke='rgb(192, 192, 192)' class="gridline"  d='M82.5,292.8 L295.3,292.8  '/></g>
<g fill="none" color="black" stroke="currentColor" stroke-width="1.00" stroke-linecap="butt" stroke-linejoin="miter">
	<path stroke='black'  d='M82.5,292.8 L92.2,292.8 M295.3,292.8 L285.6,292.8  '/>	<g transform="translate(325.2,292.8) rotate(-90)" stroke="none" fill="black" font-family="arial" font-size="13.00"  text-anchor="end">
		<text> 1e+06</text>
	</g>
</g>
<g fill="none" color="black" stroke="currentColor" stroke-width="1.00" stroke-linecap="butt" stroke-linejoin="miter">
</g>
<g fill="none" color="black" stroke="currentColor" stroke-width="1.00" stroke-linecap="butt" stroke-linejoin="miter">
	<path stroke='rgb(192, 192, 192)' class="gridline"  d='M82.5,272.2 L295.3,272.2  '/></g>
<g fill="none" color="black" stroke="currentColor" stroke-width="1.00" stroke-linecap="butt" stroke-linejoin="miter">
	<path stroke='black'  d='M82.5,272.2 L87.3,272.2 M295.3,272.2 L290.5,272.2  '/></g>
<g fill="none" color="black" stroke="currentColor" stroke-width="1.00" stroke-linecap="butt" stroke-linejoin="miter">
	<path stroke='rgb(192, 192, 192)' class="gridline"  d='M82.5,260.2 L295.3,260.2  '/></g>
<g fill="none" color="black" stroke="currentColor" stroke-width="1.00" stroke-linecap="butt" stroke-linejoin="miter">
	<path stroke='black'  d='M82.5,260.2 L87.3,260.2 M295.3,260.2 L290.5,260.2  '/></g>
<g fill="none" color="black" stroke="currentColor" stroke-width="1.00" stroke-linecap="butt" stroke-linejoin="miter">
	<path stroke='rgb(192, 192, 192)' class="gridline"  d='M82.5,251.7 L295.3,251.7  '/></g>
<g fill="none" color="black" stroke="currentColor" stroke-width="1.00" stroke-linecap="butt" stroke-linejoin="miter">
	<path stroke='black'  d='M82.5,251.7 L87.3,251.7 M295.3,251.7 L290.5,251.7  '/></g>
<g fill="none" color="black" stroke="currentColor" stroke-width="1.00" stroke-linecap="butt" stroke-linejoin="miter">
	<path stroke='rgb(192, 192, 192)' class="gridline"  d='M82.5,245.1 L295.3,245.1  '/></g>
<g fill="none" color="black" stroke="currentColor" stroke-width="1.00" stroke-linecap="butt" stroke-linejoin="miter">
	<path stroke='black'  d='M82.5,245.1 L87.3,245.1 M295.3,245.1 L290.5,245.1  '/></g>
<g fill="none" color="black" stroke="currentColor" stroke-width="1.00" stroke-linecap="butt" stroke-linejoin="miter">
	<path stroke='rgb(192, 192, 192)' class="gridline"  d='M82.5,239.7 L295.3,239.7  '/></g>
<g fill="none" color="black" stroke="currentColor" stroke-width="1.00" stroke-linecap="butt" stroke-linejoin="miter">
	<path stroke='black'  d='M82.5,239.7 L87.3,239.7 M295.3,239.7 L290.5,239.7  '/></g>
<g fill="none" color="black" stroke="currentColor" stroke-width="1.00" stroke-linecap="butt" stroke-linejoin="miter">
	<path stroke='rgb(192, 192, 192)' class="gridline"  d='M82.5,235.1 L295.3,235.1  '/></g>
<g fill="none" color="black" stroke="currentColor" stroke-width="1.00" stroke-linecap="butt" stroke-linejoin="miter">
	<path stroke='black'  d='M82.5,235.1 L87.3,235.1 M295.3,235.1 L290.5,235.1  '/></g>
<g fill="none" color="black" stroke="currentColor" stroke-width="1.00" stroke-linecap="butt" stroke-linejoin="miter">
	<path stroke='rgb(192, 192, 192)' class="gridline"  d='M82.5,231.1 L295.3,231.1  '/></g>
<g fill="none" color="black" stroke="currentColor" stroke-width="1.00" stroke-linecap="butt" stroke-linejoin="miter">
	<path stroke='black'  d='M82.5,231.1 L87.3,231.1 M295.3,231.1 L290.5,231.1  '/></g>
<g fill="none" color="black" stroke="currentColor" stroke-width="1.00" stroke-linecap="butt" stroke-linejoin="miter">
	<path stroke='rgb(192, 192, 192)' class="gridline"  d='M82.5,227.6 L295.3,227.6  '/></g>
<g fill="none" color="black" stroke="currentColor" stroke-width="1.00" stroke-linecap="butt" stroke-linejoin="miter">
	<path stroke='black'  d='M82.5,227.6 L87.3,227.6 M295.3,227.6 L290.5,227.6  '/></g>
<g fill="none" color="black" stroke="currentColor" stroke-width="1.00" stroke-linecap="butt" stroke-linejoin="miter">
	<path stroke='rgb(192, 192, 192)' class="gridline"  d='M82.5,224.5 L295.3,224.5  '/></g>
<g fill="none" color="black" stroke="currentColor" stroke-width="1.00" stroke-linecap="butt" stroke-linejoin="miter">
	<path stroke='black'  d='M82.5,224.5 L92.2,224.5 M295.3,224.5 L285.6,224.5  '/>	<g transform="translate(325.2,224.5) rotate(-90)" stroke="none" fill="black" font-family="arial" font-size="13.00"  text-anchor="end">
		<text> 1e+07</text>
	</g>
</g>
<g fill="none" color="black" stroke="currentColor" stroke-width="1.00" stroke-linecap="butt" stroke-linejoin="miter">
</g>
<g fill="none" color="black" stroke="currentColor" stroke-width="1.00" stroke-linecap="butt" stroke-linejoin="miter">
	<path stroke='rgb(192, 192, 192)' class="gridline"  d='M82.5,203.9 L295.3,203.9  '/></g>
<g fill="none" color="black" stroke="currentColor" stroke-width="1.00" stroke-linecap="butt" stroke-linejoin="miter">
	<path stroke='black'  d='M82.5,203.9 L87.3,203.9 M295.3,203.9 L290.5,203.9  '/></g>
<g fill="none" color="black" stroke="currentColor" stroke-width="1.00" stroke-linecap="butt" stroke-linejoin="miter">
	<path stroke='rgb(192, 192, 192)' class="gridline"  d='M82.5,191.9 L295.3,191.9  '/></g>
<g fill="none" color="black" stroke="currentColor" stroke-width="1.00" stroke-linecap="butt" stroke-linejoin="miter">
	<path stroke='black'  d='M82.5,191.9 L87.3,191.9 M295.3,191.9 L290.5,191.9  '/></g>
<g fill="none" color="black" stroke="currentColor" stroke-width="1.00" stroke-linecap="butt" stroke-linejoin="miter">
	<path stroke='rgb(192, 192, 192)' class="gridline"  d='M82.5,183.4 L295.3,183.4  '/></g>
<g fill="none" color="black" stroke="currentColor" stroke-width="1.00" stroke-linecap="butt" stroke-linejoin="miter">
	<path stroke='black'  d='M82.5,183.4 L87.3,183.4 M295.3,183.4 L290.5,183.4  '/></g>
<g fill="none" color="black" stroke="currentColor" stroke-width="1.00" stroke-linecap="butt" stroke-linejoin="miter">
	<path stroke='rgb(192, 192, 192)' class="gridline"  d='M82.5,176.8 L295.3,176.8  '/></g>
<g fill="none" color="black" stroke="currentColor" stroke-width="1.00" stroke-linecap="butt" stroke-linejoin="miter">
	<path stroke='black'  d='M82.5,176.8 L87.3,176.8 M295.3,176.8 L290.5,176.8  '/></g>
<g fill="none" color="black" stroke="currentColor" stroke-width="1.00" stroke-linecap="butt" stroke-linejoin="miter">
	<path stroke='rgb(192, 192, 192)' class="gridline"  d='M82.5,171.4 L295.3,171.4  '/></g>
<g fill="none" color="black" stroke="currentColor" stroke-width="1.00" stroke-linecap="butt" stroke-linejoin="miter">
	<path stroke='black'  d='M82.5,171.4 L87.3,171.4 M295.3,171.4 L290.5,171.4  '/></g>
<g fill="none" color="black" stroke="currentColor" stroke-width="1.00" stroke-linecap="butt" stroke-linejoin="miter">
	<path stroke='rgb(192, 192, 192)' class="gridline"  d='M82.5,166.8 L295.3,166.8  '/></g>
<g fill="none" color="black" stroke="currentColor" stroke-width="1.00" stroke-linecap="butt" stroke-linejoin="miter">
	<path stroke='black'  d='M82.5,166.8 L87.3,166.8 M295.3,166.8 L290.5,166.8  '/></g>
<g fill="none" color="black" stroke="currentColor" stroke-width="1.00" stroke-linecap="butt" stroke-linejoin="miter">
	<path stroke='rgb(192, 192, 192)' class="gridline"  d='M82.5,162.8 L295.3,162.8  '/></g>
<g fill="none" color="black" stroke="currentColor" stroke-width="1.00" stroke-linecap="butt" stroke-linejoin="miter">
	<path stroke='black'  d='M82.5,162.8 L87.3,162.8 M295.3,162.8 L290.5,162.8  '/></g>
<g fill="none" color="black" stroke="currentColor" stroke-width="1.00" stroke-linecap="butt" stroke-linejoin="miter">
	<path stroke='rgb(192, 192, 192)' class="gridline"  d='M82.5,159.3 L295.3,159.3  '/></g>
<g fill="none" color="black" stroke="currentColor" stroke-width="1.00" stroke-linecap="butt" stroke-linejoin="miter">
	<path stroke='black'  d='M82.5,159.3 L87.3,159.3 M295.3,159.3 L290.5,159.3  '/></g>
<g fill="none" color="black" stroke="currentColor" stroke-width="1.00" stroke-linecap="butt" stroke-linejoin="miter">
	<path stroke='rgb(192, 192, 192)' class="gridline"  d='M82.5,156.2 L295.3,156.2  '/></g>
<g fill="none" color="black" stroke="currentColor" stroke-width="1.00" stroke-linecap="butt" stroke-linejoin="miter">
	<path stroke='black'  d='M82.5,156.2 L92.2,156.2 M295.3,156.2 L285.6,156.2  '/>	<g transform="translate(325.2,156.2) rotate(-90)" stroke="none" fill="black" font-family="arial" font-size="13.00"  text-anchor="end">
		<text> 1e+08</text>
	</g>
</g>
<g fill="none" color="black" stroke="currentColor" stroke-width="1.00" stroke-linecap="butt" stroke-linejoin="miter">
</g>
<g fill="none" color="black" stroke="currentColor" stroke-width="1.00" stroke-linecap="butt" stroke-linejoin="miter">
	<path stroke='rgb(192, 192, 192)' class="gridline"  d='M82.5,135.6 L295.3,135.6  '/></g>
<g fill="none" color="black" stroke="currentColor" stroke-width="1.00" stroke-linecap="butt" stroke-linejoin="miter">
	<path stroke='black'  d='M82.5,135.6 L87.3,135.6 M295.3,135.6 L290.5,135.6  '/></g>
<g fill="none" color="black" stroke="currentColor" stroke-width="1.00" stroke-linecap="butt" stroke-linejoin="miter">
	<path stroke='rgb(192, 192, 192)' class="gridline"  d='M82.5,123.6 L295.3,123.6  '/></g>
<g fill="none" color="black" stroke="currentColor" stroke-width="1.00" stroke-linecap="butt" stroke-linejoin="miter">
	<path stroke='black'  d='M82.5,123.6 L87.3,123.6 M295.3,123.6 L290.5,123.6  '/></g>
<g fill="none" color="black" stroke="currentColor" stroke-width="1.00" stroke-linecap="butt" stroke-linejoin="miter">
	<path stroke='rgb(192, 192, 192)' class="gridline"  d='M82.5,115.1 L295.3,115.1  '/></g>
<g fill="none" color="black" stroke="currentColor" stroke-width="1.00" stroke-linecap="butt" stroke-linejoin="miter">
	<path stroke='black'  d='M82.5,115.1 L87.3,115.1 M295.3,115.1 L290.5,115.1  '/></g>
<g fill="none" color="black" stroke="currentColor" stroke-width="1.00" stroke-linecap="butt" stroke-linejoin="miter">
	<path stroke='rgb(192, 192, 192)' class="gridline"  d='M82.5,108.5 L295.3,108.5  '/></g>
<g fill="none" color="black" stroke="currentColor" stroke-width="1.00" stroke-linecap="butt" stroke-linejoin="miter">
	<path stroke='black'  d='M82.5,108.5 L87.3,108.5 M295.3,108.5 L290.5,108.5  '/></g>
<g fill="none" color="black" stroke="currentColor" stroke-width="1.00" stroke-linecap="butt" stroke-linejoin="miter">
	<path stroke='rgb(192, 192, 192)' class="gridline"  d='M82.5,103.1 L295.3,103.1  '/></g>
<g fill="none" color="black" stroke="currentColor" stroke-width="1.00" stroke-linecap="butt" stroke-linejoin="miter">
	<path stroke='black'  d='M82.5,103.1 L87.3,103.1 M295.3,103.1 L290.5,103.1  '/></g>
<g fill="none" color="black" stroke="currentColor" stroke-width="1.00" stroke-linecap="butt" stroke-linejoin="miter">
	<path stroke='rgb(192, 192, 192)' class="gridline"  d='M82.5,98.5 L295.3,98.5  '/></g>
<g fill="none" color="black" stroke="currentColor" stroke-width="1.00" stroke-linecap="butt" stroke-linejoin="miter">
	<path stroke='black'  d='M82.5,98.5 L87.3,98.5 M295.3,98.5 L290.5,98.5  '/></g>
<g fill="none" color="black" stroke="currentColor" stroke-width="1.00" stroke-linecap="butt" stroke-linejoin="miter">
	<path stroke='rgb(192, 192, 192)' class="gridline"  d='M82.5,94.5 L295.3,94.5  '/></g>
<g fill="none" color="black" stroke="currentColor" stroke-width="1.00" stroke-linecap="butt" stroke-linejoin="miter">
	<path stroke='black'  d='M82.5,94.5 L87.3,94.5 M295.3,94.5 L290.5,94.5  '/></g>
<g fill="none" color="black" stroke="currentColor" stroke-width="1.00" stroke-linecap="butt" stroke-linejoin="miter">
	<path stroke='rgb(192, 192, 192)' class="gridline"  d='M82.5,91.0 L295.3,91.0  '/></g>
<g fill="none" color="black" stroke="currentColor" stroke-width="1.00" stroke-linecap="butt" stroke-linejoin="miter">
	<path stroke='black'  d='M82.5,91.0 L87.3,91.0 M295.3,91.0 L290.5,91.0  '/></g>
<g fill="none" color="black" stroke="currentColor" stroke-width="1.00" stroke-linecap="butt" stroke-linejoin="miter">
	<path stroke='rgb(192, 192, 192)' class="gridline"  d='M82.5,87.9 L295.3,87.9  '/></g>
<g fill="none" color="black" stroke="currentColor" stroke-width="1.00" stroke-linecap="butt" stroke-linejoin="miter">
	<path stroke='black'  d='M82.5,87.9 L92.2,87.9 M295.3,87.9 L285.6,87.9  '/>	<g transform="translate(325.2,87.9) rotate(-90)" stroke="none" fill="black" font-family="arial" font-size="13.00"  text-anchor="end">
		<text> 1e+09</text>
	</g>
</g>
<g fill="none" color="black" stroke="currentColor" stroke-width="1.00" stroke-linecap="butt" stroke-linejoin="miter">
</g>
<g fill="none" color="black" stroke="currentColor" stroke-width="1.00" stroke-linecap="butt" stroke-linejoin="miter">
	<path stroke='rgb(192, 192, 192)' class="gridline"  d='M82.5,67.3 L295.3,67.3  '/></g>
<g fill="none" color="black" stroke="currentColor" stroke-width="1.00" stroke-linecap="butt" stroke-linejoin="miter">
	<path stroke='black'  d='M82.5,67.3 L87.3,67.3 M295.3,67.3 L290.5,67.3  '/></g>
<g fill="none" color="black" stroke="currentColor" stroke-width="1.00" stroke-linecap="butt" stroke-linejoin="miter">
	<path stroke='rgb(192, 192, 192)' class="gridline"  d='M82.5,55.3 L295.3,55.3  '/></g>
<g fill="none" color="black" stroke="currentColor" stroke-width="1.00" stroke-linecap="butt" stroke-linejoin="miter">
	<path stroke='black'  d='M82.5,55.3 L87.3,55.3 M295.3,55.3 L290.5,55.3  '/></g>
<g fill="none" color="black" stroke="currentColor" stroke-width="1.00" stroke-linecap="butt" stroke-linejoin="miter">
	<path stroke='rgb(192, 192, 192)' class="gridline"  d='M82.5,46.8 L295.3,46.8  '/></g>
<g fill="none" color="black" stroke="currentColor" stroke-width="1.00" stroke-linecap="butt" stroke-linejoin="miter">
	<path stroke='black'  d='M82.5,46.8 L87.3,46.8 M295.3,46.8 L290.5,46.8  '/></g>
<g fill="none" color="black" stroke="currentColor" stroke-width="1.00" stroke-linecap="butt" stroke-linejoin="miter">
	<path stroke='rgb(192, 192, 192)' class="gridline"  d='M82.5,40.2 L295.3,40.2  '/></g>
<g fill="none" color="black" stroke="currentColor" stroke-width="1.00" stroke-linecap="butt" stroke-linejoin="miter">
	<path stroke='black'  d='M82.5,40.2 L87.3,40.2 M295.3,40.2 L290.5,40.2  '/></g>
<g fill="none" color="black" stroke="currentColor" stroke-width="1.00" stroke-linecap="butt" stroke-linejoin="miter">
	<path stroke='rgb(192, 192, 192)' class="gridline"  d='M82.5,34.8 L295.3,34.8  '/></g>
<g fill="none" color="black" stroke="currentColor" stroke-width="1.00" stroke-linecap="butt" stroke-linejoin="miter">
	<path stroke='black'  d='M82.5,34.8 L87.3,34.8 M295.3,34.8 L290.5,34.8  '/></g>
<g fill="none" color="black" stroke="currentColor" stroke-width="1.00" stroke-linecap="butt" stroke-linejoin="miter">
	<path stroke='rgb(192, 192, 192)' class="gridline"  d='M82.5,30.2 L295.3,30.2  '/></g>
<g fill="none" color="black" stroke="currentColor" stroke-width="1.00" stroke-linecap="butt" stroke-linejoin="miter">
	<path stroke='black'  d='M82.5,30.2 L87.3,30.2 M295.3,30.2 L290.5,30.2  '/></g>
<g fill="none" color="black" stroke="currentColor" stroke-width="1.00" stroke-linecap="butt" stroke-linejoin="miter">
	<path stroke='rgb(192, 192, 192)' class="gridline"  d='M82.5,26.2 L295.3,26.2  '/></g>
<g fill="none" color="black" stroke="currentColor" stroke-width="1.00" stroke-linecap="butt" stroke-linejoin="miter">
	<path stroke='black'  d='M82.5,26.2 L87.3,26.2 M295.3,26.2 L290.5,26.2  '/></g>
<g fill="none" color="black" stroke="currentColor" stroke-width="1.00" stroke-linecap="butt" stroke-linejoin="miter">
	<path stroke='rgb(192, 192, 192)' class="gridline"  d='M82.5,22.7 L295.3,22.7  '/></g>
<g fill="none" color="black" stroke="currentColor" stroke-width="1.00" stroke-linecap="butt" stroke-linejoin="miter">
	<path stroke='black'  d='M82.5,22.7 L87.3,22.7 M295.3,22.7 L290.5,22.7  '/></g>
<g fill="none" color="black" stroke="currentColor" stroke-width="1.00" stroke-linecap="butt" stroke-linejoin="miter">
	<path stroke='rgb(192, 192, 192)' class="gridline"  d='M82.5,19.6 L295.3,19.6  '/></g>
<g fill="none" color="black" stroke="currentColor" stroke-width="1.00" stroke-linecap="butt" stroke-linejoin="miter">
	<path stroke='black'  d='M82.5,19.6 L92.2,19.6 M295.3,19.6 L285.6,19.6  '/>	<g transform="translate(325.2,19.6) rotate(-90)" stroke="none" fill="black" font-family="arial" font-size="13.00"  text-anchor="end">
		<text> 1e+10</text>
	</g>
</g>
<g fill="none" color="black" stroke="currentColor" stroke-width="1.00" stroke-linecap="butt" stroke-linejoin="miter">
	<path stroke='black'  d='M118.0,566.0 M118.0,19.6  '/>	<g transform="translate(122.2,575.1) rotate(-90)" stroke="none" fill="black" font-family="arial" font-size="13.00"  text-anchor="end">
		<text>fixed_function</text>
	</g>
</g>
<g fill="none" color="black" stroke="currentColor" stroke-width="1.00" stroke-linecap="butt" stroke-linejoin="miter">
	<path stroke='black'  d='M153.4,566.0 M153.4,19.6  '/>	<g transform="translate(157.6,575.1) rotate(-90)" stroke="none" fill="black" font-family="arial" font-size="13.00"  text-anchor="end">
		<text>function_ptr</text>
	</g>
</g>
<g fill="none" color="black" stroke="currentColor" stroke-width="1.00" stroke-linecap="butt" stroke-linejoin="miter">
	<path stroke='black'  d='M188.9,566.0 M188.9,19.6  '/>	<g transform="translate(193.1,575.1) rotate(-90)" stroke="none" fill="black" font-family="arial" font-size="13.00"  text-anchor="end">
		<text>std_function</text>
	</g>
</g>
<g fill="none" color="black" stroke="currentColor" stroke-width="1.00" stroke-linecap="butt" stroke-linejoin="miter">
	<path stroke='black'  d='M224.4,566.0 M224.4,19.6  '/>	<g transform="translate(228.6,575.1) rotate(-90)" stroke="none" fill="black" font-family="arial" font-size="13.00"  text-anchor="end">
		<text>virtual_function</text>
	</g>
</g>
<g fill="none" color="black" stroke="currentColor" stroke-width="1.00" stroke-linecap="butt" stroke-linejoin="miter">
	<path stroke='black'  d='M259.8,566.0 M259.8,19.6  '/>	<g transform="translate(264.0,575.1) rotate(-90)" stroke="none" fill="black" font-family="arial" font-size="13.00"  text-anchor="end">
		<text>virtual_function_no_rtti</text>
	</g>
</g>
<g fill="none" color="black" stroke="currentColor" stroke-width="1.00" stroke-linecap="butt" stroke-linejoin="miter">
</g>
<g fill="none" color="black" stroke="currentColor" stroke-width="1.00" stroke-linecap="butt" stroke-linejoin="miter">
	<path stroke='black'  d='M82.5,19.6 L82.5,566.0 L295.3,566.0 L295.3,19.6 L82.5,19.6 Z  '/></g>
<g fill="none" color="black" stroke="currentColor" stroke-width="1.00" stroke-linecap="butt" stroke-linejoin="miter">
	<g stroke='none' shape-rendering='crispEdges'>
		<polygon fill = 'rgb(255, 255, 255)' points = '231.5,167.1 284.7,167.1 284.7,30.5 231.5,30.5 '/>
	</g>
</g>
<g fill="none" color="black" stroke="currentColor" stroke-width="1.00" stroke-linecap="butt" stroke-linejoin="miter">
	<g stroke='none' shape-rendering='crispEdges'>
		<polygon fill = 'rgb(148,   0, 211)' points = '250.6,101.6 259.1,101.6 259.1,41.5 250.6,41.5 '/>
	</g>
	<path stroke='black'  d='M250.6,101.6 L250.6,41.5 L259.1,41.5 L259.1,101.6 L250.6,101.6 Z  '/></g>
<g fill="none" color="black" stroke="currentColor" stroke-width="1.00" stroke-linecap="butt" stroke-linejoin="miter">
	<g stroke='none' shape-rendering='crispEdges'>
		<polygon fill = 'rgb(  0, 158, 115)' points = '267.6,101.6 276.1,101.6 276.1,41.5 267.6,41.5 '/>
	</g>
	<path stroke='black'  d='M267.6,101.6 L267.6,41.5 L276.1,41.5 L276.1,101.6 L267.6,101.6 Z  '/>	<g transform="translate(259.1,112.5) rotate(-90)" stroke="none" fill="black" font-family="arial" font-size="13.00"  text-anchor="end">
		<text>ROM</text>
	</g>
	<g transform="translate(276.1,112.5) rotate(-90)" stroke="none" fill="black" font-family="arial" font-size="13.00"  text-anchor="end">
		<text>RAM</text>
	</g>
</g>
<g fill="none" color="black" stroke="currentColor" stroke-width="1.00" stroke-linecap="butt" stroke-linejoin="miter">
	<g transform="translate(348.3,234.3) rotate(-90)" stroke="none" fill="black" font-family="arial" font-size="13.00"  text-anchor="end">
		<text>Speicherbedarf/Bytes</text>
	</g>
</g>
<g fill="none" color="black" stroke="currentColor" stroke-width="1.00" stroke-linecap="butt" stroke-linejoin="miter">
</g>
	<g id="gnuplot_plot_1" ><title>gnuplot_plot_1</title>
<g fill="none" color="black" stroke="currentColor" stroke-width="1.00" stroke-linecap="butt" stroke-linejoin="miter">
	<g stroke='none' shape-rendering='crispEdges'>
		<polygon fill = 'rgb(148,   0, 211)' points = '106.1,566.0 118.1,566.0 118.1,499.3 106.1,499.3 '/>
	</g>
	<path stroke='rgb(  0,   0,   0)'  d='M106.1,566.0 L106.1,499.4 L118.0,499.4 L118.0,566.0 L106.1,566.0 Z  '/></g>
<g fill="none" color="black" stroke="currentColor" stroke-width="1.00" stroke-linecap="butt" stroke-linejoin="miter">
	<g stroke='none' shape-rendering='crispEdges'>
		<polygon fill = 'rgb(148,   0, 211)' points = '141.6,566.0 153.5,566.0 153.5,505.3 141.6,505.3 '/>
	</g>
	<path stroke='rgb(  0,   0,   0)'  d='M141.6,566.0 L141.6,505.4 L153.4,505.4 L153.4,566.0 L141.6,566.0 Z  '/></g>
<g fill="none" color="black" stroke="currentColor" stroke-width="1.00" stroke-linecap="butt" stroke-linejoin="miter">
	<g stroke='none' shape-rendering='crispEdges'>
		<polygon fill = 'rgb(148,   0, 211)' points = '177.1,566.0 189.0,566.0 189.0,452.6 177.1,452.6 '/>
	</g>
	<path stroke='rgb(  0,   0,   0)'  d='M177.1,566.0 L177.1,452.7 L188.9,452.7 L188.9,566.0 L177.1,566.0 Z  '/></g>
<g fill="none" color="black" stroke="currentColor" stroke-width="1.00" stroke-linecap="butt" stroke-linejoin="miter">
	<g stroke='none' shape-rendering='crispEdges'>
		<polygon fill = 'rgb(148,   0, 211)' points = '212.5,566.0 224.5,566.0 224.5,510.6 212.5,510.6 '/>
	</g>
	<path stroke='rgb(  0,   0,   0)'  d='M212.5,566.0 L212.5,510.7 L224.4,510.7 L224.4,566.0 L212.5,566.0 Z  '/></g>
<g fill="none" color="black" stroke="currentColor" stroke-width="1.00" stroke-linecap="butt" stroke-linejoin="miter">
	<g stroke='none' shape-rendering='crispEdges'>
		<polygon fill = 'rgb(148,   0, 211)' points = '248.0,566.0 259.9,566.0 259.9,510.6 248.0,510.6 '/>
	</g>
	<path stroke='rgb(  0,   0,   0)'  d='M248.0,566.0 L248.0,510.7 L259.8,510.7 L259.8,566.0 L248.0,566.0 Z  '/></g>
<g fill="none" color="black" stroke="currentColor" stroke-width="1.00" stroke-linecap="butt" stroke-linejoin="miter">
</g>
<g fill="none" color="black" stroke="rgb(148,   0, 211)" stroke-width="0.00" stroke-linecap="butt" stroke-linejoin="miter">
</g>
<g fill="none" color="black" stroke="rgb(  0,   0,   0)" stroke-width="1.00" stroke-linecap="butt" stroke-linejoin="miter">
	<path stroke='black'  d='M112.1,508.0 L112.1,495.2 M107.3,508.0 L116.9,508.0 M107.3,495.2 L116.9,495.2 M147.5,533.4 L147.5,493.9
		M142.7,533.4 L152.3,533.4 M142.7,493.9 L152.3,493.9 M183.0,472.1 L183.0,429.4 M178.2,472.1 L187.8,472.1
		M178.2,429.4 L187.8,429.4 M218.5,523.6 L218.5,499.6 M213.7,523.6 L223.3,523.6 M213.7,499.6 L223.3,499.6
		M253.9,523.6 L253.9,499.6 M249.1,523.6 L258.7,523.6 M249.1,499.6 L258.7,499.6  '/></g>
<g fill="none" color="black" stroke="currentColor" stroke-width="1.00" stroke-linecap="butt" stroke-linejoin="miter">
</g>
	</g>
	<g id="gnuplot_plot_2" ><title>gnuplot_plot_2</title>
<g fill="none" color="black" stroke="currentColor" stroke-width="1.00" stroke-linecap="butt" stroke-linejoin="miter">
	<g stroke='none' shape-rendering='crispEdges'>
		<polygon fill = 'rgb(  0, 158, 115)' points = '118.0,566.0 129.9,566.0 129.9,92.3 118.0,92.3 '/>
	</g>
	<path stroke='rgb(  0,   0,   0)'  d='M118.0,566.0 L118.0,92.4 L129.8,92.4 L129.8,566.0 L118.0,566.0 Z  '/></g>
<g fill="none" color="black" stroke="currentColor" stroke-width="1.00" stroke-linecap="butt" stroke-linejoin="miter">
	<g stroke='none' shape-rendering='crispEdges'>
		<polygon fill = 'rgb(  0, 158, 115)' points = '153.4,566.0 165.4,566.0 165.4,533.7 153.4,533.7 '/>
	</g>
	<path stroke='rgb(  0,   0,   0)'  d='M153.4,566.0 L153.4,533.8 L165.3,533.8 L165.3,566.0 L153.4,566.0 Z  '/></g>
<g fill="none" color="black" stroke="currentColor" stroke-width="1.00" stroke-linecap="butt" stroke-linejoin="miter">
	<g stroke='none' shape-rendering='crispEdges'>
		<polygon fill = 'rgb(  0, 158, 115)' points = '188.9,566.0 200.8,566.0 200.8,510.2 188.9,510.2 '/>
	</g>
	<path stroke='rgb(  0,   0,   0)'  d='M188.9,566.0 L188.9,510.3 L200.7,510.3 L200.7,566.0 L188.9,566.0 Z  '/></g>
<g fill="none" color="black" stroke="currentColor" stroke-width="1.00" stroke-linecap="butt" stroke-linejoin="miter">
	<g stroke='none' shape-rendering='crispEdges'>
		<polygon fill = 'rgb(  0, 158, 115)' points = '224.4,566.0 236.3,566.0 236.3,543.2 224.4,543.2 '/>
	</g>
	<path stroke='rgb(  0,   0,   0)'  d='M224.4,566.0 L224.4,543.3 L236.2,543.3 L236.2,566.0 L224.4,566.0 Z  '/></g>
<g fill="none" color="black" stroke="currentColor" stroke-width="1.00" stroke-linecap="butt" stroke-linejoin="miter">
	<g stroke='none' shape-rendering='crispEdges'>
		<polygon fill = 'rgb(  0, 158, 115)' points = '259.8,566.0 271.8,566.0 271.8,543.3 259.8,543.3 '/>
	</g>
	<path stroke='rgb(  0,   0,   0)'  d='M259.8,566.0 L259.8,543.4 L271.7,543.4 L271.7,566.0 L259.8,566.0 Z  '/></g>
<g fill="none" color="black" stroke="currentColor" stroke-width="1.00" stroke-linecap="butt" stroke-linejoin="miter">
</g>
<g fill="none" color="black" stroke="rgb(  0, 158, 115)" stroke-width="0.00" stroke-linecap="butt" stroke-linejoin="miter">
</g>
<g fill="none" color="black" stroke="rgb(  0,   0,   0)" stroke-width="1.00" stroke-linecap="butt" stroke-linejoin="miter">
	<path stroke='black'  d='M123.9,497.6 L123.9,65.2 M119.1,497.6 L128.7,497.6 M119.1,65.2 L128.7,65.2 M159.3,538.1 L159.3,522.7
		M154.5,538.1 L164.1,538.1 M154.5,522.7 L164.1,522.7 M194.8,522.7 L194.8,496.6 M190.0,522.7 L199.6,522.7
		M190.0,496.6 L199.6,496.6 M230.3,548.1 L230.3,534.5 M225.5,548.1 L235.1,548.1 M225.5,534.5 L235.1,534.5
		M265.7,548.1 L265.7,533.3 M260.9,548.1 L270.5,548.1 M260.9,533.3 L270.5,533.3  '/></g>
<g fill="none" color="black" stroke="currentColor" stroke-width="1.00" stroke-linecap="butt" stroke-linejoin="miter">
</g>
	</g>
<g fill="none" color="white" stroke="rgb(  0, 158, 115)" stroke-width="2.00" stroke-linecap="butt" stroke-linejoin="miter">
</g>
<g fill="none" color="black" stroke="currentColor" stroke-width="2.00" stroke-linecap="butt" stroke-linejoin="miter">
</g>
<g fill="none" color="black" stroke="black" stroke-width="1.00" stroke-linecap="butt" stroke-linejoin="miter">
</g>
<g fill="none" color="black" stroke="currentColor" stroke-width="1.00" stroke-linecap="butt" stroke-linejoin="miter">
	<path stroke='black'  d='M82.5,19.6 L82.5,566.0 L295.3,566.0 L295.3,19.6 L82.5,19.6 Z  '/>	<g transform="translate(241.0,101.6) rotate(-90)" stroke="none" fill="black" font-family="arial" font-size="13.00"  text-anchor="middle">
		<text>Speicherklasse</text>
	</g>
</g>
<g fill="none" color="black" stroke="currentColor" stroke-width="1.00" stroke-linecap="butt" stroke-linejoin="miter">
</g>
</g>
</svg>

