solution_id,toolchain_id,text_size,rodata_size,data_size,stack_usage
c_oop,armclang,272.5,4.0,20.0,23.5
c_oop,armcc,346.75,4.0,20.0,40.875
c_oop,gnu,83.0,18.375,20.0,15.625
c_oop,clang,391.75,12.0,20.0,8.666666666666666
c_oop,iar,82.0,5.0,20.0,19.875
dyn_cast,armclang,1989.5,380.0,24.0,196.0
dyn_cast,armcc,2245.25,337.0,24.0,200.0
dyn_cast,gnu,1297.5,357.375,37.0,114.0
dyn_cast,clang,1612.25,351.0,37.0,145.0
dyn_cast,iar,1670.0,369.0,21.0,182.0
function_struct,armclang,276.5,4.0,12.0,37.5
function_struct,armcc,348.75,4.0,12.0,40.875
function_struct,gnu,86.5,18.375,12.0,15.625
function_struct,clang,401.75,12.0,12.0,13.5
function_struct,iar,82.0,5.0,12.0,19.875
inheritance,armclang,553.5,20.0,24.0,44.0
inheritance,armcc,713.25,20.0,24.0,83.75
inheritance,gnu,442.5,34.375,37.0,49.0
inheritance,clang,699.75,28.0,37.0,19.0
inheritance,iar,139.0,21.0,21.0,41.75
union_enum,armclang,362.0,None,4.0,37.0
union_enum,armcc,438.25,None,4.0,60.5
union_enum,gnu,152.0,14.375,4.0,44.5
union_enum,clang,480.75,8.0,4.0,12.0
union_enum,iar,147.0,1.0,4.0,21.875
variant,armclang,489.5,None,20.0,65.0
variant,armcc,None,None,None,0
variant,gnu,261.5,14.375,24.0,15.625
variant,clang,683.75,8.0,24.0,46.0
variant,iar,650.0,41.0,210.0,64.875
virtual_inheritance,armclang,553.5,32.0,24.0,44.0
virtual_inheritance,armcc,723.25,40.0,24.0,75.875
virtual_inheritance,gnu,526.5,54.375,37.0,22.0
virtual_inheritance,clang,699.75,40.0,37.0,17.0
virtual_inheritance,iar,293.0,33.0,37.0,42.875
visitor_pattern,armclang,549.0,12.0,24.0,41.0
visitor_pattern,armcc,435.25,12.0,24.0,40.875
visitor_pattern,gnu,196.5,26.375,24.0,20.0
visitor_pattern,clang,580.75,20.0,24.0,29.0
visitor_pattern,iar,154.5,13.0,21.0,38.875
