benchmark_id,speed_min,speed_max,speed_mean,size_min,size_max,size_mean
construct,56.0,82.875,68.75,56.0,77.0,67.325
construct_destruct,24.0,58.875,46.925,43.0,58.875,49.55
pass_to_user,10.25,40.875,25.275,13.5,49.875,25.875
