solution_id,armclang,armcc,gnu,clang,iar
throw_exception_catch_all,920.9687299830771,246.41121739017305,364.9582844201166,375.5474382911655,237.78325552316352
throw_exception_catch_concrete_type,919.1225545526654,247.03892282730564,367.14066376133724,374.97096822603294,244.076195086737
throw_exception_catch_base_type,923.9536930100002,252.0781048162094,369.7404694319857,379.5658866430666,244.8308277248064
throw_exception_handler_chain,959.3284210371845,310.0811607796179,408.5276042293796,420.93651553264874,298.16682551944416
ref_struct,2.328363125578634,2.196960908641043,2.496075948950397,2.4960689047673355,2.4913021724331093
expected,3.1046372239428845,0,2.9990803232292267,3.236350250615563,3.079977438235741
outcome,3.6761321874825725,0,4.065761978553323,3.682380581398678,0
errno,2.35040210052994,2.6787259484828927,2.43732026615943,2.698007259750226,2.6446882017372966
optional,2.6394123134346192,0,2.3720103498336265,2.7831844584226864,2.8788347767545672
sjlj,1.2735313871511398,1.440109546078161,1.1094953393193685,1.170705271173663,1.18052925908557
