<?xml version="1.0" encoding="utf-8"  standalone="no"?>
<svg 
 width="450" height="800"
 viewBox="0 0 450 800"
 xmlns="http://www.w3.org/2000/svg"
 xmlns:xlink="http://www.w3.org/1999/xlink"
>

<title>Gnuplot</title>
<desc>Produced by GNUPLOT 5.2 patchlevel 8 </desc>

<g id="gnuplot_canvas">

<rect x="0" y="0" width="450" height="800" fill="none"/>
<defs>

	<circle id='gpDot' r='0.5' stroke-width='0.5' stroke='currentColor'/>
	<path id='gpPt0' stroke-width='0.206' stroke='currentColor' d='M-1,0 h2 M0,-1 v2'/>
	<path id='gpPt1' stroke-width='0.206' stroke='currentColor' d='M-1,-1 L1,1 M1,-1 L-1,1'/>
	<path id='gpPt2' stroke-width='0.206' stroke='currentColor' d='M-1,0 L1,0 M0,-1 L0,1 M-1,-1 L1,1 M-1,1 L1,-1'/>
	<rect id='gpPt3' stroke-width='0.206' stroke='currentColor' x='-1' y='-1' width='2' height='2'/>
	<rect id='gpPt4' stroke-width='0.206' stroke='currentColor' fill='currentColor' x='-1' y='-1' width='2' height='2'/>
	<circle id='gpPt5' stroke-width='0.206' stroke='currentColor' cx='0' cy='0' r='1'/>
	<use xlink:href='#gpPt5' id='gpPt6' fill='currentColor' stroke='none'/>
	<path id='gpPt7' stroke-width='0.206' stroke='currentColor' d='M0,-1.33 L-1.33,0.67 L1.33,0.67 z'/>
	<use xlink:href='#gpPt7' id='gpPt8' fill='currentColor' stroke='none'/>
	<use xlink:href='#gpPt7' id='gpPt9' stroke='currentColor' transform='rotate(180)'/>
	<use xlink:href='#gpPt9' id='gpPt10' fill='currentColor' stroke='none'/>
	<use xlink:href='#gpPt3' id='gpPt11' stroke='currentColor' transform='rotate(45)'/>
	<use xlink:href='#gpPt11' id='gpPt12' fill='currentColor' stroke='none'/>
	<path id='gpPt13' stroke-width='0.206' stroke='currentColor' d='M0,1.330 L1.265,0.411 L0.782,-1.067 L-0.782,-1.076 L-1.265,0.411 z'/>
	<use xlink:href='#gpPt13' id='gpPt14' fill='currentColor' stroke='none'/>
	<filter id='textbox' filterUnits='objectBoundingBox' x='0' y='0' height='1' width='1'>
	  <feFlood flood-color='white' flood-opacity='1' result='bgnd'/>
	  <feComposite in='SourceGraphic' in2='bgnd' operator='atop'/>
	</filter>
	<filter id='greybox' filterUnits='objectBoundingBox' x='0' y='0' height='1' width='1'>
	  <feFlood flood-color='lightgrey' flood-opacity='1' result='grey'/>
	  <feComposite in='SourceGraphic' in2='grey' operator='atop'/>
	</filter>
</defs>
<g fill="none" color="white" stroke="black" stroke-width="1.00" stroke-linecap="butt" stroke-linejoin="miter">
</g>
<g fill="none" color="black" stroke="currentColor" stroke-width="1.00" stroke-linecap="butt" stroke-linejoin="miter">
</g>
<g fill="none" color="black" stroke="currentColor" stroke-width="1.00" stroke-linecap="butt" stroke-linejoin="miter">
	<path stroke='rgb(192, 192, 192)' class="gridline"  d='M82.5,566.0 L395.3,566.0  '/></g>
<g fill="none" color="black" stroke="currentColor" stroke-width="1.00" stroke-linecap="butt" stroke-linejoin="miter">
	<path stroke='black'  d='M82.5,566.0 L92.2,566.0 M395.3,566.0 L385.6,566.0  '/>	<g transform="translate(416.2,566.0) rotate(-90)" stroke="none" fill="black" font-family="arial" font-size="13.00"  text-anchor="end">
		<text> 1</text>
	</g>
</g>
<g fill="none" color="black" stroke="currentColor" stroke-width="1.00" stroke-linecap="butt" stroke-linejoin="miter">
</g>
<g fill="none" color="black" stroke="currentColor" stroke-width="1.00" stroke-linecap="butt" stroke-linejoin="miter">
	<path stroke='rgb(192, 192, 192)' class="gridline"  d='M82.5,483.8 L395.3,483.8  '/></g>
<g fill="none" color="black" stroke="currentColor" stroke-width="1.00" stroke-linecap="butt" stroke-linejoin="miter">
	<path stroke='black'  d='M82.5,483.8 L87.3,483.8 M395.3,483.8 L390.5,483.8  '/></g>
<g fill="none" color="black" stroke="currentColor" stroke-width="1.00" stroke-linecap="butt" stroke-linejoin="miter">
	<path stroke='rgb(192, 192, 192)' class="gridline"  d='M82.5,435.7 L395.3,435.7  '/></g>
<g fill="none" color="black" stroke="currentColor" stroke-width="1.00" stroke-linecap="butt" stroke-linejoin="miter">
	<path stroke='black'  d='M82.5,435.7 L87.3,435.7 M395.3,435.7 L390.5,435.7  '/></g>
<g fill="none" color="black" stroke="currentColor" stroke-width="1.00" stroke-linecap="butt" stroke-linejoin="miter">
	<path stroke='rgb(192, 192, 192)' class="gridline"  d='M82.5,401.5 L395.3,401.5  '/></g>
<g fill="none" color="black" stroke="currentColor" stroke-width="1.00" stroke-linecap="butt" stroke-linejoin="miter">
	<path stroke='black'  d='M82.5,401.5 L87.3,401.5 M395.3,401.5 L390.5,401.5  '/></g>
<g fill="none" color="black" stroke="currentColor" stroke-width="1.00" stroke-linecap="butt" stroke-linejoin="miter">
	<path stroke='rgb(192, 192, 192)' class="gridline"  d='M82.5,375.0 L395.3,375.0  '/></g>
<g fill="none" color="black" stroke="currentColor" stroke-width="1.00" stroke-linecap="butt" stroke-linejoin="miter">
	<path stroke='black'  d='M82.5,375.0 L87.3,375.0 M395.3,375.0 L390.5,375.0  '/></g>
<g fill="none" color="black" stroke="currentColor" stroke-width="1.00" stroke-linecap="butt" stroke-linejoin="miter">
	<path stroke='rgb(192, 192, 192)' class="gridline"  d='M82.5,353.4 L395.3,353.4  '/></g>
<g fill="none" color="black" stroke="currentColor" stroke-width="1.00" stroke-linecap="butt" stroke-linejoin="miter">
	<path stroke='black'  d='M82.5,353.4 L87.3,353.4 M395.3,353.4 L390.5,353.4  '/></g>
<g fill="none" color="black" stroke="currentColor" stroke-width="1.00" stroke-linecap="butt" stroke-linejoin="miter">
	<path stroke='rgb(192, 192, 192)' class="gridline"  d='M82.5,335.1 L395.3,335.1  '/></g>
<g fill="none" color="black" stroke="currentColor" stroke-width="1.00" stroke-linecap="butt" stroke-linejoin="miter">
	<path stroke='black'  d='M82.5,335.1 L87.3,335.1 M395.3,335.1 L390.5,335.1  '/></g>
<g fill="none" color="black" stroke="currentColor" stroke-width="1.00" stroke-linecap="butt" stroke-linejoin="miter">
	<path stroke='rgb(192, 192, 192)' class="gridline"  d='M82.5,319.3 L395.3,319.3  '/></g>
<g fill="none" color="black" stroke="currentColor" stroke-width="1.00" stroke-linecap="butt" stroke-linejoin="miter">
	<path stroke='black'  d='M82.5,319.3 L87.3,319.3 M395.3,319.3 L390.5,319.3  '/></g>
<g fill="none" color="black" stroke="currentColor" stroke-width="1.00" stroke-linecap="butt" stroke-linejoin="miter">
	<path stroke='rgb(192, 192, 192)' class="gridline"  d='M82.5,305.3 L395.3,305.3  '/></g>
<g fill="none" color="black" stroke="currentColor" stroke-width="1.00" stroke-linecap="butt" stroke-linejoin="miter">
	<path stroke='black'  d='M82.5,305.3 L87.3,305.3 M395.3,305.3 L390.5,305.3  '/></g>
<g fill="none" color="black" stroke="currentColor" stroke-width="1.00" stroke-linecap="butt" stroke-linejoin="miter">
	<path stroke='rgb(192, 192, 192)' class="gridline"  d='M82.5,292.8 L395.3,292.8  '/></g>
<g fill="none" color="black" stroke="currentColor" stroke-width="1.00" stroke-linecap="butt" stroke-linejoin="miter">
	<path stroke='black'  d='M82.5,292.8 L92.2,292.8 M395.3,292.8 L385.6,292.8  '/>	<g transform="translate(416.2,292.8) rotate(-90)" stroke="none" fill="black" font-family="arial" font-size="13.00"  text-anchor="end">
		<text> 10</text>
	</g>
</g>
<g fill="none" color="black" stroke="currentColor" stroke-width="1.00" stroke-linecap="butt" stroke-linejoin="miter">
</g>
<g fill="none" color="black" stroke="currentColor" stroke-width="1.00" stroke-linecap="butt" stroke-linejoin="miter">
	<path stroke='rgb(192, 192, 192)' class="gridline"  d='M82.5,210.6 L395.3,210.6  '/></g>
<g fill="none" color="black" stroke="currentColor" stroke-width="1.00" stroke-linecap="butt" stroke-linejoin="miter">
	<path stroke='black'  d='M82.5,210.6 L87.3,210.6 M395.3,210.6 L390.5,210.6  '/></g>
<g fill="none" color="black" stroke="currentColor" stroke-width="1.00" stroke-linecap="butt" stroke-linejoin="miter">
	<path stroke='rgb(192, 192, 192)' class="gridline"  d='M82.5,162.5 L395.3,162.5  '/></g>
<g fill="none" color="black" stroke="currentColor" stroke-width="1.00" stroke-linecap="butt" stroke-linejoin="miter">
	<path stroke='black'  d='M82.5,162.5 L87.3,162.5 M395.3,162.5 L390.5,162.5  '/></g>
<g fill="none" color="black" stroke="currentColor" stroke-width="1.00" stroke-linecap="butt" stroke-linejoin="miter">
	<path stroke='rgb(192, 192, 192)' class="gridline"  d='M82.5,128.3 L395.3,128.3  '/></g>
<g fill="none" color="black" stroke="currentColor" stroke-width="1.00" stroke-linecap="butt" stroke-linejoin="miter">
	<path stroke='black'  d='M82.5,128.3 L87.3,128.3 M395.3,128.3 L390.5,128.3  '/></g>
<g fill="none" color="black" stroke="currentColor" stroke-width="1.00" stroke-linecap="butt" stroke-linejoin="miter">
	<path stroke='rgb(192, 192, 192)' class="gridline"  d='M82.5,101.8 L395.3,101.8  '/></g>
<g fill="none" color="black" stroke="currentColor" stroke-width="1.00" stroke-linecap="butt" stroke-linejoin="miter">
	<path stroke='black'  d='M82.5,101.8 L87.3,101.8 M395.3,101.8 L390.5,101.8  '/></g>
<g fill="none" color="black" stroke="currentColor" stroke-width="1.00" stroke-linecap="butt" stroke-linejoin="miter">
	<path stroke='rgb(192, 192, 192)' class="gridline"  d='M82.5,80.2 L395.3,80.2  '/></g>
<g fill="none" color="black" stroke="currentColor" stroke-width="1.00" stroke-linecap="butt" stroke-linejoin="miter">
	<path stroke='black'  d='M82.5,80.2 L87.3,80.2 M395.3,80.2 L390.5,80.2  '/></g>
<g fill="none" color="black" stroke="currentColor" stroke-width="1.00" stroke-linecap="butt" stroke-linejoin="miter">
	<path stroke='rgb(192, 192, 192)' class="gridline"  d='M82.5,61.9 L395.3,61.9  '/></g>
<g fill="none" color="black" stroke="currentColor" stroke-width="1.00" stroke-linecap="butt" stroke-linejoin="miter">
	<path stroke='black'  d='M82.5,61.9 L87.3,61.9 M395.3,61.9 L390.5,61.9  '/></g>
<g fill="none" color="black" stroke="currentColor" stroke-width="1.00" stroke-linecap="butt" stroke-linejoin="miter">
	<path stroke='rgb(192, 192, 192)' class="gridline"  d='M82.5,46.1 L395.3,46.1  '/></g>
<g fill="none" color="black" stroke="currentColor" stroke-width="1.00" stroke-linecap="butt" stroke-linejoin="miter">
	<path stroke='black'  d='M82.5,46.1 L87.3,46.1 M395.3,46.1 L390.5,46.1  '/></g>
<g fill="none" color="black" stroke="currentColor" stroke-width="1.00" stroke-linecap="butt" stroke-linejoin="miter">
	<path stroke='rgb(192, 192, 192)' class="gridline"  d='M82.5,32.1 L395.3,32.1  '/></g>
<g fill="none" color="black" stroke="currentColor" stroke-width="1.00" stroke-linecap="butt" stroke-linejoin="miter">
	<path stroke='black'  d='M82.5,32.1 L87.3,32.1 M395.3,32.1 L390.5,32.1  '/></g>
<g fill="none" color="black" stroke="currentColor" stroke-width="1.00" stroke-linecap="butt" stroke-linejoin="miter">
	<path stroke='rgb(192, 192, 192)' class="gridline"  d='M82.5,19.6 L395.3,19.6  '/></g>
<g fill="none" color="black" stroke="currentColor" stroke-width="1.00" stroke-linecap="butt" stroke-linejoin="miter">
	<path stroke='black'  d='M82.5,19.6 L92.2,19.6 M395.3,19.6 L385.6,19.6  '/>	<g transform="translate(416.2,19.6) rotate(-90)" stroke="none" fill="black" font-family="arial" font-size="13.00"  text-anchor="end">
		<text> 100</text>
	</g>
</g>
<g fill="none" color="black" stroke="currentColor" stroke-width="1.00" stroke-linecap="butt" stroke-linejoin="miter">
	<path stroke='black'  d='M186.8,566.0 M186.8,19.6  '/>	<g transform="translate(191.0,575.1) rotate(-90)" stroke="none" fill="black" font-family="arial" font-size="13.00"  text-anchor="end">
		<text>c_ref_counting</text>
	</g>
</g>
<g fill="none" color="black" stroke="currentColor" stroke-width="1.00" stroke-linecap="butt" stroke-linejoin="miter">
	<path stroke='black'  d='M291.0,566.0 M291.0,19.6  '/>	<g transform="translate(295.2,575.1) rotate(-90)" stroke="none" fill="black" font-family="arial" font-size="13.00"  text-anchor="end">
		<text>shared_ptr</text>
	</g>
</g>
<g fill="none" color="black" stroke="currentColor" stroke-width="1.00" stroke-linecap="butt" stroke-linejoin="miter">
</g>
<g fill="none" color="black" stroke="currentColor" stroke-width="1.00" stroke-linecap="butt" stroke-linejoin="miter">
	<path stroke='black'  d='M82.5,19.6 L82.5,566.0 L395.3,566.0 L395.3,19.6 L82.5,19.6 Z  '/></g>
<g fill="none" color="black" stroke="currentColor" stroke-width="1.00" stroke-linecap="butt" stroke-linejoin="miter">
	<g stroke='none' shape-rendering='crispEdges'>
		<polygon fill = 'rgb(255, 255, 255)' points = '288.9,167.1 382.8,167.1 382.8,30.5 288.9,30.5 '/>
	</g>
</g>
<g fill="none" color="black" stroke="currentColor" stroke-width="1.00" stroke-linecap="butt" stroke-linejoin="miter">
	<g stroke='none' shape-rendering='crispEdges'>
		<polygon fill = 'rgb(148,   0, 211)' points = '329.6,101.6 342.1,101.6 342.1,41.5 329.6,41.5 '/>
	</g>
	<path stroke='black'  d='M329.6,101.6 L329.6,41.5 L342.1,41.5 L342.1,101.6 L329.6,101.6 Z  '/></g>
<g fill="none" color="black" stroke="currentColor" stroke-width="1.00" stroke-linecap="butt" stroke-linejoin="miter">
	<g stroke='none' shape-rendering='crispEdges'>
		<polygon fill = 'rgb(  0, 158, 115)' points = '354.6,101.6 367.1,101.6 367.1,41.5 354.6,41.5 '/>
	</g>
	<path stroke='black'  d='M354.6,101.6 L354.6,41.5 L367.1,41.5 L367.1,101.6 L354.6,101.6 Z  '/>	<g transform="translate(340.1,112.5) rotate(-90)" stroke="none" fill="black" font-family="arial" font-size="13.00"  text-anchor="end">
		<text>Speed</text>
	</g>
	<g transform="translate(365.1,112.5) rotate(-90)" stroke="none" fill="black" font-family="arial" font-size="13.00"  text-anchor="end">
		<text>Size</text>
	</g>
</g>
<g fill="none" color="black" stroke="currentColor" stroke-width="1.00" stroke-linecap="butt" stroke-linejoin="miter">
	<g transform="translate(439.3,195.3) rotate(-90)" stroke="none" fill="black" font-family="arial" font-size="13.00"  text-anchor="end">
		<text>Cycles pro Iteration (normalisiert)</text>
	</g>
</g>
<g fill="none" color="black" stroke="currentColor" stroke-width="1.00" stroke-linecap="butt" stroke-linejoin="miter">
</g>
	<g id="gnuplot_plot_1" ><title>gnuplot_plot_1</title>
<g fill="none" color="black" stroke="currentColor" stroke-width="1.00" stroke-linecap="butt" stroke-linejoin="miter">
	<g stroke='none' shape-rendering='crispEdges'>
		<polygon fill = 'rgb(148,   0, 211)' points = '152.0,566.0 186.9,566.0 186.9,333.0 152.0,333.0 '/>
	</g>
	<path stroke='rgb(  0,   0,   0)'  d='M152.0,566.0 L152.0,333.1 L186.8,333.1 L186.8,566.0 L152.0,566.0 Z  '/></g>
<g fill="none" color="black" stroke="currentColor" stroke-width="1.00" stroke-linecap="butt" stroke-linejoin="miter">
	<g stroke='none' shape-rendering='crispEdges'>
		<polygon fill = 'rgb(148,   0, 211)' points = '256.3,566.0 291.1,566.0 291.1,316.0 256.3,316.0 '/>
	</g>
	<path stroke='rgb(  0,   0,   0)'  d='M256.3,566.0 L256.3,316.1 L291.0,316.1 L291.0,566.0 L256.3,566.0 Z  '/></g>
<g fill="none" color="black" stroke="currentColor" stroke-width="1.00" stroke-linecap="butt" stroke-linejoin="miter">
</g>
<g fill="none" color="black" stroke="rgb(148,   0, 211)" stroke-width="0.00" stroke-linecap="butt" stroke-linejoin="miter">
</g>
<g fill="none" color="black" stroke="rgb(  0,   0,   0)" stroke-width="1.00" stroke-linecap="butt" stroke-linejoin="miter">
	<path stroke='black'  d='M169.4,386.5 L169.4,281.1 M164.6,386.5 L174.2,386.5 M164.6,281.1 L174.2,281.1 M273.7,371.9 L273.7,277.4
		M268.9,371.9 L278.5,371.9 M268.9,277.4 L278.5,277.4  '/></g>
<g fill="none" color="black" stroke="currentColor" stroke-width="1.00" stroke-linecap="butt" stroke-linejoin="miter">
</g>
	</g>
	<g id="gnuplot_plot_2" ><title>gnuplot_plot_2</title>
<g fill="none" color="black" stroke="currentColor" stroke-width="1.00" stroke-linecap="butt" stroke-linejoin="miter">
	<g stroke='none' shape-rendering='crispEdges'>
		<polygon fill = 'rgb(  0, 158, 115)' points = '186.8,566.0 221.6,566.0 221.6,310.2 186.8,310.2 '/>
	</g>
	<path stroke='rgb(  0,   0,   0)'  d='M186.8,566.0 L186.8,310.3 L221.5,310.3 L221.5,566.0 L186.8,566.0 Z  '/></g>
<g fill="none" color="black" stroke="currentColor" stroke-width="1.00" stroke-linecap="butt" stroke-linejoin="miter">
	<g stroke='none' shape-rendering='crispEdges'>
		<polygon fill = 'rgb(  0, 158, 115)' points = '291.0,566.0 325.9,566.0 325.9,265.2 291.0,265.2 '/>
	</g>
	<path stroke='rgb(  0,   0,   0)'  d='M291.0,566.0 L291.0,265.3 L325.8,265.3 L325.8,566.0 L291.0,566.0 Z  '/></g>
<g fill="none" color="black" stroke="currentColor" stroke-width="1.00" stroke-linecap="butt" stroke-linejoin="miter">
</g>
<g fill="none" color="black" stroke="rgb(  0, 158, 115)" stroke-width="0.00" stroke-linecap="butt" stroke-linejoin="miter">
</g>
<g fill="none" color="black" stroke="rgb(  0,   0,   0)" stroke-width="1.00" stroke-linecap="butt" stroke-linejoin="miter">
	<path stroke='black'  d='M204.1,376.3 L204.1,257.4 M199.3,376.3 L208.9,376.3 M199.3,257.4 L208.9,257.4 M308.4,352.8 L308.4,211.9
		M303.6,352.8 L313.2,352.8 M303.6,211.9 L313.2,211.9  '/></g>
<g fill="none" color="black" stroke="currentColor" stroke-width="1.00" stroke-linecap="butt" stroke-linejoin="miter">
</g>
	</g>
<g fill="none" color="white" stroke="rgb(  0, 158, 115)" stroke-width="2.00" stroke-linecap="butt" stroke-linejoin="miter">
</g>
<g fill="none" color="black" stroke="currentColor" stroke-width="2.00" stroke-linecap="butt" stroke-linejoin="miter">
</g>
<g fill="none" color="black" stroke="black" stroke-width="1.00" stroke-linecap="butt" stroke-linejoin="miter">
</g>
<g fill="none" color="black" stroke="currentColor" stroke-width="1.00" stroke-linecap="butt" stroke-linejoin="miter">
	<path stroke='black'  d='M82.5,19.6 L82.5,566.0 L395.3,566.0 L395.3,19.6 L82.5,19.6 Z  '/>	<g transform="translate(301.0,101.6) rotate(-90)" stroke="none" fill="black" font-family="arial" font-size="13.00"  text-anchor="middle">
		<text>Optimierungsmodus</text>
	</g>
</g>
<g fill="none" color="black" stroke="currentColor" stroke-width="1.00" stroke-linecap="butt" stroke-linejoin="miter">
</g>
</g>
</svg>

