<?xml version="1.0" encoding="utf-8"  standalone="no"?>
<svg 
 width="350" height="800"
 viewBox="0 0 350 800"
 xmlns="http://www.w3.org/2000/svg"
 xmlns:xlink="http://www.w3.org/1999/xlink"
>

<title>Gnuplot</title>
<desc>Produced by GNUPLOT 5.2 patchlevel 8 </desc>

<g id="gnuplot_canvas">

<rect x="0" y="0" width="350" height="800" fill="none"/>
<defs>

	<circle id='gpDot' r='0.5' stroke-width='0.5' stroke='currentColor'/>
	<path id='gpPt0' stroke-width='0.206' stroke='currentColor' d='M-1,0 h2 M0,-1 v2'/>
	<path id='gpPt1' stroke-width='0.206' stroke='currentColor' d='M-1,-1 L1,1 M1,-1 L-1,1'/>
	<path id='gpPt2' stroke-width='0.206' stroke='currentColor' d='M-1,0 L1,0 M0,-1 L0,1 M-1,-1 L1,1 M-1,1 L1,-1'/>
	<rect id='gpPt3' stroke-width='0.206' stroke='currentColor' x='-1' y='-1' width='2' height='2'/>
	<rect id='gpPt4' stroke-width='0.206' stroke='currentColor' fill='currentColor' x='-1' y='-1' width='2' height='2'/>
	<circle id='gpPt5' stroke-width='0.206' stroke='currentColor' cx='0' cy='0' r='1'/>
	<use xlink:href='#gpPt5' id='gpPt6' fill='currentColor' stroke='none'/>
	<path id='gpPt7' stroke-width='0.206' stroke='currentColor' d='M0,-1.33 L-1.33,0.67 L1.33,0.67 z'/>
	<use xlink:href='#gpPt7' id='gpPt8' fill='currentColor' stroke='none'/>
	<use xlink:href='#gpPt7' id='gpPt9' stroke='currentColor' transform='rotate(180)'/>
	<use xlink:href='#gpPt9' id='gpPt10' fill='currentColor' stroke='none'/>
	<use xlink:href='#gpPt3' id='gpPt11' stroke='currentColor' transform='rotate(45)'/>
	<use xlink:href='#gpPt11' id='gpPt12' fill='currentColor' stroke='none'/>
	<path id='gpPt13' stroke-width='0.206' stroke='currentColor' d='M0,1.330 L1.265,0.411 L0.782,-1.067 L-0.782,-1.076 L-1.265,0.411 z'/>
	<use xlink:href='#gpPt13' id='gpPt14' fill='currentColor' stroke='none'/>
	<filter id='textbox' filterUnits='objectBoundingBox' x='0' y='0' height='1' width='1'>
	  <feFlood flood-color='white' flood-opacity='1' result='bgnd'/>
	  <feComposite in='SourceGraphic' in2='bgnd' operator='atop'/>
	</filter>
	<filter id='greybox' filterUnits='objectBoundingBox' x='0' y='0' height='1' width='1'>
	  <feFlood flood-color='lightgrey' flood-opacity='1' result='grey'/>
	  <feComposite in='SourceGraphic' in2='grey' operator='atop'/>
	</filter>
</defs>
<g fill="none" color="white" stroke="black" stroke-width="1.00" stroke-linecap="butt" stroke-linejoin="miter">
</g>
<g fill="none" color="black" stroke="currentColor" stroke-width="1.00" stroke-linecap="butt" stroke-linejoin="miter">
</g>
<g fill="none" color="black" stroke="currentColor" stroke-width="1.00" stroke-linecap="butt" stroke-linejoin="miter">
	<path stroke='rgb(192, 192, 192)' class="gridline"  d='M82.5,566.0 L295.3,566.0  '/></g>
<g fill="none" color="black" stroke="currentColor" stroke-width="1.00" stroke-linecap="butt" stroke-linejoin="miter">
	<path stroke='black'  d='M82.5,566.0 L92.2,566.0 M295.3,566.0 L285.6,566.0  '/>	<g transform="translate(325.2,566.0) rotate(-90)" stroke="none" fill="black" font-family="arial" font-size="13.00"  text-anchor="end">
		<text> 0</text>
	</g>
</g>
<g fill="none" color="black" stroke="currentColor" stroke-width="1.00" stroke-linecap="butt" stroke-linejoin="miter">
</g>
<g fill="none" color="black" stroke="currentColor" stroke-width="1.00" stroke-linecap="butt" stroke-linejoin="miter">
	<path stroke='rgb(192, 192, 192)' class="gridline"  d='M82.5,505.3 L295.3,505.3  '/></g>
<g fill="none" color="black" stroke="currentColor" stroke-width="1.00" stroke-linecap="butt" stroke-linejoin="miter">
	<path stroke='black'  d='M82.5,505.3 L92.2,505.3 M295.3,505.3 L285.6,505.3  '/>	<g transform="translate(325.2,505.3) rotate(-90)" stroke="none" fill="black" font-family="arial" font-size="13.00"  text-anchor="end">
		<text> 5</text>
	</g>
</g>
<g fill="none" color="black" stroke="currentColor" stroke-width="1.00" stroke-linecap="butt" stroke-linejoin="miter">
</g>
<g fill="none" color="black" stroke="currentColor" stroke-width="1.00" stroke-linecap="butt" stroke-linejoin="miter">
	<path stroke='rgb(192, 192, 192)' class="gridline"  d='M82.5,444.6 L295.3,444.6  '/></g>
<g fill="none" color="black" stroke="currentColor" stroke-width="1.00" stroke-linecap="butt" stroke-linejoin="miter">
	<path stroke='black'  d='M82.5,444.6 L92.2,444.6 M295.3,444.6 L285.6,444.6  '/>	<g transform="translate(325.2,444.6) rotate(-90)" stroke="none" fill="black" font-family="arial" font-size="13.00"  text-anchor="end">
		<text> 10</text>
	</g>
</g>
<g fill="none" color="black" stroke="currentColor" stroke-width="1.00" stroke-linecap="butt" stroke-linejoin="miter">
</g>
<g fill="none" color="black" stroke="currentColor" stroke-width="1.00" stroke-linecap="butt" stroke-linejoin="miter">
	<path stroke='rgb(192, 192, 192)' class="gridline"  d='M82.5,383.9 L295.3,383.9  '/></g>
<g fill="none" color="black" stroke="currentColor" stroke-width="1.00" stroke-linecap="butt" stroke-linejoin="miter">
	<path stroke='black'  d='M82.5,383.9 L92.2,383.9 M295.3,383.9 L285.6,383.9  '/>	<g transform="translate(325.2,383.9) rotate(-90)" stroke="none" fill="black" font-family="arial" font-size="13.00"  text-anchor="end">
		<text> 15</text>
	</g>
</g>
<g fill="none" color="black" stroke="currentColor" stroke-width="1.00" stroke-linecap="butt" stroke-linejoin="miter">
</g>
<g fill="none" color="black" stroke="currentColor" stroke-width="1.00" stroke-linecap="butt" stroke-linejoin="miter">
	<path stroke='rgb(192, 192, 192)' class="gridline"  d='M82.5,323.2 L295.3,323.2  '/></g>
<g fill="none" color="black" stroke="currentColor" stroke-width="1.00" stroke-linecap="butt" stroke-linejoin="miter">
	<path stroke='black'  d='M82.5,323.2 L92.2,323.2 M295.3,323.2 L285.6,323.2  '/>	<g transform="translate(325.2,323.2) rotate(-90)" stroke="none" fill="black" font-family="arial" font-size="13.00"  text-anchor="end">
		<text> 20</text>
	</g>
</g>
<g fill="none" color="black" stroke="currentColor" stroke-width="1.00" stroke-linecap="butt" stroke-linejoin="miter">
</g>
<g fill="none" color="black" stroke="currentColor" stroke-width="1.00" stroke-linecap="butt" stroke-linejoin="miter">
	<path stroke='rgb(192, 192, 192)' class="gridline"  d='M82.5,262.4 L295.3,262.4  '/></g>
<g fill="none" color="black" stroke="currentColor" stroke-width="1.00" stroke-linecap="butt" stroke-linejoin="miter">
	<path stroke='black'  d='M82.5,262.4 L92.2,262.4 M295.3,262.4 L285.6,262.4  '/>	<g transform="translate(325.2,262.4) rotate(-90)" stroke="none" fill="black" font-family="arial" font-size="13.00"  text-anchor="end">
		<text> 25</text>
	</g>
</g>
<g fill="none" color="black" stroke="currentColor" stroke-width="1.00" stroke-linecap="butt" stroke-linejoin="miter">
</g>
<g fill="none" color="black" stroke="currentColor" stroke-width="1.00" stroke-linecap="butt" stroke-linejoin="miter">
	<path stroke='rgb(192, 192, 192)' class="gridline"  d='M82.5,201.7 L295.3,201.7  '/></g>
<g fill="none" color="black" stroke="currentColor" stroke-width="1.00" stroke-linecap="butt" stroke-linejoin="miter">
	<path stroke='black'  d='M82.5,201.7 L92.2,201.7 M295.3,201.7 L285.6,201.7  '/>	<g transform="translate(325.2,201.7) rotate(-90)" stroke="none" fill="black" font-family="arial" font-size="13.00"  text-anchor="end">
		<text> 30</text>
	</g>
</g>
<g fill="none" color="black" stroke="currentColor" stroke-width="1.00" stroke-linecap="butt" stroke-linejoin="miter">
</g>
<g fill="none" color="black" stroke="currentColor" stroke-width="1.00" stroke-linecap="butt" stroke-linejoin="miter">
	<path stroke='rgb(192, 192, 192)' class="gridline"  d='M82.5,141.0 L295.3,141.0  '/></g>
<g fill="none" color="black" stroke="currentColor" stroke-width="1.00" stroke-linecap="butt" stroke-linejoin="miter">
	<path stroke='black'  d='M82.5,141.0 L92.2,141.0 M295.3,141.0 L285.6,141.0  '/>	<g transform="translate(325.2,141.0) rotate(-90)" stroke="none" fill="black" font-family="arial" font-size="13.00"  text-anchor="end">
		<text> 35</text>
	</g>
</g>
<g fill="none" color="black" stroke="currentColor" stroke-width="1.00" stroke-linecap="butt" stroke-linejoin="miter">
</g>
<g fill="none" color="black" stroke="currentColor" stroke-width="1.00" stroke-linecap="butt" stroke-linejoin="miter">
	<path stroke='rgb(192, 192, 192)' class="gridline"  d='M82.5,80.3 L295.3,80.3  '/></g>
<g fill="none" color="black" stroke="currentColor" stroke-width="1.00" stroke-linecap="butt" stroke-linejoin="miter">
	<path stroke='black'  d='M82.5,80.3 L92.2,80.3 M295.3,80.3 L285.6,80.3  '/>	<g transform="translate(325.2,80.3) rotate(-90)" stroke="none" fill="black" font-family="arial" font-size="13.00"  text-anchor="end">
		<text> 40</text>
	</g>
</g>
<g fill="none" color="black" stroke="currentColor" stroke-width="1.00" stroke-linecap="butt" stroke-linejoin="miter">
</g>
<g fill="none" color="black" stroke="currentColor" stroke-width="1.00" stroke-linecap="butt" stroke-linejoin="miter">
	<path stroke='rgb(192, 192, 192)' class="gridline"  d='M82.5,19.6 L295.3,19.6  '/></g>
<g fill="none" color="black" stroke="currentColor" stroke-width="1.00" stroke-linecap="butt" stroke-linejoin="miter">
	<path stroke='black'  d='M82.5,19.6 L92.2,19.6 M295.3,19.6 L285.6,19.6  '/>	<g transform="translate(325.2,19.6) rotate(-90)" stroke="none" fill="black" font-family="arial" font-size="13.00"  text-anchor="end">
		<text> 45</text>
	</g>
</g>
<g fill="none" color="black" stroke="currentColor" stroke-width="1.00" stroke-linecap="butt" stroke-linejoin="miter">
	<path stroke='black'  d='M153.4,566.0 M153.4,19.6  '/>	<g transform="translate(157.6,575.1) rotate(-90)" stroke="none" fill="black" font-family="arial" font-size="13.00"  text-anchor="end">
		<text>std_function</text>
	</g>
</g>
<g fill="none" color="black" stroke="currentColor" stroke-width="1.00" stroke-linecap="butt" stroke-linejoin="miter">
	<path stroke='black'  d='M224.4,566.0 M224.4,19.6  '/>	<g transform="translate(228.6,575.1) rotate(-90)" stroke="none" fill="black" font-family="arial" font-size="13.00"  text-anchor="end">
		<text>fixed_function</text>
	</g>
</g>
<g fill="none" color="black" stroke="currentColor" stroke-width="1.00" stroke-linecap="butt" stroke-linejoin="miter">
</g>
<g fill="none" color="black" stroke="currentColor" stroke-width="1.00" stroke-linecap="butt" stroke-linejoin="miter">
	<path stroke='black'  d='M82.5,19.6 L82.5,566.0 L295.3,566.0 L295.3,19.6 L82.5,19.6 Z  '/></g>
<g fill="none" color="black" stroke="currentColor" stroke-width="1.00" stroke-linecap="butt" stroke-linejoin="miter">
	<g stroke='none' shape-rendering='crispEdges'>
		<polygon fill = 'rgb(255, 255, 255)' points = '220.8,167.1 284.7,167.1 284.7,30.5 220.8,30.5 '/>
	</g>
</g>
<g fill="none" color="black" stroke="currentColor" stroke-width="1.00" stroke-linecap="butt" stroke-linejoin="miter">
	<g stroke='none' shape-rendering='crispEdges'>
		<polygon fill = 'rgb(148,   0, 211)' points = '229.3,101.6 233.6,101.6 233.6,41.5 229.3,41.5 '/>
	</g>
	<path stroke='black'  d='M229.3,101.6 L229.3,41.5 L233.6,41.5 L233.6,101.6 L229.3,101.6 Z  '/></g>
<g fill="none" color="black" stroke="currentColor" stroke-width="1.00" stroke-linecap="butt" stroke-linejoin="miter">
	<g stroke='none' shape-rendering='crispEdges'>
		<polygon fill = 'rgb(  0, 158, 115)' points = '240.0,101.6 244.2,101.6 244.2,41.5 240.0,41.5 '/>
	</g>
	<path stroke='black'  d='M240.0,101.6 L240.0,41.5 L244.2,41.5 L244.2,101.6 L240.0,101.6 Z  '/></g>
<g fill="none" color="black" stroke="currentColor" stroke-width="1.00" stroke-linecap="butt" stroke-linejoin="miter">
	<g stroke='none' shape-rendering='crispEdges'>
		<polygon fill = 'rgb( 86, 180, 233)' points = '250.6,101.6 254.9,101.6 254.9,41.5 250.6,41.5 '/>
	</g>
	<path stroke='black'  d='M250.6,101.6 L250.6,41.5 L254.9,41.5 L254.9,101.6 L250.6,101.6 Z  '/></g>
<g fill="none" color="black" stroke="currentColor" stroke-width="1.00" stroke-linecap="butt" stroke-linejoin="miter">
	<g stroke='none' shape-rendering='crispEdges'>
		<polygon fill = 'rgb(230, 159,   0)' points = '261.3,101.6 265.5,101.6 265.5,41.5 261.3,41.5 '/>
	</g>
	<path stroke='black'  d='M261.3,101.6 L261.3,41.5 L265.5,41.5 L265.5,101.6 L261.3,101.6 Z  '/></g>
<g fill="none" color="black" stroke="currentColor" stroke-width="1.00" stroke-linecap="butt" stroke-linejoin="miter">
	<g stroke='none' shape-rendering='crispEdges'>
		<polygon fill = 'rgb(240, 228,  66)' points = '271.9,101.6 276.1,101.6 276.1,41.5 271.9,41.5 '/>
	</g>
	<path stroke='black'  d='M271.9,101.6 L271.9,41.5 L276.1,41.5 L276.1,101.6 L271.9,101.6 Z  '/>	<g transform="translate(235.7,112.5) rotate(-90)" stroke="none" fill="black" font-family="arial" font-size="13.00"  text-anchor="end">
		<text>ARMClang</text>
	</g>
	<g transform="translate(246.3,112.5) rotate(-90)" stroke="none" fill="black" font-family="arial" font-size="13.00"  text-anchor="end">
		<text>ARMCC</text>
	</g>
	<g transform="translate(256.9,112.5) rotate(-90)" stroke="none" fill="black" font-family="arial" font-size="13.00"  text-anchor="end">
		<text>GNU</text>
	</g>
	<g transform="translate(267.6,112.5) rotate(-90)" stroke="none" fill="black" font-family="arial" font-size="13.00"  text-anchor="end">
		<text>Clang</text>
	</g>
	<g transform="translate(278.2,112.5) rotate(-90)" stroke="none" fill="black" font-family="arial" font-size="13.00"  text-anchor="end">
		<text>IAR</text>
	</g>
</g>
<g fill="none" color="black" stroke="currentColor" stroke-width="1.00" stroke-linecap="butt" stroke-linejoin="miter">
	<g transform="translate(348.3,195.3) rotate(-90)" stroke="none" fill="black" font-family="arial" font-size="13.00"  text-anchor="end">
		<text>Cycles pro Iteration (normalisiert)</text>
	</g>
</g>
<g fill="none" color="black" stroke="currentColor" stroke-width="1.00" stroke-linecap="butt" stroke-linejoin="miter">
</g>
	<g id="gnuplot_plot_1" ><title>gnuplot_plot_1</title>
<g fill="none" color="black" stroke="currentColor" stroke-width="1.00" stroke-linecap="butt" stroke-linejoin="miter">
	<g stroke='none' shape-rendering='crispEdges'>
		<polygon fill = 'rgb(148,   0, 211)' points = '128.1,566.0 138.3,566.0 138.3,401.2 128.1,401.2 '/>
	</g>
	<path stroke='rgb(  0,   0,   0)'  d='M128.1,566.0 L128.1,401.3 L138.2,401.3 L138.2,566.0 L128.1,566.0 Z  '/></g>
<g fill="none" color="black" stroke="currentColor" stroke-width="1.00" stroke-linecap="butt" stroke-linejoin="miter">
	<g stroke='none' shape-rendering='crispEdges'>
		<polygon fill = 'rgb(148,   0, 211)' points = '199.0,566.0 209.3,566.0 209.3,550.9 199.0,550.9 '/>
	</g>
	<path stroke='rgb(  0,   0,   0)'  d='M199.0,566.0 L199.0,551.0 L209.2,551.0 L209.2,566.0 L199.0,566.0 Z  '/></g>
<g fill="none" color="black" stroke="currentColor" stroke-width="1.00" stroke-linecap="butt" stroke-linejoin="miter">
</g>
	</g>
	<g id="gnuplot_plot_2" ><title>gnuplot_plot_2</title>
<g fill="none" color="black" stroke="currentColor" stroke-width="1.00" stroke-linecap="butt" stroke-linejoin="miter">
	<g stroke='none' shape-rendering='crispEdges'>
		<polygon fill = 'rgb(  0, 158, 115)' points = '209.2,566.0 219.4,566.0 219.4,541.0 209.2,541.0 '/>
	</g>
	<path stroke='rgb(  0,   0,   0)'  d='M209.2,566.0 L209.2,541.1 L219.3,541.1 L219.3,566.0 L209.2,566.0 Z  '/></g>
<g fill="none" color="black" stroke="currentColor" stroke-width="1.00" stroke-linecap="butt" stroke-linejoin="miter">
</g>
	</g>
	<g id="gnuplot_plot_3" ><title>gnuplot_plot_3</title>
<g fill="none" color="black" stroke="currentColor" stroke-width="1.00" stroke-linecap="butt" stroke-linejoin="miter">
	<g stroke='none' shape-rendering='crispEdges'>
		<polygon fill = 'rgb( 86, 180, 233)' points = '148.4,566.0 158.6,566.0 158.6,439.4 148.4,439.4 '/>
	</g>
	<path stroke='rgb(  0,   0,   0)'  d='M148.4,566.0 L148.4,439.5 L158.5,439.5 L158.5,566.0 L148.4,566.0 Z  '/></g>
<g fill="none" color="black" stroke="currentColor" stroke-width="1.00" stroke-linecap="butt" stroke-linejoin="miter">
	<g stroke='none' shape-rendering='crispEdges'>
		<polygon fill = 'rgb( 86, 180, 233)' points = '219.3,566.0 229.5,566.0 229.5,546.0 219.3,546.0 '/>
	</g>
	<path stroke='rgb(  0,   0,   0)'  d='M219.3,566.0 L219.3,546.1 L229.4,546.1 L229.4,566.0 L219.3,566.0 Z  '/></g>
<g fill="none" color="black" stroke="currentColor" stroke-width="1.00" stroke-linecap="butt" stroke-linejoin="miter">
</g>
	</g>
	<g id="gnuplot_plot_4" ><title>gnuplot_plot_4</title>
<g fill="none" color="black" stroke="currentColor" stroke-width="1.00" stroke-linecap="butt" stroke-linejoin="miter">
	<g stroke='none' shape-rendering='crispEdges'>
		<polygon fill = 'rgb(230, 159,   0)' points = '158.5,566.0 168.7,566.0 168.7,497.2 158.5,497.2 '/>
	</g>
	<path stroke='rgb(  0,   0,   0)'  d='M158.5,566.0 L158.5,497.3 L168.6,497.3 L168.6,566.0 L158.5,566.0 Z  '/></g>
<g fill="none" color="black" stroke="currentColor" stroke-width="1.00" stroke-linecap="butt" stroke-linejoin="miter">
	<g stroke='none' shape-rendering='crispEdges'>
		<polygon fill = 'rgb(230, 159,   0)' points = '229.4,566.0 239.7,566.0 239.7,546.9 229.4,546.9 '/>
	</g>
	<path stroke='rgb(  0,   0,   0)'  d='M229.4,566.0 L229.4,547.0 L239.6,547.0 L239.6,566.0 L229.4,566.0 Z  '/></g>
<g fill="none" color="black" stroke="currentColor" stroke-width="1.00" stroke-linecap="butt" stroke-linejoin="miter">
</g>
	</g>
	<g id="gnuplot_plot_5" ><title>gnuplot_plot_5</title>
<g fill="none" color="black" stroke="currentColor" stroke-width="1.00" stroke-linecap="butt" stroke-linejoin="miter">
	<g stroke='none' shape-rendering='crispEdges'>
		<polygon fill = 'rgb(240, 228,  66)' points = '168.6,566.0 178.9,566.0 178.9,50.9 168.6,50.9 '/>
	</g>
	<path stroke='rgb(  0,   0,   0)'  d='M168.6,566.0 L168.6,51.0 L178.8,51.0 L178.8,566.0 L168.6,566.0 Z  '/></g>
<g fill="none" color="black" stroke="currentColor" stroke-width="1.00" stroke-linecap="butt" stroke-linejoin="miter">
	<g stroke='none' shape-rendering='crispEdges'>
		<polygon fill = 'rgb(240, 228,  66)' points = '239.6,566.0 249.8,566.0 249.8,515.1 239.6,515.1 '/>
	</g>
	<path stroke='rgb(  0,   0,   0)'  d='M239.6,566.0 L239.6,515.2 L249.7,515.2 L249.7,566.0 L239.6,566.0 Z  '/></g>
<g fill="none" color="black" stroke="currentColor" stroke-width="1.00" stroke-linecap="butt" stroke-linejoin="miter">
</g>
	</g>
<g fill="none" color="white" stroke="rgb(240, 228,  66)" stroke-width="2.00" stroke-linecap="butt" stroke-linejoin="miter">
</g>
<g fill="none" color="black" stroke="currentColor" stroke-width="2.00" stroke-linecap="butt" stroke-linejoin="miter">
</g>
<g fill="none" color="black" stroke="black" stroke-width="1.00" stroke-linecap="butt" stroke-linejoin="miter">
</g>
<g fill="none" color="black" stroke="currentColor" stroke-width="1.00" stroke-linecap="butt" stroke-linejoin="miter">
	<path stroke='black'  d='M82.5,19.6 L82.5,566.0 L295.3,566.0 L295.3,19.6 L82.5,19.6 Z  '/></g>
<g fill="none" color="black" stroke="currentColor" stroke-width="1.00" stroke-linecap="butt" stroke-linejoin="miter">
</g>
</g>
</svg>

