solution_id,armclang,armcc,gnu,clang,iar
function_ptr,4.43782719818768,6.198593842329091,6.558709597697071,5.3514993202384025,5.764378598480431
std_function,11.41350644200306,0,8.858415506110276,10.356208706050465,16.523116991779798
fixed_function,5.4931330133644165,6.240326054254686,5.392414183622371,5.147658921761921,8.633157790576542
function_template,2.2404804882138287,3.8202214654800937,3.040992088639608,3.0106561617040013,2.549724984793283
function_template_copy,2.2513090900577426,2.360694766061384,2.8367483140285588,3.010656259997203,3.743632769985705
