solution_id,speed_min,speed_max,speed_mean,size_min,size_max,size_mean
union_enum,1.8345352027227542,3.629805336020327,2.6216233901302615,2.2146154638932014,4.988213046908619,3.209437462490828
function_struct,1.1620227990814722,2.3489759742188947,1.643310294250287,1.1891862803861069,3.027112946812003,1.896414732525463
c_oop,1.1975737497722077,2.3142605280063084,1.6986106350034984,1.2973508947392502,3.0114860029266772,1.8927546927834307
inheritance,1.167562563638061,3.395069105569794,2.3478619653890425,1.3298425383510086,4.549846332205626,2.7136369220556977
variant,1.2682546933066203,6.188076624018321,2.6915557269509343,1.3796360835772834,12.918209767201292,5.62084902109218
visitor_pattern,2.0903713676351408,4.0276953754712155,3.0055347541363053,2.063830175746697,4.805412280219401,3.244454475379881
dyn_cast,10.553445856645663,44.81013195270346,23.888934451148106,10.578000200497492,43.59871096732042,23.9234447714266
virtual_inheritance,1.1675549843780364,3.578900826313818,2.3858215501331217,1.3298398683979844,4.255379535048482,2.6852895711056837
