solution_id,speed_min,speed_max,speed_mean,size_min,size_max,size_mean
raw,8.26377684011056,15.888132549072106,12.348853184188478,8.341666357428407,24.061508218133657,15.194655764707818
unique_ptr,8.315625253891588,15.033727835479262,12.654553676969229,8.32489037026564,24.264857999152746,16.578468089628835
