benchmark_id,speed_min,speed_max,speed_mean,size_min,size_max,size_mean
stateful_function_object,13.875,61.875,41.925,15.625,67.875,40.475
stateless_function_object,17.5,61.75,42.275,31.875,68.75,45.5
