solution_id,armclang,armcc,gnu,clang,iar
std_function,6.798092834480367,0,7.1600287742515105,6.501369306470587,20.699590267967015
fixed_function,1.9824009952975272,3.1377265810680983,3.7615719788879347,2.0965578278418806,6.745608121511576
template,1.3550090087944853,3.547051307355619,3.1510118911754996,1.4102041154027631,6.543358333129529
template_copy,1.3127794432163418,3.556993197246827,3.058876359864331,1.3849466692051497,6.176343914231385
