toolchain_id,text,rodata,data,stack
armclang,9853.666666666666,1814.0,34.333333333333336,1299.9999999999998
armcc,6215.083333333333,1140.0,9.333333333333334,746.0
gnu,11164.5,1452.875,1154.3333333333333,936.6666666666667
clang,11454.666666666666,1632.0,1154.3333333333333,1018.3333333333333
iar,5746.666666666667,1147.0,203.33333333333334,692.0
