solution_id,speed_min,speed_max,speed_mean,size_min,size_max,size_mean
function_ptr,4.234572786979215,5.6241591855209805,4.951810438656071,4.901504527411797,6.834219883989611,5.687382021322307
std_function,8.051650448062343,12.494270215897771,9.38671064190212,10.274068610192321,18.851655273557977,13.427964470896022
fixed_function,6.9887361108768875,8.691519267438876,7.790862218786069,6.031877763909121,8.912342869100712,7.630807915152438
function_template,1.275965883287852,5.718513380647069,3.2128201591813323,1.7455948387189133,6.335492032947683,3.727454716513362
function_template_copy,1.2759661034490934,6.132520515577966,3.2396992127254345,1.74528509750402,6.940668464427064,3.8206094760377667
