solution_id,armclang,armcc,gnu,clang,iar
c_ref_counting,4.748232617921754,4.539773044595256,7.779200063740314,11.037025370435517,7.497508920580972
shared_ptr,5.1335309398203,0,8.174790186579163,11.387749576113979,8.175779094055091
