<?xml version="1.0" encoding="utf-8"  standalone="no"?>
<svg 
 width="450" height="800"
 viewBox="0 0 450 800"
 xmlns="http://www.w3.org/2000/svg"
 xmlns:xlink="http://www.w3.org/1999/xlink"
>

<title>Gnuplot</title>
<desc>Produced by GNUPLOT 5.2 patchlevel 8 </desc>

<g id="gnuplot_canvas">

<rect x="0" y="0" width="450" height="800" fill="none"/>
<defs>

	<circle id='gpDot' r='0.5' stroke-width='0.5' stroke='currentColor'/>
	<path id='gpPt0' stroke-width='0.206' stroke='currentColor' d='M-1,0 h2 M0,-1 v2'/>
	<path id='gpPt1' stroke-width='0.206' stroke='currentColor' d='M-1,-1 L1,1 M1,-1 L-1,1'/>
	<path id='gpPt2' stroke-width='0.206' stroke='currentColor' d='M-1,0 L1,0 M0,-1 L0,1 M-1,-1 L1,1 M-1,1 L1,-1'/>
	<rect id='gpPt3' stroke-width='0.206' stroke='currentColor' x='-1' y='-1' width='2' height='2'/>
	<rect id='gpPt4' stroke-width='0.206' stroke='currentColor' fill='currentColor' x='-1' y='-1' width='2' height='2'/>
	<circle id='gpPt5' stroke-width='0.206' stroke='currentColor' cx='0' cy='0' r='1'/>
	<use xlink:href='#gpPt5' id='gpPt6' fill='currentColor' stroke='none'/>
	<path id='gpPt7' stroke-width='0.206' stroke='currentColor' d='M0,-1.33 L-1.33,0.67 L1.33,0.67 z'/>
	<use xlink:href='#gpPt7' id='gpPt8' fill='currentColor' stroke='none'/>
	<use xlink:href='#gpPt7' id='gpPt9' stroke='currentColor' transform='rotate(180)'/>
	<use xlink:href='#gpPt9' id='gpPt10' fill='currentColor' stroke='none'/>
	<use xlink:href='#gpPt3' id='gpPt11' stroke='currentColor' transform='rotate(45)'/>
	<use xlink:href='#gpPt11' id='gpPt12' fill='currentColor' stroke='none'/>
	<path id='gpPt13' stroke-width='0.206' stroke='currentColor' d='M0,1.330 L1.265,0.411 L0.782,-1.067 L-0.782,-1.076 L-1.265,0.411 z'/>
	<use xlink:href='#gpPt13' id='gpPt14' fill='currentColor' stroke='none'/>
	<filter id='textbox' filterUnits='objectBoundingBox' x='0' y='0' height='1' width='1'>
	  <feFlood flood-color='white' flood-opacity='1' result='bgnd'/>
	  <feComposite in='SourceGraphic' in2='bgnd' operator='atop'/>
	</filter>
	<filter id='greybox' filterUnits='objectBoundingBox' x='0' y='0' height='1' width='1'>
	  <feFlood flood-color='lightgrey' flood-opacity='1' result='grey'/>
	  <feComposite in='SourceGraphic' in2='grey' operator='atop'/>
	</filter>
</defs>
<g fill="none" color="white" stroke="black" stroke-width="1.00" stroke-linecap="butt" stroke-linejoin="miter">
</g>
<g fill="none" color="black" stroke="currentColor" stroke-width="1.00" stroke-linecap="butt" stroke-linejoin="miter">
</g>
<g fill="none" color="black" stroke="currentColor" stroke-width="1.00" stroke-linecap="butt" stroke-linejoin="miter">
	<path stroke='rgb(192, 192, 192)' class="gridline"  d='M82.5,566.0 L395.3,566.0  '/></g>
<g fill="none" color="black" stroke="currentColor" stroke-width="1.00" stroke-linecap="butt" stroke-linejoin="miter">
	<path stroke='black'  d='M82.5,566.0 L92.2,566.0 M395.3,566.0 L385.6,566.0  '/>	<g transform="translate(416.2,566.0) rotate(-90)" stroke="none" fill="black" font-family="arial" font-size="13.00"  text-anchor="end">
		<text> 0</text>
	</g>
</g>
<g fill="none" color="black" stroke="currentColor" stroke-width="1.00" stroke-linecap="butt" stroke-linejoin="miter">
</g>
<g fill="none" color="black" stroke="currentColor" stroke-width="1.00" stroke-linecap="butt" stroke-linejoin="miter">
	<path stroke='rgb(192, 192, 192)' class="gridline"  d='M82.5,511.4 L395.3,511.4  '/></g>
<g fill="none" color="black" stroke="currentColor" stroke-width="1.00" stroke-linecap="butt" stroke-linejoin="miter">
	<path stroke='black'  d='M82.5,511.4 L92.2,511.4 M395.3,511.4 L385.6,511.4  '/>	<g transform="translate(416.2,511.4) rotate(-90)" stroke="none" fill="black" font-family="arial" font-size="13.00"  text-anchor="end">
		<text> 1000</text>
	</g>
</g>
<g fill="none" color="black" stroke="currentColor" stroke-width="1.00" stroke-linecap="butt" stroke-linejoin="miter">
</g>
<g fill="none" color="black" stroke="currentColor" stroke-width="1.00" stroke-linecap="butt" stroke-linejoin="miter">
	<path stroke='rgb(192, 192, 192)' class="gridline"  d='M82.5,456.7 L395.3,456.7  '/></g>
<g fill="none" color="black" stroke="currentColor" stroke-width="1.00" stroke-linecap="butt" stroke-linejoin="miter">
	<path stroke='black'  d='M82.5,456.7 L92.2,456.7 M395.3,456.7 L385.6,456.7  '/>	<g transform="translate(416.2,456.7) rotate(-90)" stroke="none" fill="black" font-family="arial" font-size="13.00"  text-anchor="end">
		<text> 2000</text>
	</g>
</g>
<g fill="none" color="black" stroke="currentColor" stroke-width="1.00" stroke-linecap="butt" stroke-linejoin="miter">
</g>
<g fill="none" color="black" stroke="currentColor" stroke-width="1.00" stroke-linecap="butt" stroke-linejoin="miter">
	<path stroke='rgb(192, 192, 192)' class="gridline"  d='M82.5,402.1 L395.3,402.1  '/></g>
<g fill="none" color="black" stroke="currentColor" stroke-width="1.00" stroke-linecap="butt" stroke-linejoin="miter">
	<path stroke='black'  d='M82.5,402.1 L92.2,402.1 M395.3,402.1 L385.6,402.1  '/>	<g transform="translate(416.2,402.1) rotate(-90)" stroke="none" fill="black" font-family="arial" font-size="13.00"  text-anchor="end">
		<text> 3000</text>
	</g>
</g>
<g fill="none" color="black" stroke="currentColor" stroke-width="1.00" stroke-linecap="butt" stroke-linejoin="miter">
</g>
<g fill="none" color="black" stroke="currentColor" stroke-width="1.00" stroke-linecap="butt" stroke-linejoin="miter">
	<path stroke='rgb(192, 192, 192)' class="gridline"  d='M82.5,347.4 L395.3,347.4  '/></g>
<g fill="none" color="black" stroke="currentColor" stroke-width="1.00" stroke-linecap="butt" stroke-linejoin="miter">
	<path stroke='black'  d='M82.5,347.4 L92.2,347.4 M395.3,347.4 L385.6,347.4  '/>	<g transform="translate(416.2,347.4) rotate(-90)" stroke="none" fill="black" font-family="arial" font-size="13.00"  text-anchor="end">
		<text> 4000</text>
	</g>
</g>
<g fill="none" color="black" stroke="currentColor" stroke-width="1.00" stroke-linecap="butt" stroke-linejoin="miter">
</g>
<g fill="none" color="black" stroke="currentColor" stroke-width="1.00" stroke-linecap="butt" stroke-linejoin="miter">
	<path stroke='rgb(192, 192, 192)' class="gridline"  d='M82.5,292.8 L395.3,292.8  '/></g>
<g fill="none" color="black" stroke="currentColor" stroke-width="1.00" stroke-linecap="butt" stroke-linejoin="miter">
	<path stroke='black'  d='M82.5,292.8 L92.2,292.8 M395.3,292.8 L385.6,292.8  '/>	<g transform="translate(416.2,292.8) rotate(-90)" stroke="none" fill="black" font-family="arial" font-size="13.00"  text-anchor="end">
		<text> 5000</text>
	</g>
</g>
<g fill="none" color="black" stroke="currentColor" stroke-width="1.00" stroke-linecap="butt" stroke-linejoin="miter">
</g>
<g fill="none" color="black" stroke="currentColor" stroke-width="1.00" stroke-linecap="butt" stroke-linejoin="miter">
	<path stroke='rgb(192, 192, 192)' class="gridline"  d='M82.5,238.2 L395.3,238.2  '/></g>
<g fill="none" color="black" stroke="currentColor" stroke-width="1.00" stroke-linecap="butt" stroke-linejoin="miter">
	<path stroke='black'  d='M82.5,238.2 L92.2,238.2 M395.3,238.2 L385.6,238.2  '/>	<g transform="translate(416.2,238.2) rotate(-90)" stroke="none" fill="black" font-family="arial" font-size="13.00"  text-anchor="end">
		<text> 6000</text>
	</g>
</g>
<g fill="none" color="black" stroke="currentColor" stroke-width="1.00" stroke-linecap="butt" stroke-linejoin="miter">
</g>
<g fill="none" color="black" stroke="currentColor" stroke-width="1.00" stroke-linecap="butt" stroke-linejoin="miter">
	<path stroke='rgb(192, 192, 192)' class="gridline"  d='M82.5,183.5 L395.3,183.5  '/></g>
<g fill="none" color="black" stroke="currentColor" stroke-width="1.00" stroke-linecap="butt" stroke-linejoin="miter">
	<path stroke='black'  d='M82.5,183.5 L92.2,183.5 M395.3,183.5 L385.6,183.5  '/>	<g transform="translate(416.2,183.5) rotate(-90)" stroke="none" fill="black" font-family="arial" font-size="13.00"  text-anchor="end">
		<text> 7000</text>
	</g>
</g>
<g fill="none" color="black" stroke="currentColor" stroke-width="1.00" stroke-linecap="butt" stroke-linejoin="miter">
</g>
<g fill="none" color="black" stroke="currentColor" stroke-width="1.00" stroke-linecap="butt" stroke-linejoin="miter">
	<path stroke='rgb(192, 192, 192)' class="gridline"  d='M82.5,128.9 L395.3,128.9  '/></g>
<g fill="none" color="black" stroke="currentColor" stroke-width="1.00" stroke-linecap="butt" stroke-linejoin="miter">
	<path stroke='black'  d='M82.5,128.9 L92.2,128.9 M395.3,128.9 L385.6,128.9  '/>	<g transform="translate(416.2,128.9) rotate(-90)" stroke="none" fill="black" font-family="arial" font-size="13.00"  text-anchor="end">
		<text> 8000</text>
	</g>
</g>
<g fill="none" color="black" stroke="currentColor" stroke-width="1.00" stroke-linecap="butt" stroke-linejoin="miter">
</g>
<g fill="none" color="black" stroke="currentColor" stroke-width="1.00" stroke-linecap="butt" stroke-linejoin="miter">
	<path stroke='rgb(192, 192, 192)' class="gridline"  d='M82.5,74.2 L395.3,74.2  '/></g>
<g fill="none" color="black" stroke="currentColor" stroke-width="1.00" stroke-linecap="butt" stroke-linejoin="miter">
	<path stroke='black'  d='M82.5,74.2 L92.2,74.2 M395.3,74.2 L385.6,74.2  '/>	<g transform="translate(416.2,74.2) rotate(-90)" stroke="none" fill="black" font-family="arial" font-size="13.00"  text-anchor="end">
		<text> 9000</text>
	</g>
</g>
<g fill="none" color="black" stroke="currentColor" stroke-width="1.00" stroke-linecap="butt" stroke-linejoin="miter">
</g>
<g fill="none" color="black" stroke="currentColor" stroke-width="1.00" stroke-linecap="butt" stroke-linejoin="miter">
	<path stroke='rgb(192, 192, 192)' class="gridline"  d='M82.5,19.6 L395.3,19.6  '/></g>
<g fill="none" color="black" stroke="currentColor" stroke-width="1.00" stroke-linecap="butt" stroke-linejoin="miter">
	<path stroke='black'  d='M82.5,19.6 L92.2,19.6 M395.3,19.6 L385.6,19.6  '/>	<g transform="translate(416.2,19.6) rotate(-90)" stroke="none" fill="black" font-family="arial" font-size="13.00"  text-anchor="end">
		<text> 10000</text>
	</g>
</g>
<g fill="none" color="black" stroke="currentColor" stroke-width="1.00" stroke-linecap="butt" stroke-linejoin="miter">
	<path stroke='black'  d='M121.6,566.0 M121.6,19.6  '/>	<g transform="translate(125.8,575.1) rotate(-90)" stroke="none" fill="black" font-family="arial" font-size="13.00"  text-anchor="end">
		<text>fixed_function</text>
	</g>
</g>
<g fill="none" color="black" stroke="currentColor" stroke-width="1.00" stroke-linecap="butt" stroke-linejoin="miter">
	<path stroke='black'  d='M160.7,566.0 M160.7,19.6  '/>	<g transform="translate(164.9,575.1) rotate(-90)" stroke="none" fill="black" font-family="arial" font-size="13.00"  text-anchor="end">
		<text>function_ptr</text>
	</g>
</g>
<g fill="none" color="black" stroke="currentColor" stroke-width="1.00" stroke-linecap="butt" stroke-linejoin="miter">
	<path stroke='black'  d='M199.8,566.0 M199.8,19.6  '/>	<g transform="translate(204.0,575.1) rotate(-90)" stroke="none" fill="black" font-family="arial" font-size="13.00"  text-anchor="end">
		<text>function_template</text>
	</g>
</g>
<g fill="none" color="black" stroke="currentColor" stroke-width="1.00" stroke-linecap="butt" stroke-linejoin="miter">
	<path stroke='black'  d='M238.9,566.0 M238.9,19.6  '/>	<g transform="translate(243.1,575.1) rotate(-90)" stroke="none" fill="black" font-family="arial" font-size="13.00"  text-anchor="end">
		<text>function_template_copy</text>
	</g>
</g>
<g fill="none" color="black" stroke="currentColor" stroke-width="1.00" stroke-linecap="butt" stroke-linejoin="miter">
	<path stroke='black'  d='M278.0,566.0 M278.0,19.6  '/>	<g transform="translate(282.2,575.1) rotate(-90)" stroke="none" fill="black" font-family="arial" font-size="13.00"  text-anchor="end">
		<text>std_function</text>
	</g>
</g>
<g fill="none" color="black" stroke="currentColor" stroke-width="1.00" stroke-linecap="butt" stroke-linejoin="miter">
	<path stroke='black'  d='M317.1,566.0 M317.1,19.6  '/>	<g transform="translate(321.3,575.1) rotate(-90)" stroke="none" fill="black" font-family="arial" font-size="13.00"  text-anchor="end">
		<text>virtual_function</text>
	</g>
</g>
<g fill="none" color="black" stroke="currentColor" stroke-width="1.00" stroke-linecap="butt" stroke-linejoin="miter">
	<path stroke='black'  d='M356.2,566.0 M356.2,19.6  '/>	<g transform="translate(360.4,575.1) rotate(-90)" stroke="none" fill="black" font-family="arial" font-size="13.00"  text-anchor="end">
		<text>virtual_function_no_rtti</text>
	</g>
</g>
<g fill="none" color="black" stroke="currentColor" stroke-width="1.00" stroke-linecap="butt" stroke-linejoin="miter">
</g>
<g fill="none" color="black" stroke="currentColor" stroke-width="1.00" stroke-linecap="butt" stroke-linejoin="miter">
	<path stroke='black'  d='M82.5,19.6 L82.5,566.0 L395.3,566.0 L395.3,19.6 L82.5,19.6 Z  '/></g>
<g fill="none" color="black" stroke="currentColor" stroke-width="1.00" stroke-linecap="butt" stroke-linejoin="miter">
	<g stroke='none' shape-rendering='crispEdges'>
		<polygon fill = 'rgb(255, 255, 255)' points = '301.5,167.1 379.7,167.1 379.7,30.5 301.5,30.5 '/>
	</g>
</g>
<g fill="none" color="black" stroke="currentColor" stroke-width="1.00" stroke-linecap="butt" stroke-linejoin="miter">
	<g stroke='none' shape-rendering='crispEdges'>
		<polygon fill = 'rgb(148,   0, 211)' points = '329.6,101.6 342.1,101.6 342.1,41.5 329.6,41.5 '/>
	</g>
	<path stroke='black'  d='M329.6,101.6 L329.6,41.5 L342.1,41.5 L342.1,101.6 L329.6,101.6 Z  '/></g>
<g fill="none" color="black" stroke="currentColor" stroke-width="1.00" stroke-linecap="butt" stroke-linejoin="miter">
	<g stroke='none' shape-rendering='crispEdges'>
		<polygon fill = 'rgb(  0, 158, 115)' points = '354.6,101.6 367.1,101.6 367.1,41.5 354.6,41.5 '/>
	</g>
	<path stroke='black'  d='M354.6,101.6 L354.6,41.5 L367.1,41.5 L367.1,101.6 L354.6,101.6 Z  '/>	<g transform="translate(340.1,112.5) rotate(-90)" stroke="none" fill="black" font-family="arial" font-size="13.00"  text-anchor="end">
		<text>ROM</text>
	</g>
	<g transform="translate(365.1,112.5) rotate(-90)" stroke="none" fill="black" font-family="arial" font-size="13.00"  text-anchor="end">
		<text>RAM</text>
	</g>
</g>
<g fill="none" color="black" stroke="currentColor" stroke-width="1.00" stroke-linecap="butt" stroke-linejoin="miter">
	<g transform="translate(439.3,234.3) rotate(-90)" stroke="none" fill="black" font-family="arial" font-size="13.00"  text-anchor="end">
		<text>Speicherbedarf/Bytes</text>
	</g>
</g>
<g fill="none" color="black" stroke="currentColor" stroke-width="1.00" stroke-linecap="butt" stroke-linejoin="miter">
</g>
	<g id="gnuplot_plot_1" ><title>gnuplot_plot_1</title>
<g fill="none" color="black" stroke="currentColor" stroke-width="1.00" stroke-linecap="butt" stroke-linejoin="miter">
	<g stroke='none' shape-rendering='crispEdges'>
		<polygon fill = 'rgb(148,   0, 211)' points = '108.6,566.0 121.7,566.0 121.7,467.2 108.6,467.2 '/>
	</g>
	<path stroke='rgb(  0,   0,   0)'  d='M108.6,566.0 L108.6,467.3 L121.6,467.3 L121.6,566.0 L108.6,566.0 Z  '/></g>
<g fill="none" color="black" stroke="currentColor" stroke-width="1.00" stroke-linecap="butt" stroke-linejoin="miter">
	<g stroke='none' shape-rendering='crispEdges'>
		<polygon fill = 'rgb(148,   0, 211)' points = '147.7,566.0 160.8,566.0 160.8,527.7 147.7,527.7 '/>
	</g>
	<path stroke='rgb(  0,   0,   0)'  d='M147.7,566.0 L147.7,527.8 L160.7,527.8 L160.7,566.0 L147.7,566.0 Z  '/></g>
<g fill="none" color="black" stroke="currentColor" stroke-width="1.00" stroke-linecap="butt" stroke-linejoin="miter">
	<g stroke='none' shape-rendering='crispEdges'>
		<polygon fill = 'rgb(148,   0, 211)' points = '186.8,566.0 199.9,566.0 199.9,480.8 186.8,480.8 '/>
	</g>
	<path stroke='rgb(  0,   0,   0)'  d='M186.8,566.0 L186.8,480.9 L199.8,480.9 L199.8,566.0 L186.8,566.0 Z  '/></g>
<g fill="none" color="black" stroke="currentColor" stroke-width="1.00" stroke-linecap="butt" stroke-linejoin="miter">
	<g stroke='none' shape-rendering='crispEdges'>
		<polygon fill = 'rgb(148,   0, 211)' points = '225.9,566.0 239.0,566.0 239.0,482.8 225.9,482.8 '/>
	</g>
	<path stroke='rgb(  0,   0,   0)'  d='M225.9,566.0 L225.9,482.9 L238.9,482.9 L238.9,566.0 L225.9,566.0 Z  '/></g>
<g fill="none" color="black" stroke="currentColor" stroke-width="1.00" stroke-linecap="butt" stroke-linejoin="miter">
	<g stroke='none' shape-rendering='crispEdges'>
		<polygon fill = 'rgb(148,   0, 211)' points = '265.0,566.0 278.1,566.0 278.1,351.5 265.0,351.5 '/>
	</g>
	<path stroke='rgb(  0,   0,   0)'  d='M265.0,566.0 L265.0,351.6 L278.0,351.6 L278.0,566.0 L265.0,566.0 Z  '/></g>
<g fill="none" color="black" stroke="currentColor" stroke-width="1.00" stroke-linecap="butt" stroke-linejoin="miter">
	<g stroke='none' shape-rendering='crispEdges'>
		<polygon fill = 'rgb(148,   0, 211)' points = '304.1,566.0 317.2,566.0 317.2,535.3 304.1,535.3 '/>
	</g>
	<path stroke='rgb(  0,   0,   0)'  d='M304.1,566.0 L304.1,535.4 L317.1,535.4 L317.1,566.0 L304.1,566.0 Z  '/></g>
<g fill="none" color="black" stroke="currentColor" stroke-width="1.00" stroke-linecap="butt" stroke-linejoin="miter">
	<g stroke='none' shape-rendering='crispEdges'>
		<polygon fill = 'rgb(148,   0, 211)' points = '343.2,566.0 356.3,566.0 356.3,535.3 343.2,535.3 '/>
	</g>
	<path stroke='rgb(  0,   0,   0)'  d='M343.2,566.0 L343.2,535.4 L356.2,535.4 L356.2,566.0 L343.2,566.0 Z  '/></g>
<g fill="none" color="black" stroke="currentColor" stroke-width="1.00" stroke-linecap="butt" stroke-linejoin="miter">
</g>
<g fill="none" color="black" stroke="rgb(148,   0, 211)" stroke-width="0.00" stroke-linecap="butt" stroke-linejoin="miter">
</g>
<g fill="none" color="black" stroke="rgb(  0,   0,   0)" stroke-width="1.00" stroke-linecap="butt" stroke-linejoin="miter">
	<path stroke='black'  d='M115.1,514.6 L115.1,397.9 M110.3,514.6 L119.9,514.6 M110.3,397.9 L119.9,397.9 M154.2,550.8 L154.2,497.6
		M149.4,550.8 L159.0,550.8 M149.4,497.6 L159.0,497.6 M193.3,527.8 L193.3,414.7 M188.5,527.8 L198.1,527.8
		M188.5,414.7 L198.1,414.7 M232.4,526.6 L232.4,415.9 M227.6,526.6 L237.2,526.6 M227.6,415.9 L237.2,415.9
		M271.5,470.1 L271.5,48.7 M266.7,470.1 L276.3,470.1 M266.7,48.7 L276.3,48.7 M310.6,551.5 L310.6,509.2
		M305.8,551.5 L315.4,551.5 M305.8,509.2 L315.4,509.2 M349.7,551.5 L349.7,509.2 M344.9,551.5 L354.5,551.5
		M344.9,509.2 L354.5,509.2  '/></g>
<g fill="none" color="black" stroke="currentColor" stroke-width="1.00" stroke-linecap="butt" stroke-linejoin="miter">
</g>
	</g>
	<g id="gnuplot_plot_2" ><title>gnuplot_plot_2</title>
<g fill="none" color="black" stroke="currentColor" stroke-width="1.00" stroke-linecap="butt" stroke-linejoin="miter">
	<g stroke='none' shape-rendering='crispEdges'>
		<polygon fill = 'rgb(  0, 158, 115)' points = '121.6,566.0 134.7,566.0 134.7,536.8 121.6,536.8 '/>
	</g>
	<path stroke='rgb(  0,   0,   0)'  d='M121.6,566.0 L121.6,536.9 L134.6,536.9 L134.6,566.0 L121.6,566.0 Z  '/></g>
<g fill="none" color="black" stroke="currentColor" stroke-width="1.00" stroke-linecap="butt" stroke-linejoin="miter">
	<g stroke='none' shape-rendering='crispEdges'>
		<polygon fill = 'rgb(  0, 158, 115)' points = '160.7,566.0 173.8,566.0 173.8,554.3 160.7,554.3 '/>
	</g>
	<path stroke='rgb(  0,   0,   0)'  d='M160.7,566.0 L160.7,554.4 L173.7,554.4 L173.7,566.0 L160.7,566.0 Z  '/></g>
<g fill="none" color="black" stroke="currentColor" stroke-width="1.00" stroke-linecap="butt" stroke-linejoin="miter">
	<g stroke='none' shape-rendering='crispEdges'>
		<polygon fill = 'rgb(  0, 158, 115)' points = '199.8,566.0 212.9,566.0 212.9,544.9 199.8,544.9 '/>
	</g>
	<path stroke='rgb(  0,   0,   0)'  d='M199.8,566.0 L199.8,545.0 L212.8,545.0 L212.8,566.0 L199.8,566.0 Z  '/></g>
<g fill="none" color="black" stroke="currentColor" stroke-width="1.00" stroke-linecap="butt" stroke-linejoin="miter">
	<g stroke='none' shape-rendering='crispEdges'>
		<polygon fill = 'rgb(  0, 158, 115)' points = '238.9,566.0 252.0,566.0 252.0,542.3 238.9,542.3 '/>
	</g>
	<path stroke='rgb(  0,   0,   0)'  d='M238.9,566.0 L238.9,542.4 L251.9,542.4 L251.9,566.0 L238.9,566.0 Z  '/></g>
<g fill="none" color="black" stroke="currentColor" stroke-width="1.00" stroke-linecap="butt" stroke-linejoin="miter">
	<g stroke='none' shape-rendering='crispEdges'>
		<polygon fill = 'rgb(  0, 158, 115)' points = '278.0,566.0 291.1,566.0 291.1,540.4 278.0,540.4 '/>
	</g>
	<path stroke='rgb(  0,   0,   0)'  d='M278.0,566.0 L278.0,540.5 L291.0,540.5 L291.0,566.0 L278.0,566.0 Z  '/></g>
<g fill="none" color="black" stroke="currentColor" stroke-width="1.00" stroke-linecap="butt" stroke-linejoin="miter">
	<g stroke='none' shape-rendering='crispEdges'>
		<polygon fill = 'rgb(  0, 158, 115)' points = '317.1,566.0 330.2,566.0 330.2,554.1 317.1,554.1 '/>
	</g>
	<path stroke='rgb(  0,   0,   0)'  d='M317.1,566.0 L317.1,554.2 L330.1,554.2 L330.1,566.0 L317.1,566.0 Z  '/></g>
<g fill="none" color="black" stroke="currentColor" stroke-width="1.00" stroke-linecap="butt" stroke-linejoin="miter">
	<g stroke='none' shape-rendering='crispEdges'>
		<polygon fill = 'rgb(  0, 158, 115)' points = '356.2,566.0 369.3,566.0 369.3,554.1 356.2,554.1 '/>
	</g>
	<path stroke='rgb(  0,   0,   0)'  d='M356.2,566.0 L356.2,554.2 L369.2,554.2 L369.2,566.0 L356.2,566.0 Z  '/></g>
<g fill="none" color="black" stroke="currentColor" stroke-width="1.00" stroke-linecap="butt" stroke-linejoin="miter">
</g>
<g fill="none" color="black" stroke="rgb(  0, 158, 115)" stroke-width="0.00" stroke-linecap="butt" stroke-linejoin="miter">
</g>
<g fill="none" color="black" stroke="rgb(  0,   0,   0)" stroke-width="1.00" stroke-linecap="butt" stroke-linejoin="miter">
	<path stroke='black'  d='M128.1,544.4 L128.1,532.3 M123.3,544.4 L132.9,544.4 M123.3,532.3 L132.9,532.3 M167.2,562.7 L167.2,551.6
		M162.4,562.7 L172.0,562.7 M162.4,551.6 L172.0,551.6 M206.3,554.0 L206.3,541.8 M201.5,554.0 L211.1,554.0
		M201.5,541.8 L211.1,541.8 M245.4,549.2 L245.4,537.9 M240.6,549.2 L250.2,549.2 M240.6,537.9 L250.2,537.9
		M284.5,543.1 L284.5,533.8 M279.7,543.1 L289.3,543.1 M279.7,533.8 L289.3,533.8 M323.6,562.1 L323.6,551.4
		M318.8,562.1 L328.4,562.1 M318.8,551.4 L328.4,551.4 M362.7,562.5 L362.7,551.4 M357.9,562.5 L367.5,562.5
		M357.9,551.4 L367.5,551.4  '/></g>
<g fill="none" color="black" stroke="currentColor" stroke-width="1.00" stroke-linecap="butt" stroke-linejoin="miter">
</g>
	</g>
<g fill="none" color="white" stroke="rgb(  0, 158, 115)" stroke-width="2.00" stroke-linecap="butt" stroke-linejoin="miter">
</g>
<g fill="none" color="black" stroke="currentColor" stroke-width="2.00" stroke-linecap="butt" stroke-linejoin="miter">
</g>
<g fill="none" color="black" stroke="black" stroke-width="1.00" stroke-linecap="butt" stroke-linejoin="miter">
</g>
<g fill="none" color="black" stroke="currentColor" stroke-width="1.00" stroke-linecap="butt" stroke-linejoin="miter">
	<path stroke='black'  d='M82.5,19.6 L82.5,566.0 L395.3,566.0 L395.3,19.6 L82.5,19.6 Z  '/>	<g transform="translate(313.5,101.6) rotate(-90)" stroke="none" fill="black" font-family="arial" font-size="13.00"  text-anchor="middle">
		<text>Speicherklasse</text>
	</g>
</g>
<g fill="none" color="black" stroke="currentColor" stroke-width="1.00" stroke-linecap="butt" stroke-linejoin="miter">
</g>
</g>
</svg>

