<?xml version="1.0" encoding="utf-8"  standalone="no"?>
<svg 
 width="350" height="800"
 viewBox="0 0 350 800"
 xmlns="http://www.w3.org/2000/svg"
 xmlns:xlink="http://www.w3.org/1999/xlink"
>

<title>Gnuplot</title>
<desc>Produced by GNUPLOT 5.2 patchlevel 8 </desc>

<g id="gnuplot_canvas">

<rect x="0" y="0" width="350" height="800" fill="none"/>
<defs>

	<circle id='gpDot' r='0.5' stroke-width='0.5' stroke='currentColor'/>
	<path id='gpPt0' stroke-width='0.206' stroke='currentColor' d='M-1,0 h2 M0,-1 v2'/>
	<path id='gpPt1' stroke-width='0.206' stroke='currentColor' d='M-1,-1 L1,1 M1,-1 L-1,1'/>
	<path id='gpPt2' stroke-width='0.206' stroke='currentColor' d='M-1,0 L1,0 M0,-1 L0,1 M-1,-1 L1,1 M-1,1 L1,-1'/>
	<rect id='gpPt3' stroke-width='0.206' stroke='currentColor' x='-1' y='-1' width='2' height='2'/>
	<rect id='gpPt4' stroke-width='0.206' stroke='currentColor' fill='currentColor' x='-1' y='-1' width='2' height='2'/>
	<circle id='gpPt5' stroke-width='0.206' stroke='currentColor' cx='0' cy='0' r='1'/>
	<use xlink:href='#gpPt5' id='gpPt6' fill='currentColor' stroke='none'/>
	<path id='gpPt7' stroke-width='0.206' stroke='currentColor' d='M0,-1.33 L-1.33,0.67 L1.33,0.67 z'/>
	<use xlink:href='#gpPt7' id='gpPt8' fill='currentColor' stroke='none'/>
	<use xlink:href='#gpPt7' id='gpPt9' stroke='currentColor' transform='rotate(180)'/>
	<use xlink:href='#gpPt9' id='gpPt10' fill='currentColor' stroke='none'/>
	<use xlink:href='#gpPt3' id='gpPt11' stroke='currentColor' transform='rotate(45)'/>
	<use xlink:href='#gpPt11' id='gpPt12' fill='currentColor' stroke='none'/>
	<path id='gpPt13' stroke-width='0.206' stroke='currentColor' d='M0,1.330 L1.265,0.411 L0.782,-1.067 L-0.782,-1.076 L-1.265,0.411 z'/>
	<use xlink:href='#gpPt13' id='gpPt14' fill='currentColor' stroke='none'/>
	<filter id='textbox' filterUnits='objectBoundingBox' x='0' y='0' height='1' width='1'>
	  <feFlood flood-color='white' flood-opacity='1' result='bgnd'/>
	  <feComposite in='SourceGraphic' in2='bgnd' operator='atop'/>
	</filter>
	<filter id='greybox' filterUnits='objectBoundingBox' x='0' y='0' height='1' width='1'>
	  <feFlood flood-color='lightgrey' flood-opacity='1' result='grey'/>
	  <feComposite in='SourceGraphic' in2='grey' operator='atop'/>
	</filter>
</defs>
<g fill="none" color="white" stroke="black" stroke-width="1.00" stroke-linecap="butt" stroke-linejoin="miter">
</g>
<g fill="none" color="black" stroke="currentColor" stroke-width="1.00" stroke-linecap="butt" stroke-linejoin="miter">
</g>
<g fill="none" color="black" stroke="currentColor" stroke-width="1.00" stroke-linecap="butt" stroke-linejoin="miter">
	<path stroke='rgb(192, 192, 192)' class="gridline"  d='M82.5,566.0 L295.3,566.0  '/></g>
<g fill="none" color="black" stroke="currentColor" stroke-width="1.00" stroke-linecap="butt" stroke-linejoin="miter">
	<path stroke='black'  d='M82.5,566.0 L92.2,566.0 M295.3,566.0 L285.6,566.0  '/>	<g transform="translate(325.2,566.0) rotate(-90)" stroke="none" fill="black" font-family="arial" font-size="13.00"  text-anchor="end">
		<text> 0</text>
	</g>
</g>
<g fill="none" color="black" stroke="currentColor" stroke-width="1.00" stroke-linecap="butt" stroke-linejoin="miter">
</g>
<g fill="none" color="black" stroke="currentColor" stroke-width="1.00" stroke-linecap="butt" stroke-linejoin="miter">
	<path stroke='rgb(192, 192, 192)' class="gridline"  d='M82.5,497.7 L295.3,497.7  '/></g>
<g fill="none" color="black" stroke="currentColor" stroke-width="1.00" stroke-linecap="butt" stroke-linejoin="miter">
	<path stroke='black'  d='M82.5,497.7 L92.2,497.7 M295.3,497.7 L285.6,497.7  '/>	<g transform="translate(325.2,497.7) rotate(-90)" stroke="none" fill="black" font-family="arial" font-size="13.00"  text-anchor="end">
		<text> 5</text>
	</g>
</g>
<g fill="none" color="black" stroke="currentColor" stroke-width="1.00" stroke-linecap="butt" stroke-linejoin="miter">
</g>
<g fill="none" color="black" stroke="currentColor" stroke-width="1.00" stroke-linecap="butt" stroke-linejoin="miter">
	<path stroke='rgb(192, 192, 192)' class="gridline"  d='M82.5,429.4 L295.3,429.4  '/></g>
<g fill="none" color="black" stroke="currentColor" stroke-width="1.00" stroke-linecap="butt" stroke-linejoin="miter">
	<path stroke='black'  d='M82.5,429.4 L92.2,429.4 M295.3,429.4 L285.6,429.4  '/>	<g transform="translate(325.2,429.4) rotate(-90)" stroke="none" fill="black" font-family="arial" font-size="13.00"  text-anchor="end">
		<text> 10</text>
	</g>
</g>
<g fill="none" color="black" stroke="currentColor" stroke-width="1.00" stroke-linecap="butt" stroke-linejoin="miter">
</g>
<g fill="none" color="black" stroke="currentColor" stroke-width="1.00" stroke-linecap="butt" stroke-linejoin="miter">
	<path stroke='rgb(192, 192, 192)' class="gridline"  d='M82.5,361.1 L295.3,361.1  '/></g>
<g fill="none" color="black" stroke="currentColor" stroke-width="1.00" stroke-linecap="butt" stroke-linejoin="miter">
	<path stroke='black'  d='M82.5,361.1 L92.2,361.1 M295.3,361.1 L285.6,361.1  '/>	<g transform="translate(325.2,361.1) rotate(-90)" stroke="none" fill="black" font-family="arial" font-size="13.00"  text-anchor="end">
		<text> 15</text>
	</g>
</g>
<g fill="none" color="black" stroke="currentColor" stroke-width="1.00" stroke-linecap="butt" stroke-linejoin="miter">
</g>
<g fill="none" color="black" stroke="currentColor" stroke-width="1.00" stroke-linecap="butt" stroke-linejoin="miter">
	<path stroke='rgb(192, 192, 192)' class="gridline"  d='M82.5,292.8 L295.3,292.8  '/></g>
<g fill="none" color="black" stroke="currentColor" stroke-width="1.00" stroke-linecap="butt" stroke-linejoin="miter">
	<path stroke='black'  d='M82.5,292.8 L92.2,292.8 M295.3,292.8 L285.6,292.8  '/>	<g transform="translate(325.2,292.8) rotate(-90)" stroke="none" fill="black" font-family="arial" font-size="13.00"  text-anchor="end">
		<text> 20</text>
	</g>
</g>
<g fill="none" color="black" stroke="currentColor" stroke-width="1.00" stroke-linecap="butt" stroke-linejoin="miter">
</g>
<g fill="none" color="black" stroke="currentColor" stroke-width="1.00" stroke-linecap="butt" stroke-linejoin="miter">
	<path stroke='rgb(192, 192, 192)' class="gridline"  d='M82.5,224.5 L295.3,224.5  '/></g>
<g fill="none" color="black" stroke="currentColor" stroke-width="1.00" stroke-linecap="butt" stroke-linejoin="miter">
	<path stroke='black'  d='M82.5,224.5 L92.2,224.5 M295.3,224.5 L285.6,224.5  '/>	<g transform="translate(325.2,224.5) rotate(-90)" stroke="none" fill="black" font-family="arial" font-size="13.00"  text-anchor="end">
		<text> 25</text>
	</g>
</g>
<g fill="none" color="black" stroke="currentColor" stroke-width="1.00" stroke-linecap="butt" stroke-linejoin="miter">
</g>
<g fill="none" color="black" stroke="currentColor" stroke-width="1.00" stroke-linecap="butt" stroke-linejoin="miter">
	<path stroke='rgb(192, 192, 192)' class="gridline"  d='M82.5,156.2 L295.3,156.2  '/></g>
<g fill="none" color="black" stroke="currentColor" stroke-width="1.00" stroke-linecap="butt" stroke-linejoin="miter">
	<path stroke='black'  d='M82.5,156.2 L92.2,156.2 M295.3,156.2 L285.6,156.2  '/>	<g transform="translate(325.2,156.2) rotate(-90)" stroke="none" fill="black" font-family="arial" font-size="13.00"  text-anchor="end">
		<text> 30</text>
	</g>
</g>
<g fill="none" color="black" stroke="currentColor" stroke-width="1.00" stroke-linecap="butt" stroke-linejoin="miter">
</g>
<g fill="none" color="black" stroke="currentColor" stroke-width="1.00" stroke-linecap="butt" stroke-linejoin="miter">
	<path stroke='rgb(192, 192, 192)' class="gridline"  d='M82.5,87.9 L295.3,87.9  '/></g>
<g fill="none" color="black" stroke="currentColor" stroke-width="1.00" stroke-linecap="butt" stroke-linejoin="miter">
	<path stroke='black'  d='M82.5,87.9 L92.2,87.9 M295.3,87.9 L285.6,87.9  '/>	<g transform="translate(325.2,87.9) rotate(-90)" stroke="none" fill="black" font-family="arial" font-size="13.00"  text-anchor="end">
		<text> 35</text>
	</g>
</g>
<g fill="none" color="black" stroke="currentColor" stroke-width="1.00" stroke-linecap="butt" stroke-linejoin="miter">
</g>
<g fill="none" color="black" stroke="currentColor" stroke-width="1.00" stroke-linecap="butt" stroke-linejoin="miter">
	<path stroke='rgb(192, 192, 192)' class="gridline"  d='M82.5,19.6 L295.3,19.6  '/></g>
<g fill="none" color="black" stroke="currentColor" stroke-width="1.00" stroke-linecap="butt" stroke-linejoin="miter">
	<path stroke='black'  d='M82.5,19.6 L92.2,19.6 M295.3,19.6 L285.6,19.6  '/>	<g transform="translate(325.2,19.6) rotate(-90)" stroke="none" fill="black" font-family="arial" font-size="13.00"  text-anchor="end">
		<text> 40</text>
	</g>
</g>
<g fill="none" color="black" stroke="currentColor" stroke-width="1.00" stroke-linecap="butt" stroke-linejoin="miter">
	<path stroke='black'  d='M125.1,566.0 M125.1,19.6  '/>	<g transform="translate(129.3,575.1) rotate(-90)" stroke="none" fill="black" font-family="arial" font-size="13.00"  text-anchor="end">
		<text>std_function</text>
	</g>
</g>
<g fill="none" color="black" stroke="currentColor" stroke-width="1.00" stroke-linecap="butt" stroke-linejoin="miter">
	<path stroke='black'  d='M167.6,566.0 M167.6,19.6  '/>	<g transform="translate(171.8,575.1) rotate(-90)" stroke="none" fill="black" font-family="arial" font-size="13.00"  text-anchor="end">
		<text>fixed_function</text>
	</g>
</g>
<g fill="none" color="black" stroke="currentColor" stroke-width="1.00" stroke-linecap="butt" stroke-linejoin="miter">
	<path stroke='black'  d='M210.2,566.0 M210.2,19.6  '/>	<g transform="translate(214.4,575.1) rotate(-90)" stroke="none" fill="black" font-family="arial" font-size="13.00"  text-anchor="end">
		<text>template</text>
	</g>
</g>
<g fill="none" color="black" stroke="currentColor" stroke-width="1.00" stroke-linecap="butt" stroke-linejoin="miter">
	<path stroke='black'  d='M252.7,566.0 M252.7,19.6  '/>	<g transform="translate(256.9,575.1) rotate(-90)" stroke="none" fill="black" font-family="arial" font-size="13.00"  text-anchor="end">
		<text>template_copy</text>
	</g>
</g>
<g fill="none" color="black" stroke="currentColor" stroke-width="1.00" stroke-linecap="butt" stroke-linejoin="miter">
</g>
<g fill="none" color="black" stroke="currentColor" stroke-width="1.00" stroke-linecap="butt" stroke-linejoin="miter">
	<path stroke='black'  d='M82.5,19.6 L82.5,566.0 L295.3,566.0 L295.3,19.6 L82.5,19.6 Z  '/></g>
<g fill="none" color="black" stroke="currentColor" stroke-width="1.00" stroke-linecap="butt" stroke-linejoin="miter">
	<g stroke='none' shape-rendering='crispEdges'>
		<polygon fill = 'rgb(255, 255, 255)' points = '220.8,167.1 284.7,167.1 284.7,30.5 220.8,30.5 '/>
	</g>
</g>
<g fill="none" color="black" stroke="currentColor" stroke-width="1.00" stroke-linecap="butt" stroke-linejoin="miter">
	<g stroke='none' shape-rendering='crispEdges'>
		<polygon fill = 'rgb(148,   0, 211)' points = '229.3,101.6 233.6,101.6 233.6,41.5 229.3,41.5 '/>
	</g>
	<path stroke='black'  d='M229.3,101.6 L229.3,41.5 L233.6,41.5 L233.6,101.6 L229.3,101.6 Z  '/></g>
<g fill="none" color="black" stroke="currentColor" stroke-width="1.00" stroke-linecap="butt" stroke-linejoin="miter">
	<g stroke='none' shape-rendering='crispEdges'>
		<polygon fill = 'rgb(  0, 158, 115)' points = '240.0,101.6 244.2,101.6 244.2,41.5 240.0,41.5 '/>
	</g>
	<path stroke='black'  d='M240.0,101.6 L240.0,41.5 L244.2,41.5 L244.2,101.6 L240.0,101.6 Z  '/></g>
<g fill="none" color="black" stroke="currentColor" stroke-width="1.00" stroke-linecap="butt" stroke-linejoin="miter">
	<g stroke='none' shape-rendering='crispEdges'>
		<polygon fill = 'rgb( 86, 180, 233)' points = '250.6,101.6 254.9,101.6 254.9,41.5 250.6,41.5 '/>
	</g>
	<path stroke='black'  d='M250.6,101.6 L250.6,41.5 L254.9,41.5 L254.9,101.6 L250.6,101.6 Z  '/></g>
<g fill="none" color="black" stroke="currentColor" stroke-width="1.00" stroke-linecap="butt" stroke-linejoin="miter">
	<g stroke='none' shape-rendering='crispEdges'>
		<polygon fill = 'rgb(230, 159,   0)' points = '261.3,101.6 265.5,101.6 265.5,41.5 261.3,41.5 '/>
	</g>
	<path stroke='black'  d='M261.3,101.6 L261.3,41.5 L265.5,41.5 L265.5,101.6 L261.3,101.6 Z  '/></g>
<g fill="none" color="black" stroke="currentColor" stroke-width="1.00" stroke-linecap="butt" stroke-linejoin="miter">
	<g stroke='none' shape-rendering='crispEdges'>
		<polygon fill = 'rgb(240, 228,  66)' points = '271.9,101.6 276.1,101.6 276.1,41.5 271.9,41.5 '/>
	</g>
	<path stroke='black'  d='M271.9,101.6 L271.9,41.5 L276.1,41.5 L276.1,101.6 L271.9,101.6 Z  '/>	<g transform="translate(235.7,112.5) rotate(-90)" stroke="none" fill="black" font-family="arial" font-size="13.00"  text-anchor="end">
		<text>ARMClang</text>
	</g>
	<g transform="translate(246.3,112.5) rotate(-90)" stroke="none" fill="black" font-family="arial" font-size="13.00"  text-anchor="end">
		<text>ARMCC</text>
	</g>
	<g transform="translate(256.9,112.5) rotate(-90)" stroke="none" fill="black" font-family="arial" font-size="13.00"  text-anchor="end">
		<text>GNU</text>
	</g>
	<g transform="translate(267.6,112.5) rotate(-90)" stroke="none" fill="black" font-family="arial" font-size="13.00"  text-anchor="end">
		<text>Clang</text>
	</g>
	<g transform="translate(278.2,112.5) rotate(-90)" stroke="none" fill="black" font-family="arial" font-size="13.00"  text-anchor="end">
		<text>IAR</text>
	</g>
</g>
<g fill="none" color="black" stroke="currentColor" stroke-width="1.00" stroke-linecap="butt" stroke-linejoin="miter">
	<g transform="translate(348.3,195.3) rotate(-90)" stroke="none" fill="black" font-family="arial" font-size="13.00"  text-anchor="end">
		<text>Cycles pro Iteration (normalisiert)</text>
	</g>
</g>
<g fill="none" color="black" stroke="currentColor" stroke-width="1.00" stroke-linecap="butt" stroke-linejoin="miter">
</g>
	<g id="gnuplot_plot_1" ><title>gnuplot_plot_1</title>
<g fill="none" color="black" stroke="currentColor" stroke-width="1.00" stroke-linecap="butt" stroke-linejoin="miter">
	<g stroke='none' shape-rendering='crispEdges'>
		<polygon fill = 'rgb(148,   0, 211)' points = '109.9,566.0 116.0,566.0 116.0,486.4 109.9,486.4 '/>
	</g>
	<path stroke='rgb(  0,   0,   0)'  d='M109.9,566.0 L109.9,486.5 L115.9,486.5 L115.9,566.0 L109.9,566.0 Z  '/></g>
<g fill="none" color="black" stroke="currentColor" stroke-width="1.00" stroke-linecap="butt" stroke-linejoin="miter">
	<g stroke='none' shape-rendering='crispEdges'>
		<polygon fill = 'rgb(148,   0, 211)' points = '152.4,566.0 158.6,566.0 158.6,432.3 152.4,432.3 '/>
	</g>
	<path stroke='rgb(  0,   0,   0)'  d='M152.4,566.0 L152.4,432.4 L158.5,432.4 L158.5,566.0 L152.4,566.0 Z  '/></g>
<g fill="none" color="black" stroke="currentColor" stroke-width="1.00" stroke-linecap="butt" stroke-linejoin="miter">
	<g stroke='none' shape-rendering='crispEdges'>
		<polygon fill = 'rgb(148,   0, 211)' points = '195.0,566.0 201.2,566.0 201.2,547.1 195.0,547.1 '/>
	</g>
	<path stroke='rgb(  0,   0,   0)'  d='M195.0,566.0 L195.0,547.2 L201.1,547.2 L201.1,566.0 L195.0,566.0 Z  '/></g>
<g fill="none" color="black" stroke="currentColor" stroke-width="1.00" stroke-linecap="butt" stroke-linejoin="miter">
	<g stroke='none' shape-rendering='crispEdges'>
		<polygon fill = 'rgb(148,   0, 211)' points = '237.5,566.0 243.7,566.0 243.7,547.1 237.5,547.1 '/>
	</g>
	<path stroke='rgb(  0,   0,   0)'  d='M237.5,566.0 L237.5,547.2 L243.6,547.2 L243.6,566.0 L237.5,566.0 Z  '/></g>
<g fill="none" color="black" stroke="currentColor" stroke-width="1.00" stroke-linecap="butt" stroke-linejoin="miter">
</g>
	</g>
	<g id="gnuplot_plot_2" ><title>gnuplot_plot_2</title>
<g fill="none" color="black" stroke="currentColor" stroke-width="1.00" stroke-linecap="butt" stroke-linejoin="miter">
</g>
	</g>
	<g id="gnuplot_plot_3" ><title>gnuplot_plot_3</title>
<g fill="none" color="black" stroke="currentColor" stroke-width="1.00" stroke-linecap="butt" stroke-linejoin="miter">
	<g stroke='none' shape-rendering='crispEdges'>
		<polygon fill = 'rgb( 86, 180, 233)' points = '122.0,566.0 128.2,566.0 128.2,272.8 122.0,272.8 '/>
	</g>
	<path stroke='rgb(  0,   0,   0)'  d='M122.0,566.0 L122.0,272.9 L128.1,272.9 L128.1,566.0 L122.0,566.0 Z  '/></g>
<g fill="none" color="black" stroke="currentColor" stroke-width="1.00" stroke-linecap="butt" stroke-linejoin="miter">
	<g stroke='none' shape-rendering='crispEdges'>
		<polygon fill = 'rgb( 86, 180, 233)' points = '164.6,566.0 170.8,566.0 170.8,44.3 164.6,44.3 '/>
	</g>
	<path stroke='rgb(  0,   0,   0)'  d='M164.6,566.0 L164.6,44.4 L170.7,44.4 L170.7,566.0 L164.6,566.0 Z  '/></g>
<g fill="none" color="black" stroke="currentColor" stroke-width="1.00" stroke-linecap="butt" stroke-linejoin="miter">
	<g stroke='none' shape-rendering='crispEdges'>
		<polygon fill = 'rgb( 86, 180, 233)' points = '207.1,566.0 213.3,566.0 213.3,543.1 207.1,543.1 '/>
	</g>
	<path stroke='rgb(  0,   0,   0)'  d='M207.1,566.0 L207.1,543.2 L213.2,543.2 L213.2,566.0 L207.1,566.0 Z  '/></g>
<g fill="none" color="black" stroke="currentColor" stroke-width="1.00" stroke-linecap="butt" stroke-linejoin="miter">
	<g stroke='none' shape-rendering='crispEdges'>
		<polygon fill = 'rgb( 86, 180, 233)' points = '249.7,566.0 255.9,566.0 255.9,543.7 249.7,543.7 '/>
	</g>
	<path stroke='rgb(  0,   0,   0)'  d='M249.7,566.0 L249.7,543.8 L255.8,543.8 L255.8,566.0 L249.7,566.0 Z  '/></g>
<g fill="none" color="black" stroke="currentColor" stroke-width="1.00" stroke-linecap="butt" stroke-linejoin="miter">
</g>
	</g>
	<g id="gnuplot_plot_4" ><title>gnuplot_plot_4</title>
<g fill="none" color="black" stroke="currentColor" stroke-width="1.00" stroke-linecap="butt" stroke-linejoin="miter">
	<g stroke='none' shape-rendering='crispEdges'>
		<polygon fill = 'rgb(230, 159,   0)' points = '128.1,566.0 134.3,566.0 134.3,271.0 128.1,271.0 '/>
	</g>
	<path stroke='rgb(  0,   0,   0)'  d='M128.1,566.0 L128.1,271.1 L134.2,271.1 L134.2,566.0 L128.1,566.0 Z  '/></g>
<g fill="none" color="black" stroke="currentColor" stroke-width="1.00" stroke-linecap="butt" stroke-linejoin="miter">
	<g stroke='none' shape-rendering='crispEdges'>
		<polygon fill = 'rgb(230, 159,   0)' points = '170.7,566.0 176.8,566.0 176.8,414.9 170.7,414.9 '/>
	</g>
	<path stroke='rgb(  0,   0,   0)'  d='M170.7,566.0 L170.7,415.0 L176.7,415.0 L176.7,566.0 L170.7,566.0 Z  '/></g>
<g fill="none" color="black" stroke="currentColor" stroke-width="1.00" stroke-linecap="butt" stroke-linejoin="miter">
	<g stroke='none' shape-rendering='crispEdges'>
		<polygon fill = 'rgb(230, 159,   0)' points = '213.2,566.0 219.4,566.0 219.4,546.5 213.2,546.5 '/>
	</g>
	<path stroke='rgb(  0,   0,   0)'  d='M213.2,566.0 L213.2,546.6 L219.3,546.6 L219.3,566.0 L213.2,566.0 Z  '/></g>
<g fill="none" color="black" stroke="currentColor" stroke-width="1.00" stroke-linecap="butt" stroke-linejoin="miter">
	<g stroke='none' shape-rendering='crispEdges'>
		<polygon fill = 'rgb(230, 159,   0)' points = '255.8,566.0 262.0,566.0 262.0,546.5 255.8,546.5 '/>
	</g>
	<path stroke='rgb(  0,   0,   0)'  d='M255.8,566.0 L255.8,546.6 L261.9,546.6 L261.9,566.0 L255.8,566.0 Z  '/></g>
<g fill="none" color="black" stroke="currentColor" stroke-width="1.00" stroke-linecap="butt" stroke-linejoin="miter">
</g>
	</g>
	<g id="gnuplot_plot_5" ><title>gnuplot_plot_5</title>
<g fill="none" color="black" stroke="currentColor" stroke-width="1.00" stroke-linecap="butt" stroke-linejoin="miter">
	<g stroke='none' shape-rendering='crispEdges'>
		<polygon fill = 'rgb(240, 228,  66)' points = '134.2,566.0 140.4,566.0 140.4,428.5 134.2,428.5 '/>
	</g>
	<path stroke='rgb(  0,   0,   0)'  d='M134.2,566.0 L134.2,428.6 L140.3,428.6 L140.3,566.0 L134.2,566.0 Z  '/></g>
<g fill="none" color="black" stroke="currentColor" stroke-width="1.00" stroke-linecap="butt" stroke-linejoin="miter">
	<g stroke='none' shape-rendering='crispEdges'>
		<polygon fill = 'rgb(240, 228,  66)' points = '176.7,566.0 182.9,566.0 182.9,443.9 176.7,443.9 '/>
	</g>
	<path stroke='rgb(  0,   0,   0)'  d='M176.7,566.0 L176.7,444.0 L182.8,444.0 L182.8,566.0 L176.7,566.0 Z  '/></g>
<g fill="none" color="black" stroke="currentColor" stroke-width="1.00" stroke-linecap="butt" stroke-linejoin="miter">
	<g stroke='none' shape-rendering='crispEdges'>
		<polygon fill = 'rgb(240, 228,  66)' points = '219.3,566.0 225.5,566.0 225.5,516.9 219.3,516.9 '/>
	</g>
	<path stroke='rgb(  0,   0,   0)'  d='M219.3,566.0 L219.3,517.0 L225.4,517.0 L225.4,566.0 L219.3,566.0 Z  '/></g>
<g fill="none" color="black" stroke="currentColor" stroke-width="1.00" stroke-linecap="butt" stroke-linejoin="miter">
	<g stroke='none' shape-rendering='crispEdges'>
		<polygon fill = 'rgb(240, 228,  66)' points = '261.9,566.0 268.0,566.0 268.0,516.9 261.9,516.9 '/>
	</g>
	<path stroke='rgb(  0,   0,   0)'  d='M261.9,566.0 L261.9,517.0 L267.9,517.0 L267.9,566.0 L261.9,566.0 Z  '/></g>
<g fill="none" color="black" stroke="currentColor" stroke-width="1.00" stroke-linecap="butt" stroke-linejoin="miter">
</g>
	</g>
<g fill="none" color="white" stroke="rgb(240, 228,  66)" stroke-width="2.00" stroke-linecap="butt" stroke-linejoin="miter">
</g>
<g fill="none" color="black" stroke="currentColor" stroke-width="2.00" stroke-linecap="butt" stroke-linejoin="miter">
</g>
<g fill="none" color="black" stroke="black" stroke-width="1.00" stroke-linecap="butt" stroke-linejoin="miter">
</g>
<g fill="none" color="black" stroke="currentColor" stroke-width="1.00" stroke-linecap="butt" stroke-linejoin="miter">
	<path stroke='black'  d='M82.5,19.6 L82.5,566.0 L295.3,566.0 L295.3,19.6 L82.5,19.6 Z  '/></g>
<g fill="none" color="black" stroke="currentColor" stroke-width="1.00" stroke-linecap="butt" stroke-linejoin="miter">
</g>
</g>
</svg>

