solution_id,speed_text_min,speed_text_max,speed_text_mean,speed_rodata_min,speed_rodata_max,speed_rodata_mean,speed_data_min,speed_data_max,speed_data_mean,speed_stack_min,speed_stack_max,speed_stack_mean,size_text_min,size_text_max,size_text_mean,size_rodata_min,size_rodata_max,size_rodata_mean,size_data_min,size_data_max,size_data_mean,size_stack_min,size_stack_max,size_stack_mean
fixed_function,941.25,1446.25,1248.25,8.0,1601.0,455.84375,28.0,32.0,31.2,362.0,598.0,503.6,933.25,1475.5,1265.15,8.0,1601.0,541.125,28.0,32.0,31.2,368.0,584.0,501.8
function_ptr,270.75,746.75,558.65,8.0,601.0,205.84375,12.0,12.0,12.0,47.875,250.0,201.175,269.75,651.25,490.65,8.0,601.0,207.79166666666666,12.0,12.0,12.0,47.875,252.0,199.775
function_template,624.75,3653.25,1664.4,8.0,1601.0,455.84375,28.0,32.0,31.2,192.0,410.0,353.7,691.5,1167.5,1015.6,8.0,1601.0,541.125,28.0,32.0,31.2,192.0,410.0,353.5
function_template_copy,636.75,3653.25,1615.0,8.0,1601.0,455.84375,28.0,32.0,31.2,268.0,484.0,399.7,713.0,1146.5,979.15,8.0,1601.0,541.125,28.0,32.0,31.2,280.0,482.0,400.3
std_function,1842.75,6653.0,3290.5,8.0,1853.0,569.34375,36.0,57.0,46.5,272.0,514.0,386.25,1747.0,7614.5,3391.4375,8.0,1853.0,531.84375,36.0,57.0,46.5,383.0,533.0,421.0
virtual_function,325.75,714.75,536.35,24.0,425.0,138.675,8.0,8.0,8.0,39.75,256.0,203.15,240.75,615.25,451.25,24.0,425.0,108.675,8.0,8.0,8.0,62.75,260.0,208.75
virtual_function_no_rtti,325.75,714.75,536.35,24.0,425.0,138.675,8.0,8.0,8.0,48.75,256.0,204.95,240.75,615.25,451.25,24.0,425.0,108.675,8.0,8.0,8.0,55.75,260.0,207.35
