/c/BA/Research/template/tmp/01_error-handling-and-reporting/03_throw-exception_write-to-global_catch-base-type/STM32F446-ARMClang-size/tmp/build


SERIAL=0676FF535156827867092859 /mingw64/bin/openocd -c "tcl_port disabled" -s /usr/share/openocd/scripts -f /c/BA/Research/template/tmp/01_error-handling-and-reporting/03_throw-exception_write-to-global_catch-base-type/STM32F446-Clang-size/sources/flash/openocd/STM32F4xx/openocd.cfg -c init -c "program template.elf"  -c "reset init"



eh_globals:

p/x *((char*)0x20000080)@20

_US_VIRTUAL_UNWIND_FRAME  = 0; 
_US_UNWIND_FRAME_STARTING = 1;
_US_UNWIND_FRAME_RESUME   = 2;

_URC_OK = 0,
_URC_FOREIGN_EXCEPTION_CAUGHT = 1,  
_URC_FATAL_PHASE1_ERROR = 3,  
_URC_HANDLER_FOUND = 6,   
_URC_INSTALL_CONTEXT = 7,   
_URC_CONTINUE_UNWIND = 8,    
_URC_FAILURE = 9  

unwind_phase2:

cursor (Cursor*)context;
cursor.getInfo(&frameInfo)
start_ip = frameInfo.start_ip

von _Unwind_RaiseException:
p/x *(void**)(0x20000508+0x158)
_Unwind_Exception*: 0x20000690
p (char[8])*0x20000690

von _Unwind_Resume (caller7):
p/x *(void**)(0x20000550+0x158)
_Unwind_Exception*: 0x20000360

ex.unwindHeader.exception_class:
p *((char*)0x20000360)@8
p (char[8])*0x20000360
p/x (char[8])*0x20000360


0x8001a60: _Unwind_RaiseException
0x8001ad8: _Unwind_Resume
0x8003dd8: __cxa_throw
0x8001ae8: callee
0x8001fd0: caller7
0x8001fac: caller6
0x8002098: SadPath

0x8003eea: __gxx_personality_v0
0x8002180: scan_eh_tab
0x8002110: isOurExceptionClass
  p (char[8])*$r0

native_exception = false
case _US_UNWIND_FRAME_STARTING
  -> reached-eh-barrier: false
  -> scan_eh_tab(&result):
    -> result.reason = 0x6 (_URC_HANDLER_FOUND)
    -> __cxa_begin_cleanup()
      -> terminate (wg. native_exception==false??)



Bad: {0xef, 0x36, 0x0, 0x8, 0x1, 0x0, 0x0, 0x0}
Good: {0x0, 0x2b, 0x2b, 0x43, 0x47, 0x4e, 0x4c, 0x43}
       "\000++CGNLC" -> "CLNGC++00\0"
p (char[8])*($r4 + 40)

__cxa_throw
  -> setOutExceptionClass(): checked, ok
  -> _Unwind_RaiseException
    -> unwind_phase1 (inlined)
      -> frameInfo at sp+#728
      -> frameInfo.handler at frameInfo+12
      -> personality
        -> isOurExceptionClass(): all ok

    -> break in unwind_phase1 on call to personality with frame of SadPath:
      b *0x08001aa2 if (*(void**)($r2+0x158) == SadPath)
     
      -> isOurExceptionClass: ok
      -> _US_VIRTUAL_UNWIND_FRAME
        -> !is_force_unwinding
        -> check, exception ok
        -> scan_eh_tab(&result): 
           ^^^^^^----- issue in that call -----^^^^
           
        b *0x08003f2a if (*(void**)($r5+0x158) == SadPath)
          result at sp+52
          result.reason at resut+4 ??? no?
          -> getRegionStart(): 0x8002098 (SadPath)
          -> lpStart == 0; at sp+28
            -> lpStart = SadPath
          -> ttypeEncoding == 0
          -> callSiteTableLength =
          -> callSiteTableStart =
          -> callSiteTableEnd = 
          -> actionTableStart =
          -> callSitePtr =
          loop at +252 (ipOffset == r9):
            -> start = $r8 = 10
            -> length = $10 = 6
            -> landingPad = $r3 = 20
            -> actionEntry = $r2???
            -> in IP range: 
              at 0x080022d8 -> ok
            -> 0x080022e0: landingPad += lpStart
                -> 0x80020ac
                
           -> at 0x080023aa: catchType->can_catch
             -> 0x08003680 (vtbl call) __class_type_info::can_catch()
                -> __dynamic_cast() at 0x8003e32
                   -> vft call __si_class_type_info::search_below_dst() at 0x08003e6a
                      -> vft call __si_class_type_info::search_below_dst() at 0x080037e0
                          -> vft call __si_class_type_info::search_below_dst() at 0x080037e0
                             BROKEN AT CALL OF: (stmdb) ^^^^^^
                             STACK FICKT HEAP :)
                             -> vft call __si_class_type_info::search_above_dst()at 0x080036ee
                      
                -> broken
               -> __si_class_type_info::has_unambiguous_public_base
              
          -> result.reason == 0x6 (_URC_HANDLER_FOUND)
          -> exception broken!
      
    
    -> exception broken (Bad Value)
    -> unwind_phase2
      -> exception broken (Bad Value)
      -> personality(frameOfCaller7)
        -> exception broken (Bad Value)

si
p/x (char[8])*0x20000360





