<?xml version="1.0" encoding="utf-8"  standalone="no"?>
<svg 
 width="350" height="800"
 viewBox="0 0 350 800"
 xmlns="http://www.w3.org/2000/svg"
 xmlns:xlink="http://www.w3.org/1999/xlink"
>

<title>Gnuplot</title>
<desc>Produced by GNUPLOT 5.2 patchlevel 8 </desc>

<g id="gnuplot_canvas">

<rect x="0" y="0" width="350" height="800" fill="none"/>
<defs>

	<circle id='gpDot' r='0.5' stroke-width='0.5' stroke='currentColor'/>
	<path id='gpPt0' stroke-width='0.206' stroke='currentColor' d='M-1,0 h2 M0,-1 v2'/>
	<path id='gpPt1' stroke-width='0.206' stroke='currentColor' d='M-1,-1 L1,1 M1,-1 L-1,1'/>
	<path id='gpPt2' stroke-width='0.206' stroke='currentColor' d='M-1,0 L1,0 M0,-1 L0,1 M-1,-1 L1,1 M-1,1 L1,-1'/>
	<rect id='gpPt3' stroke-width='0.206' stroke='currentColor' x='-1' y='-1' width='2' height='2'/>
	<rect id='gpPt4' stroke-width='0.206' stroke='currentColor' fill='currentColor' x='-1' y='-1' width='2' height='2'/>
	<circle id='gpPt5' stroke-width='0.206' stroke='currentColor' cx='0' cy='0' r='1'/>
	<use xlink:href='#gpPt5' id='gpPt6' fill='currentColor' stroke='none'/>
	<path id='gpPt7' stroke-width='0.206' stroke='currentColor' d='M0,-1.33 L-1.33,0.67 L1.33,0.67 z'/>
	<use xlink:href='#gpPt7' id='gpPt8' fill='currentColor' stroke='none'/>
	<use xlink:href='#gpPt7' id='gpPt9' stroke='currentColor' transform='rotate(180)'/>
	<use xlink:href='#gpPt9' id='gpPt10' fill='currentColor' stroke='none'/>
	<use xlink:href='#gpPt3' id='gpPt11' stroke='currentColor' transform='rotate(45)'/>
	<use xlink:href='#gpPt11' id='gpPt12' fill='currentColor' stroke='none'/>
	<path id='gpPt13' stroke-width='0.206' stroke='currentColor' d='M0,1.330 L1.265,0.411 L0.782,-1.067 L-0.782,-1.076 L-1.265,0.411 z'/>
	<use xlink:href='#gpPt13' id='gpPt14' fill='currentColor' stroke='none'/>
	<filter id='textbox' filterUnits='objectBoundingBox' x='0' y='0' height='1' width='1'>
	  <feFlood flood-color='white' flood-opacity='1' result='bgnd'/>
	  <feComposite in='SourceGraphic' in2='bgnd' operator='atop'/>
	</filter>
	<filter id='greybox' filterUnits='objectBoundingBox' x='0' y='0' height='1' width='1'>
	  <feFlood flood-color='lightgrey' flood-opacity='1' result='grey'/>
	  <feComposite in='SourceGraphic' in2='grey' operator='atop'/>
	</filter>
</defs>
<g fill="none" color="white" stroke="black" stroke-width="1.00" stroke-linecap="butt" stroke-linejoin="miter">
</g>
<g fill="none" color="black" stroke="currentColor" stroke-width="1.00" stroke-linecap="butt" stroke-linejoin="miter">
</g>
<g fill="none" color="black" stroke="currentColor" stroke-width="1.00" stroke-linecap="butt" stroke-linejoin="miter">
	<path stroke='rgb(192, 192, 192)' class="gridline"  d='M82.5,566.0 L295.3,566.0  '/></g>
<g fill="none" color="black" stroke="currentColor" stroke-width="1.00" stroke-linecap="butt" stroke-linejoin="miter">
	<path stroke='black'  d='M82.5,566.0 L92.2,566.0 M295.3,566.0 L285.6,566.0  '/>	<g transform="translate(325.2,566.0) rotate(-90)" stroke="none" fill="black" font-family="arial" font-size="13.00"  text-anchor="end">
		<text> 0</text>
	</g>
</g>
<g fill="none" color="black" stroke="currentColor" stroke-width="1.00" stroke-linecap="butt" stroke-linejoin="miter">
</g>
<g fill="none" color="black" stroke="currentColor" stroke-width="1.00" stroke-linecap="butt" stroke-linejoin="miter">
	<path stroke='rgb(192, 192, 192)' class="gridline"  d='M82.5,511.4 L295.3,511.4  '/></g>
<g fill="none" color="black" stroke="currentColor" stroke-width="1.00" stroke-linecap="butt" stroke-linejoin="miter">
	<path stroke='black'  d='M82.5,511.4 L92.2,511.4 M295.3,511.4 L285.6,511.4  '/>	<g transform="translate(325.2,511.4) rotate(-90)" stroke="none" fill="black" font-family="arial" font-size="13.00"  text-anchor="end">
		<text> 100</text>
	</g>
</g>
<g fill="none" color="black" stroke="currentColor" stroke-width="1.00" stroke-linecap="butt" stroke-linejoin="miter">
</g>
<g fill="none" color="black" stroke="currentColor" stroke-width="1.00" stroke-linecap="butt" stroke-linejoin="miter">
	<path stroke='rgb(192, 192, 192)' class="gridline"  d='M82.5,456.7 L295.3,456.7  '/></g>
<g fill="none" color="black" stroke="currentColor" stroke-width="1.00" stroke-linecap="butt" stroke-linejoin="miter">
	<path stroke='black'  d='M82.5,456.7 L92.2,456.7 M295.3,456.7 L285.6,456.7  '/>	<g transform="translate(325.2,456.7) rotate(-90)" stroke="none" fill="black" font-family="arial" font-size="13.00"  text-anchor="end">
		<text> 200</text>
	</g>
</g>
<g fill="none" color="black" stroke="currentColor" stroke-width="1.00" stroke-linecap="butt" stroke-linejoin="miter">
</g>
<g fill="none" color="black" stroke="currentColor" stroke-width="1.00" stroke-linecap="butt" stroke-linejoin="miter">
	<path stroke='rgb(192, 192, 192)' class="gridline"  d='M82.5,402.1 L295.3,402.1  '/></g>
<g fill="none" color="black" stroke="currentColor" stroke-width="1.00" stroke-linecap="butt" stroke-linejoin="miter">
	<path stroke='black'  d='M82.5,402.1 L92.2,402.1 M295.3,402.1 L285.6,402.1  '/>	<g transform="translate(325.2,402.1) rotate(-90)" stroke="none" fill="black" font-family="arial" font-size="13.00"  text-anchor="end">
		<text> 300</text>
	</g>
</g>
<g fill="none" color="black" stroke="currentColor" stroke-width="1.00" stroke-linecap="butt" stroke-linejoin="miter">
</g>
<g fill="none" color="black" stroke="currentColor" stroke-width="1.00" stroke-linecap="butt" stroke-linejoin="miter">
	<path stroke='rgb(192, 192, 192)' class="gridline"  d='M82.5,347.4 L295.3,347.4  '/></g>
<g fill="none" color="black" stroke="currentColor" stroke-width="1.00" stroke-linecap="butt" stroke-linejoin="miter">
	<path stroke='black'  d='M82.5,347.4 L92.2,347.4 M295.3,347.4 L285.6,347.4  '/>	<g transform="translate(325.2,347.4) rotate(-90)" stroke="none" fill="black" font-family="arial" font-size="13.00"  text-anchor="end">
		<text> 400</text>
	</g>
</g>
<g fill="none" color="black" stroke="currentColor" stroke-width="1.00" stroke-linecap="butt" stroke-linejoin="miter">
</g>
<g fill="none" color="black" stroke="currentColor" stroke-width="1.00" stroke-linecap="butt" stroke-linejoin="miter">
	<path stroke='rgb(192, 192, 192)' class="gridline"  d='M82.5,292.8 L295.3,292.8  '/></g>
<g fill="none" color="black" stroke="currentColor" stroke-width="1.00" stroke-linecap="butt" stroke-linejoin="miter">
	<path stroke='black'  d='M82.5,292.8 L92.2,292.8 M295.3,292.8 L285.6,292.8  '/>	<g transform="translate(325.2,292.8) rotate(-90)" stroke="none" fill="black" font-family="arial" font-size="13.00"  text-anchor="end">
		<text> 500</text>
	</g>
</g>
<g fill="none" color="black" stroke="currentColor" stroke-width="1.00" stroke-linecap="butt" stroke-linejoin="miter">
</g>
<g fill="none" color="black" stroke="currentColor" stroke-width="1.00" stroke-linecap="butt" stroke-linejoin="miter">
	<path stroke='rgb(192, 192, 192)' class="gridline"  d='M82.5,238.2 L295.3,238.2  '/></g>
<g fill="none" color="black" stroke="currentColor" stroke-width="1.00" stroke-linecap="butt" stroke-linejoin="miter">
	<path stroke='black'  d='M82.5,238.2 L92.2,238.2 M295.3,238.2 L285.6,238.2  '/>	<g transform="translate(325.2,238.2) rotate(-90)" stroke="none" fill="black" font-family="arial" font-size="13.00"  text-anchor="end">
		<text> 600</text>
	</g>
</g>
<g fill="none" color="black" stroke="currentColor" stroke-width="1.00" stroke-linecap="butt" stroke-linejoin="miter">
</g>
<g fill="none" color="black" stroke="currentColor" stroke-width="1.00" stroke-linecap="butt" stroke-linejoin="miter">
	<path stroke='rgb(192, 192, 192)' class="gridline"  d='M82.5,183.5 L295.3,183.5  '/></g>
<g fill="none" color="black" stroke="currentColor" stroke-width="1.00" stroke-linecap="butt" stroke-linejoin="miter">
	<path stroke='black'  d='M82.5,183.5 L92.2,183.5 M295.3,183.5 L285.6,183.5  '/>	<g transform="translate(325.2,183.5) rotate(-90)" stroke="none" fill="black" font-family="arial" font-size="13.00"  text-anchor="end">
		<text> 700</text>
	</g>
</g>
<g fill="none" color="black" stroke="currentColor" stroke-width="1.00" stroke-linecap="butt" stroke-linejoin="miter">
</g>
<g fill="none" color="black" stroke="currentColor" stroke-width="1.00" stroke-linecap="butt" stroke-linejoin="miter">
	<path stroke='rgb(192, 192, 192)' class="gridline"  d='M82.5,128.9 L295.3,128.9  '/></g>
<g fill="none" color="black" stroke="currentColor" stroke-width="1.00" stroke-linecap="butt" stroke-linejoin="miter">
	<path stroke='black'  d='M82.5,128.9 L92.2,128.9 M295.3,128.9 L285.6,128.9  '/>	<g transform="translate(325.2,128.9) rotate(-90)" stroke="none" fill="black" font-family="arial" font-size="13.00"  text-anchor="end">
		<text> 800</text>
	</g>
</g>
<g fill="none" color="black" stroke="currentColor" stroke-width="1.00" stroke-linecap="butt" stroke-linejoin="miter">
</g>
<g fill="none" color="black" stroke="currentColor" stroke-width="1.00" stroke-linecap="butt" stroke-linejoin="miter">
	<path stroke='rgb(192, 192, 192)' class="gridline"  d='M82.5,74.2 L295.3,74.2  '/></g>
<g fill="none" color="black" stroke="currentColor" stroke-width="1.00" stroke-linecap="butt" stroke-linejoin="miter">
	<path stroke='black'  d='M82.5,74.2 L92.2,74.2 M295.3,74.2 L285.6,74.2  '/>	<g transform="translate(325.2,74.2) rotate(-90)" stroke="none" fill="black" font-family="arial" font-size="13.00"  text-anchor="end">
		<text> 900</text>
	</g>
</g>
<g fill="none" color="black" stroke="currentColor" stroke-width="1.00" stroke-linecap="butt" stroke-linejoin="miter">
</g>
<g fill="none" color="black" stroke="currentColor" stroke-width="1.00" stroke-linecap="butt" stroke-linejoin="miter">
	<path stroke='rgb(192, 192, 192)' class="gridline"  d='M82.5,19.6 L295.3,19.6  '/></g>
<g fill="none" color="black" stroke="currentColor" stroke-width="1.00" stroke-linecap="butt" stroke-linejoin="miter">
	<path stroke='black'  d='M82.5,19.6 L92.2,19.6 M295.3,19.6 L285.6,19.6  '/>	<g transform="translate(325.2,19.6) rotate(-90)" stroke="none" fill="black" font-family="arial" font-size="13.00"  text-anchor="end">
		<text> 1000</text>
	</g>
</g>
<g fill="none" color="black" stroke="currentColor" stroke-width="1.00" stroke-linecap="butt" stroke-linejoin="miter">
	<path stroke='black'  d='M101.8,566.0 M101.8,19.6  '/>	<g transform="translate(106.0,575.1) rotate(-90)" stroke="none" fill="black" font-family="arial" font-size="13.00"  text-anchor="end">
		<text>throw_exception_catch_all</text>
	</g>
</g>
<g fill="none" color="black" stroke="currentColor" stroke-width="1.00" stroke-linecap="butt" stroke-linejoin="miter">
	<path stroke='black'  d='M121.2,566.0 M121.2,19.6  '/>	<g transform="translate(125.4,575.1) rotate(-90)" stroke="none" fill="black" font-family="arial" font-size="13.00"  text-anchor="end">
		<text>throw_exception_catch_concrete_type</text>
	</g>
</g>
<g fill="none" color="black" stroke="currentColor" stroke-width="1.00" stroke-linecap="butt" stroke-linejoin="miter">
	<path stroke='black'  d='M140.5,566.0 M140.5,19.6  '/>	<g transform="translate(144.7,575.1) rotate(-90)" stroke="none" fill="black" font-family="arial" font-size="13.00"  text-anchor="end">
		<text>throw_exception_catch_base_type</text>
	</g>
</g>
<g fill="none" color="black" stroke="currentColor" stroke-width="1.00" stroke-linecap="butt" stroke-linejoin="miter">
	<path stroke='black'  d='M159.9,566.0 M159.9,19.6  '/>	<g transform="translate(164.1,575.1) rotate(-90)" stroke="none" fill="black" font-family="arial" font-size="13.00"  text-anchor="end">
		<text>throw_exception_handler_chain</text>
	</g>
</g>
<g fill="none" color="black" stroke="currentColor" stroke-width="1.00" stroke-linecap="butt" stroke-linejoin="miter">
	<path stroke='black'  d='M179.2,566.0 M179.2,19.6  '/>	<g transform="translate(183.4,575.1) rotate(-90)" stroke="none" fill="black" font-family="arial" font-size="13.00"  text-anchor="end">
		<text>error_return_code</text>
	</g>
</g>
<g fill="none" color="black" stroke="currentColor" stroke-width="1.00" stroke-linecap="butt" stroke-linejoin="miter">
	<path stroke='black'  d='M198.6,566.0 M198.6,19.6  '/>	<g transform="translate(202.8,575.1) rotate(-90)" stroke="none" fill="black" font-family="arial" font-size="13.00"  text-anchor="end">
		<text>ref_struct</text>
	</g>
</g>
<g fill="none" color="black" stroke="currentColor" stroke-width="1.00" stroke-linecap="butt" stroke-linejoin="miter">
	<path stroke='black'  d='M217.9,566.0 M217.9,19.6  '/>	<g transform="translate(222.1,575.1) rotate(-90)" stroke="none" fill="black" font-family="arial" font-size="13.00"  text-anchor="end">
		<text>return_struct</text>
	</g>
</g>
<g fill="none" color="black" stroke="currentColor" stroke-width="1.00" stroke-linecap="butt" stroke-linejoin="miter">
	<path stroke='black'  d='M237.3,566.0 M237.3,19.6  '/>	<g transform="translate(241.5,575.1) rotate(-90)" stroke="none" fill="black" font-family="arial" font-size="13.00"  text-anchor="end">
		<text>ref_nt_struct</text>
	</g>
</g>
<g fill="none" color="black" stroke="currentColor" stroke-width="1.00" stroke-linecap="butt" stroke-linejoin="miter">
	<path stroke='black'  d='M256.6,566.0 M256.6,19.6  '/>	<g transform="translate(260.8,575.1) rotate(-90)" stroke="none" fill="black" font-family="arial" font-size="13.00"  text-anchor="end">
		<text>errno</text>
	</g>
</g>
<g fill="none" color="black" stroke="currentColor" stroke-width="1.00" stroke-linecap="butt" stroke-linejoin="miter">
	<path stroke='black'  d='M276.0,566.0 M276.0,19.6  '/>	<g transform="translate(280.2,575.1) rotate(-90)" stroke="none" fill="black" font-family="arial" font-size="13.00"  text-anchor="end">
		<text>sjlj</text>
	</g>
</g>
<g fill="none" color="black" stroke="currentColor" stroke-width="1.00" stroke-linecap="butt" stroke-linejoin="miter">
</g>
<g fill="none" color="black" stroke="currentColor" stroke-width="1.00" stroke-linecap="butt" stroke-linejoin="miter">
	<path stroke='black'  d='M82.5,19.6 L82.5,566.0 L295.3,566.0 L295.3,19.6 L82.5,19.6 Z  '/></g>
<g fill="none" color="black" stroke="currentColor" stroke-width="1.00" stroke-linecap="butt" stroke-linejoin="miter">
	<g stroke='none' shape-rendering='crispEdges'>
		<polygon fill = 'rgb(255, 255, 255)' points = '220.8,167.1 284.7,167.1 284.7,30.5 220.8,30.5 '/>
	</g>
</g>
<g fill="none" color="black" stroke="currentColor" stroke-width="1.00" stroke-linecap="butt" stroke-linejoin="miter">
	<g stroke='none' shape-rendering='crispEdges'>
		<polygon fill = 'rgb(148,   0, 211)' points = '229.3,101.6 233.6,101.6 233.6,41.5 229.3,41.5 '/>
	</g>
	<path stroke='black'  d='M229.3,101.6 L229.3,41.5 L233.6,41.5 L233.6,101.6 L229.3,101.6 Z  '/></g>
<g fill="none" color="black" stroke="currentColor" stroke-width="1.00" stroke-linecap="butt" stroke-linejoin="miter">
	<g stroke='none' shape-rendering='crispEdges'>
		<polygon fill = 'rgb(  0, 158, 115)' points = '240.0,101.6 244.2,101.6 244.2,41.5 240.0,41.5 '/>
	</g>
	<path stroke='black'  d='M240.0,101.6 L240.0,41.5 L244.2,41.5 L244.2,101.6 L240.0,101.6 Z  '/></g>
<g fill="none" color="black" stroke="currentColor" stroke-width="1.00" stroke-linecap="butt" stroke-linejoin="miter">
	<g stroke='none' shape-rendering='crispEdges'>
		<polygon fill = 'rgb( 86, 180, 233)' points = '250.6,101.6 254.9,101.6 254.9,41.5 250.6,41.5 '/>
	</g>
	<path stroke='black'  d='M250.6,101.6 L250.6,41.5 L254.9,41.5 L254.9,101.6 L250.6,101.6 Z  '/></g>
<g fill="none" color="black" stroke="currentColor" stroke-width="1.00" stroke-linecap="butt" stroke-linejoin="miter">
	<g stroke='none' shape-rendering='crispEdges'>
		<polygon fill = 'rgb(230, 159,   0)' points = '261.3,101.6 265.5,101.6 265.5,41.5 261.3,41.5 '/>
	</g>
	<path stroke='black'  d='M261.3,101.6 L261.3,41.5 L265.5,41.5 L265.5,101.6 L261.3,101.6 Z  '/></g>
<g fill="none" color="black" stroke="currentColor" stroke-width="1.00" stroke-linecap="butt" stroke-linejoin="miter">
	<g stroke='none' shape-rendering='crispEdges'>
		<polygon fill = 'rgb(240, 228,  66)' points = '271.9,101.6 276.1,101.6 276.1,41.5 271.9,41.5 '/>
	</g>
	<path stroke='black'  d='M271.9,101.6 L271.9,41.5 L276.1,41.5 L276.1,101.6 L271.9,101.6 Z  '/>	<g transform="translate(235.7,112.5) rotate(-90)" stroke="none" fill="black" font-family="arial" font-size="13.00"  text-anchor="end">
		<text>ARMClang</text>
	</g>
	<g transform="translate(246.3,112.5) rotate(-90)" stroke="none" fill="black" font-family="arial" font-size="13.00"  text-anchor="end">
		<text>ARMCC</text>
	</g>
	<g transform="translate(256.9,112.5) rotate(-90)" stroke="none" fill="black" font-family="arial" font-size="13.00"  text-anchor="end">
		<text>GNU</text>
	</g>
	<g transform="translate(267.6,112.5) rotate(-90)" stroke="none" fill="black" font-family="arial" font-size="13.00"  text-anchor="end">
		<text>Clang</text>
	</g>
	<g transform="translate(278.2,112.5) rotate(-90)" stroke="none" fill="black" font-family="arial" font-size="13.00"  text-anchor="end">
		<text>IAR</text>
	</g>
</g>
<g fill="none" color="black" stroke="currentColor" stroke-width="1.00" stroke-linecap="butt" stroke-linejoin="miter">
	<g transform="translate(348.3,195.3) rotate(-90)" stroke="none" fill="black" font-family="arial" font-size="13.00"  text-anchor="end">
		<text>Cycles pro Iteration (normalisiert)</text>
	</g>
</g>
<g fill="none" color="black" stroke="currentColor" stroke-width="1.00" stroke-linecap="butt" stroke-linejoin="miter">
</g>
	<g id="gnuplot_plot_1" ><title>gnuplot_plot_1</title>
<g fill="none" color="black" stroke="currentColor" stroke-width="1.00" stroke-linecap="butt" stroke-linejoin="miter">
	<g stroke='none' shape-rendering='crispEdges'>
		<polygon fill = 'rgb(148,   0, 211)' points = '94.9,566.0 97.8,566.0 97.8,60.9 94.9,60.9 '/>
	</g>
	<path stroke='rgb(  0,   0,   0)'  d='M94.9,566.0 L94.9,61.0 L97.7,61.0 L97.7,566.0 L94.9,566.0 Z  '/></g>
<g fill="none" color="black" stroke="currentColor" stroke-width="1.00" stroke-linecap="butt" stroke-linejoin="miter">
	<g stroke='none' shape-rendering='crispEdges'>
		<polygon fill = 'rgb(148,   0, 211)' points = '114.3,566.0 117.1,566.0 117.1,60.8 114.3,60.8 '/>
	</g>
	<path stroke='rgb(  0,   0,   0)'  d='M114.3,566.0 L114.3,60.9 L117.0,60.9 L117.0,566.0 L114.3,566.0 Z  '/></g>
<g fill="none" color="black" stroke="currentColor" stroke-width="1.00" stroke-linecap="butt" stroke-linejoin="miter">
	<g stroke='none' shape-rendering='crispEdges'>
		<polygon fill = 'rgb(148,   0, 211)' points = '133.6,566.0 136.5,566.0 136.5,57.3 133.6,57.3 '/>
	</g>
	<path stroke='rgb(  0,   0,   0)'  d='M133.6,566.0 L133.6,57.4 L136.4,57.4 L136.4,566.0 L133.6,566.0 Z  '/></g>
<g fill="none" color="black" stroke="currentColor" stroke-width="1.00" stroke-linecap="butt" stroke-linejoin="miter">
	<g stroke='none' shape-rendering='crispEdges'>
		<polygon fill = 'rgb(148,   0, 211)' points = '153.0,566.0 155.8,566.0 155.8,39.1 153.0,39.1 '/>
	</g>
	<path stroke='rgb(  0,   0,   0)'  d='M153.0,566.0 L153.0,39.2 L155.7,39.2 L155.7,566.0 L153.0,566.0 Z  '/></g>
<g fill="none" color="black" stroke="currentColor" stroke-width="1.00" stroke-linecap="butt" stroke-linejoin="miter">
	<g stroke='none' shape-rendering='crispEdges'>
		<polygon fill = 'rgb(148,   0, 211)' points = '172.3,566.0 175.2,566.0 175.2,564.6 172.3,564.6 '/>
	</g>
	<path stroke='rgb(  0,   0,   0)'  d='M172.3,566.0 L172.3,564.7 L175.1,564.7 L175.1,566.0 L172.3,566.0 Z  '/></g>
<g fill="none" color="black" stroke="currentColor" stroke-width="1.00" stroke-linecap="butt" stroke-linejoin="miter">
	<g stroke='none' shape-rendering='crispEdges'>
		<polygon fill = 'rgb(148,   0, 211)' points = '191.7,566.0 194.5,566.0 194.5,564.7 191.7,564.7 '/>
	</g>
	<path stroke='rgb(  0,   0,   0)'  d='M191.7,566.0 L191.7,564.8 L194.4,564.8 L194.4,566.0 L191.7,566.0 Z  '/></g>
<g fill="none" color="black" stroke="currentColor" stroke-width="1.00" stroke-linecap="butt" stroke-linejoin="miter">
	<g stroke='none' shape-rendering='crispEdges'>
		<polygon fill = 'rgb(148,   0, 211)' points = '211.0,566.0 213.9,566.0 213.9,564.7 211.0,564.7 '/>
	</g>
	<path stroke='rgb(  0,   0,   0)'  d='M211.0,566.0 L211.0,564.8 L213.8,564.8 L213.8,566.0 L211.0,566.0 Z  '/></g>
<g fill="none" color="black" stroke="currentColor" stroke-width="1.00" stroke-linecap="butt" stroke-linejoin="miter">
	<g stroke='none' shape-rendering='crispEdges'>
		<polygon fill = 'rgb(148,   0, 211)' points = '230.4,566.0 233.2,566.0 233.2,564.7 230.4,564.7 '/>
	</g>
	<path stroke='rgb(  0,   0,   0)'  d='M230.4,566.0 L230.4,564.8 L233.1,564.8 L233.1,566.0 L230.4,566.0 Z  '/></g>
<g fill="none" color="black" stroke="currentColor" stroke-width="1.00" stroke-linecap="butt" stroke-linejoin="miter">
	<g stroke='none' shape-rendering='crispEdges'>
		<polygon fill = 'rgb(148,   0, 211)' points = '249.7,566.0 252.6,566.0 252.6,564.5 249.7,564.5 '/>
	</g>
	<path stroke='rgb(  0,   0,   0)'  d='M249.7,566.0 L249.7,564.6 L252.5,564.6 L252.5,566.0 L249.7,566.0 Z  '/></g>
<g fill="none" color="black" stroke="currentColor" stroke-width="1.00" stroke-linecap="butt" stroke-linejoin="miter">
	<g stroke='none' shape-rendering='crispEdges'>
		<polygon fill = 'rgb(148,   0, 211)' points = '269.0,566.0 271.9,566.0 271.9,565.2 269.0,565.2 '/>
	</g>
	<path stroke='rgb(  0,   0,   0)'  d='M269.0,566.0 L269.0,565.3 L271.8,565.3 L271.8,566.0 L269.0,566.0 Z  '/></g>
<g fill="none" color="black" stroke="currentColor" stroke-width="1.00" stroke-linecap="butt" stroke-linejoin="miter">
</g>
	</g>
	<g id="gnuplot_plot_2" ><title>gnuplot_plot_2</title>
<g fill="none" color="black" stroke="currentColor" stroke-width="1.00" stroke-linecap="butt" stroke-linejoin="miter">
	<g stroke='none' shape-rendering='crispEdges'>
		<polygon fill = 'rgb(  0, 158, 115)' points = '97.7,566.0 100.6,566.0 100.6,428.9 97.7,428.9 '/>
	</g>
	<path stroke='rgb(  0,   0,   0)'  d='M97.7,566.0 L97.7,429.0 L100.5,429.0 L100.5,566.0 L97.7,566.0 Z  '/></g>
<g fill="none" color="black" stroke="currentColor" stroke-width="1.00" stroke-linecap="butt" stroke-linejoin="miter">
	<g stroke='none' shape-rendering='crispEdges'>
		<polygon fill = 'rgb(  0, 158, 115)' points = '117.0,566.0 119.9,566.0 119.9,428.1 117.0,428.1 '/>
	</g>
	<path stroke='rgb(  0,   0,   0)'  d='M117.0,566.0 L117.0,428.2 L119.8,428.2 L119.8,566.0 L117.0,566.0 Z  '/></g>
<g fill="none" color="black" stroke="currentColor" stroke-width="1.00" stroke-linecap="butt" stroke-linejoin="miter">
	<g stroke='none' shape-rendering='crispEdges'>
		<polygon fill = 'rgb(  0, 158, 115)' points = '136.4,566.0 139.3,566.0 139.3,425.3 136.4,425.3 '/>
	</g>
	<path stroke='rgb(  0,   0,   0)'  d='M136.4,566.0 L136.4,425.4 L139.2,425.4 L139.2,566.0 L136.4,566.0 Z  '/></g>
<g fill="none" color="black" stroke="currentColor" stroke-width="1.00" stroke-linecap="butt" stroke-linejoin="miter">
	<g stroke='none' shape-rendering='crispEdges'>
		<polygon fill = 'rgb(  0, 158, 115)' points = '155.7,566.0 158.6,566.0 158.6,394.3 155.7,394.3 '/>
	</g>
	<path stroke='rgb(  0,   0,   0)'  d='M155.7,566.0 L155.7,394.4 L158.5,394.4 L158.5,566.0 L155.7,566.0 Z  '/></g>
<g fill="none" color="black" stroke="currentColor" stroke-width="1.00" stroke-linecap="butt" stroke-linejoin="miter">
	<g stroke='none' shape-rendering='crispEdges'>
		<polygon fill = 'rgb(  0, 158, 115)' points = '175.1,566.0 177.9,566.0 177.9,564.7 175.1,564.7 '/>
	</g>
	<path stroke='rgb(  0,   0,   0)'  d='M175.1,566.0 L175.1,564.8 L177.8,564.8 L177.8,566.0 L175.1,566.0 Z  '/></g>
<g fill="none" color="black" stroke="currentColor" stroke-width="1.00" stroke-linecap="butt" stroke-linejoin="miter">
	<g stroke='none' shape-rendering='crispEdges'>
		<polygon fill = 'rgb(  0, 158, 115)' points = '194.4,566.0 197.3,566.0 197.3,564.6 194.4,564.6 '/>
	</g>
	<path stroke='rgb(  0,   0,   0)'  d='M194.4,566.0 L194.4,564.7 L197.2,564.7 L197.2,566.0 L194.4,566.0 Z  '/></g>
<g fill="none" color="black" stroke="currentColor" stroke-width="1.00" stroke-linecap="butt" stroke-linejoin="miter">
	<g stroke='none' shape-rendering='crispEdges'>
		<polygon fill = 'rgb(  0, 158, 115)' points = '213.8,566.0 216.6,566.0 216.6,563.9 213.8,563.9 '/>
	</g>
	<path stroke='rgb(  0,   0,   0)'  d='M213.8,566.0 L213.8,564.0 L216.5,564.0 L216.5,566.0 L213.8,566.0 Z  '/></g>
<g fill="none" color="black" stroke="currentColor" stroke-width="1.00" stroke-linecap="butt" stroke-linejoin="miter">
	<g stroke='none' shape-rendering='crispEdges'>
		<polygon fill = 'rgb(  0, 158, 115)' points = '233.1,566.0 236.0,566.0 236.0,564.6 233.1,564.6 '/>
	</g>
	<path stroke='rgb(  0,   0,   0)'  d='M233.1,566.0 L233.1,564.7 L235.9,564.7 L235.9,566.0 L233.1,566.0 Z  '/></g>
<g fill="none" color="black" stroke="currentColor" stroke-width="1.00" stroke-linecap="butt" stroke-linejoin="miter">
	<g stroke='none' shape-rendering='crispEdges'>
		<polygon fill = 'rgb(  0, 158, 115)' points = '252.5,566.0 255.3,566.0 255.3,564.3 252.5,564.3 '/>
	</g>
	<path stroke='rgb(  0,   0,   0)'  d='M252.5,566.0 L252.5,564.4 L255.2,564.4 L255.2,566.0 L252.5,566.0 Z  '/></g>
<g fill="none" color="black" stroke="currentColor" stroke-width="1.00" stroke-linecap="butt" stroke-linejoin="miter">
	<g stroke='none' shape-rendering='crispEdges'>
		<polygon fill = 'rgb(  0, 158, 115)' points = '271.8,566.0 274.7,566.0 274.7,565.1 271.8,565.1 '/>
	</g>
	<path stroke='rgb(  0,   0,   0)'  d='M271.8,566.0 L271.8,565.2 L274.6,565.2 L274.6,566.0 L271.8,566.0 Z  '/></g>
<g fill="none" color="black" stroke="currentColor" stroke-width="1.00" stroke-linecap="butt" stroke-linejoin="miter">
</g>
	</g>
	<g id="gnuplot_plot_3" ><title>gnuplot_plot_3</title>
<g fill="none" color="black" stroke="currentColor" stroke-width="1.00" stroke-linecap="butt" stroke-linejoin="miter">
	<g stroke='none' shape-rendering='crispEdges'>
		<polygon fill = 'rgb( 86, 180, 233)' points = '100.5,566.0 103.3,566.0 103.3,363.3 100.5,363.3 '/>
	</g>
	<path stroke='rgb(  0,   0,   0)'  d='M100.5,566.0 L100.5,363.4 L103.2,363.4 L103.2,566.0 L100.5,566.0 Z  '/></g>
<g fill="none" color="black" stroke="currentColor" stroke-width="1.00" stroke-linecap="butt" stroke-linejoin="miter">
	<g stroke='none' shape-rendering='crispEdges'>
		<polygon fill = 'rgb( 86, 180, 233)' points = '119.8,566.0 122.7,566.0 122.7,361.7 119.8,361.7 '/>
	</g>
	<path stroke='rgb(  0,   0,   0)'  d='M119.8,566.0 L119.8,361.8 L122.6,361.8 L122.6,566.0 L119.8,566.0 Z  '/></g>
<g fill="none" color="black" stroke="currentColor" stroke-width="1.00" stroke-linecap="butt" stroke-linejoin="miter">
	<g stroke='none' shape-rendering='crispEdges'>
		<polygon fill = 'rgb( 86, 180, 233)' points = '139.2,566.0 142.0,566.0 142.0,360.3 139.2,360.3 '/>
	</g>
	<path stroke='rgb(  0,   0,   0)'  d='M139.2,566.0 L139.2,360.4 L141.9,360.4 L141.9,566.0 L139.2,566.0 Z  '/></g>
<g fill="none" color="black" stroke="currentColor" stroke-width="1.00" stroke-linecap="butt" stroke-linejoin="miter">
	<g stroke='none' shape-rendering='crispEdges'>
		<polygon fill = 'rgb( 86, 180, 233)' points = '158.5,566.0 161.4,566.0 161.4,338.9 158.5,338.9 '/>
	</g>
	<path stroke='rgb(  0,   0,   0)'  d='M158.5,566.0 L158.5,339.0 L161.3,339.0 L161.3,566.0 L158.5,566.0 Z  '/></g>
<g fill="none" color="black" stroke="currentColor" stroke-width="1.00" stroke-linecap="butt" stroke-linejoin="miter">
	<g stroke='none' shape-rendering='crispEdges'>
		<polygon fill = 'rgb( 86, 180, 233)' points = '177.8,566.0 180.7,566.0 180.7,564.6 177.8,564.6 '/>
	</g>
	<path stroke='rgb(  0,   0,   0)'  d='M177.8,566.0 L177.8,564.7 L180.6,564.7 L180.6,566.0 L177.8,566.0 Z  '/></g>
<g fill="none" color="black" stroke="currentColor" stroke-width="1.00" stroke-linecap="butt" stroke-linejoin="miter">
	<g stroke='none' shape-rendering='crispEdges'>
		<polygon fill = 'rgb( 86, 180, 233)' points = '197.2,566.0 200.1,566.0 200.1,564.6 197.2,564.6 '/>
	</g>
	<path stroke='rgb(  0,   0,   0)'  d='M197.2,566.0 L197.2,564.7 L200.0,564.7 L200.0,566.0 L197.2,566.0 Z  '/></g>
<g fill="none" color="black" stroke="currentColor" stroke-width="1.00" stroke-linecap="butt" stroke-linejoin="miter">
	<g stroke='none' shape-rendering='crispEdges'>
		<polygon fill = 'rgb( 86, 180, 233)' points = '216.5,566.0 219.4,566.0 219.4,564.3 216.5,564.3 '/>
	</g>
	<path stroke='rgb(  0,   0,   0)'  d='M216.5,566.0 L216.5,564.4 L219.3,564.4 L219.3,566.0 L216.5,566.0 Z  '/></g>
<g fill="none" color="black" stroke="currentColor" stroke-width="1.00" stroke-linecap="butt" stroke-linejoin="miter">
	<g stroke='none' shape-rendering='crispEdges'>
		<polygon fill = 'rgb( 86, 180, 233)' points = '235.9,566.0 238.7,566.0 238.7,564.4 235.9,564.4 '/>
	</g>
	<path stroke='rgb(  0,   0,   0)'  d='M235.9,566.0 L235.9,564.5 L238.6,564.5 L238.6,566.0 L235.9,566.0 Z  '/></g>
<g fill="none" color="black" stroke="currentColor" stroke-width="1.00" stroke-linecap="butt" stroke-linejoin="miter">
	<g stroke='none' shape-rendering='crispEdges'>
		<polygon fill = 'rgb( 86, 180, 233)' points = '255.2,566.0 258.1,566.0 258.1,564.2 255.2,564.2 '/>
	</g>
	<path stroke='rgb(  0,   0,   0)'  d='M255.2,566.0 L255.2,564.3 L258.0,564.3 L258.0,566.0 L255.2,566.0 Z  '/></g>
<g fill="none" color="black" stroke="currentColor" stroke-width="1.00" stroke-linecap="butt" stroke-linejoin="miter">
	<g stroke='none' shape-rendering='crispEdges'>
		<polygon fill = 'rgb( 86, 180, 233)' points = '274.6,566.0 277.4,566.0 277.4,565.3 274.6,565.3 '/>
	</g>
	<path stroke='rgb(  0,   0,   0)'  d='M274.6,566.0 L274.6,565.4 L277.3,565.4 L277.3,566.0 L274.6,566.0 Z  '/></g>
<g fill="none" color="black" stroke="currentColor" stroke-width="1.00" stroke-linecap="butt" stroke-linejoin="miter">
</g>
	</g>
	<g id="gnuplot_plot_4" ><title>gnuplot_plot_4</title>
<g fill="none" color="black" stroke="currentColor" stroke-width="1.00" stroke-linecap="butt" stroke-linejoin="miter">
	<g stroke='none' shape-rendering='crispEdges'>
		<polygon fill = 'rgb(230, 159,   0)' points = '103.2,566.0 106.1,566.0 106.1,359.0 103.2,359.0 '/>
	</g>
	<path stroke='rgb(  0,   0,   0)'  d='M103.2,566.0 L103.2,359.1 L106.0,359.1 L106.0,566.0 L103.2,566.0 Z  '/></g>
<g fill="none" color="black" stroke="currentColor" stroke-width="1.00" stroke-linecap="butt" stroke-linejoin="miter">
	<g stroke='none' shape-rendering='crispEdges'>
		<polygon fill = 'rgb(230, 159,   0)' points = '122.6,566.0 125.4,566.0 125.4,357.3 122.6,357.3 '/>
	</g>
	<path stroke='rgb(  0,   0,   0)'  d='M122.6,566.0 L122.6,357.4 L125.3,357.4 L125.3,566.0 L122.6,566.0 Z  '/></g>
<g fill="none" color="black" stroke="currentColor" stroke-width="1.00" stroke-linecap="butt" stroke-linejoin="miter">
	<g stroke='none' shape-rendering='crispEdges'>
		<polygon fill = 'rgb(230, 159,   0)' points = '141.9,566.0 144.8,566.0 144.8,356.8 141.9,356.8 '/>
	</g>
	<path stroke='rgb(  0,   0,   0)'  d='M141.9,566.0 L141.9,356.9 L144.7,356.9 L144.7,566.0 L141.9,566.0 Z  '/></g>
<g fill="none" color="black" stroke="currentColor" stroke-width="1.00" stroke-linecap="butt" stroke-linejoin="miter">
	<g stroke='none' shape-rendering='crispEdges'>
		<polygon fill = 'rgb(230, 159,   0)' points = '161.3,566.0 164.1,566.0 164.1,334.2 161.3,334.2 '/>
	</g>
	<path stroke='rgb(  0,   0,   0)'  d='M161.3,566.0 L161.3,334.3 L164.0,334.3 L164.0,566.0 L161.3,566.0 Z  '/></g>
<g fill="none" color="black" stroke="currentColor" stroke-width="1.00" stroke-linecap="butt" stroke-linejoin="miter">
	<g stroke='none' shape-rendering='crispEdges'>
		<polygon fill = 'rgb(230, 159,   0)' points = '180.6,566.0 183.5,566.0 183.5,564.5 180.6,564.5 '/>
	</g>
	<path stroke='rgb(  0,   0,   0)'  d='M180.6,566.0 L180.6,564.6 L183.4,564.6 L183.4,566.0 L180.6,566.0 Z  '/></g>
<g fill="none" color="black" stroke="currentColor" stroke-width="1.00" stroke-linecap="butt" stroke-linejoin="miter">
	<g stroke='none' shape-rendering='crispEdges'>
		<polygon fill = 'rgb(230, 159,   0)' points = '200.0,566.0 202.8,566.0 202.8,564.5 200.0,564.5 '/>
	</g>
	<path stroke='rgb(  0,   0,   0)'  d='M200.0,566.0 L200.0,564.6 L202.7,564.6 L202.7,566.0 L200.0,566.0 Z  '/></g>
<g fill="none" color="black" stroke="currentColor" stroke-width="1.00" stroke-linecap="butt" stroke-linejoin="miter">
	<g stroke='none' shape-rendering='crispEdges'>
		<polygon fill = 'rgb(230, 159,   0)' points = '219.3,566.0 222.2,566.0 222.2,564.5 219.3,564.5 '/>
	</g>
	<path stroke='rgb(  0,   0,   0)'  d='M219.3,566.0 L219.3,564.6 L222.1,564.6 L222.1,566.0 L219.3,566.0 Z  '/></g>
<g fill="none" color="black" stroke="currentColor" stroke-width="1.00" stroke-linecap="butt" stroke-linejoin="miter">
	<g stroke='none' shape-rendering='crispEdges'>
		<polygon fill = 'rgb(230, 159,   0)' points = '238.6,566.0 241.5,566.0 241.5,564.4 238.6,564.4 '/>
	</g>
	<path stroke='rgb(  0,   0,   0)'  d='M238.6,566.0 L238.6,564.5 L241.4,564.5 L241.4,566.0 L238.6,566.0 Z  '/></g>
<g fill="none" color="black" stroke="currentColor" stroke-width="1.00" stroke-linecap="butt" stroke-linejoin="miter">
	<g stroke='none' shape-rendering='crispEdges'>
		<polygon fill = 'rgb(230, 159,   0)' points = '258.0,566.0 260.9,566.0 260.9,564.4 258.0,564.4 '/>
	</g>
	<path stroke='rgb(  0,   0,   0)'  d='M258.0,566.0 L258.0,564.5 L260.8,564.5 L260.8,566.0 L258.0,566.0 Z  '/></g>
<g fill="none" color="black" stroke="currentColor" stroke-width="1.00" stroke-linecap="butt" stroke-linejoin="miter">
	<g stroke='none' shape-rendering='crispEdges'>
		<polygon fill = 'rgb(230, 159,   0)' points = '277.3,566.0 280.2,566.0 280.2,565.3 277.3,565.3 '/>
	</g>
	<path stroke='rgb(  0,   0,   0)'  d='M277.3,566.0 L277.3,565.4 L280.1,565.4 L280.1,566.0 L277.3,566.0 Z  '/></g>
<g fill="none" color="black" stroke="currentColor" stroke-width="1.00" stroke-linecap="butt" stroke-linejoin="miter">
</g>
	</g>
	<g id="gnuplot_plot_5" ><title>gnuplot_plot_5</title>
<g fill="none" color="black" stroke="currentColor" stroke-width="1.00" stroke-linecap="butt" stroke-linejoin="miter">
	<g stroke='none' shape-rendering='crispEdges'>
		<polygon fill = 'rgb(240, 228,  66)' points = '106.0,566.0 108.9,566.0 108.9,432.8 106.0,432.8 '/>
	</g>
	<path stroke='rgb(  0,   0,   0)'  d='M106.0,566.0 L106.0,432.9 L108.8,432.9 L108.8,566.0 L106.0,566.0 Z  '/></g>
<g fill="none" color="black" stroke="currentColor" stroke-width="1.00" stroke-linecap="butt" stroke-linejoin="miter">
	<g stroke='none' shape-rendering='crispEdges'>
		<polygon fill = 'rgb(240, 228,  66)' points = '125.3,566.0 128.2,566.0 128.2,432.0 125.3,432.0 '/>
	</g>
	<path stroke='rgb(  0,   0,   0)'  d='M125.3,566.0 L125.3,432.1 L128.1,432.1 L128.1,566.0 L125.3,566.0 Z  '/></g>
<g fill="none" color="black" stroke="currentColor" stroke-width="1.00" stroke-linecap="butt" stroke-linejoin="miter">
	<g stroke='none' shape-rendering='crispEdges'>
		<polygon fill = 'rgb(240, 228,  66)' points = '144.7,566.0 147.5,566.0 147.5,429.5 144.7,429.5 '/>
	</g>
	<path stroke='rgb(  0,   0,   0)'  d='M144.7,566.0 L144.7,429.6 L147.4,429.6 L147.4,566.0 L144.7,566.0 Z  '/></g>
<g fill="none" color="black" stroke="currentColor" stroke-width="1.00" stroke-linecap="butt" stroke-linejoin="miter">
	<g stroke='none' shape-rendering='crispEdges'>
		<polygon fill = 'rgb(240, 228,  66)' points = '164.0,566.0 166.9,566.0 166.9,401.1 164.0,401.1 '/>
	</g>
	<path stroke='rgb(  0,   0,   0)'  d='M164.0,566.0 L164.0,401.2 L166.8,401.2 L166.8,566.0 L164.0,566.0 Z  '/></g>
<g fill="none" color="black" stroke="currentColor" stroke-width="1.00" stroke-linecap="butt" stroke-linejoin="miter">
	<g stroke='none' shape-rendering='crispEdges'>
		<polygon fill = 'rgb(240, 228,  66)' points = '183.4,566.0 186.2,566.0 186.2,564.8 183.4,564.8 '/>
	</g>
	<path stroke='rgb(  0,   0,   0)'  d='M183.4,566.0 L183.4,564.9 L186.1,564.9 L186.1,566.0 L183.4,566.0 Z  '/></g>
<g fill="none" color="black" stroke="currentColor" stroke-width="1.00" stroke-linecap="butt" stroke-linejoin="miter">
	<g stroke='none' shape-rendering='crispEdges'>
		<polygon fill = 'rgb(240, 228,  66)' points = '202.7,566.0 205.6,566.0 205.6,564.5 202.7,564.5 '/>
	</g>
	<path stroke='rgb(  0,   0,   0)'  d='M202.7,566.0 L202.7,564.6 L205.5,564.6 L205.5,566.0 L202.7,566.0 Z  '/></g>
<g fill="none" color="black" stroke="currentColor" stroke-width="1.00" stroke-linecap="butt" stroke-linejoin="miter">
	<g stroke='none' shape-rendering='crispEdges'>
		<polygon fill = 'rgb(240, 228,  66)' points = '222.1,566.0 224.9,566.0 224.9,564.1 222.1,564.1 '/>
	</g>
	<path stroke='rgb(  0,   0,   0)'  d='M222.1,566.0 L222.1,564.2 L224.8,564.2 L224.8,566.0 L222.1,566.0 Z  '/></g>
<g fill="none" color="black" stroke="currentColor" stroke-width="1.00" stroke-linecap="butt" stroke-linejoin="miter">
	<g stroke='none' shape-rendering='crispEdges'>
		<polygon fill = 'rgb(240, 228,  66)' points = '241.4,566.0 244.3,566.0 244.3,564.4 241.4,564.4 '/>
	</g>
	<path stroke='rgb(  0,   0,   0)'  d='M241.4,566.0 L241.4,564.5 L244.2,564.5 L244.2,566.0 L241.4,566.0 Z  '/></g>
<g fill="none" color="black" stroke="currentColor" stroke-width="1.00" stroke-linecap="butt" stroke-linejoin="miter">
	<g stroke='none' shape-rendering='crispEdges'>
		<polygon fill = 'rgb(240, 228,  66)' points = '260.8,566.0 263.6,566.0 263.6,564.4 260.8,564.4 '/>
	</g>
	<path stroke='rgb(  0,   0,   0)'  d='M260.8,566.0 L260.8,564.5 L263.5,564.5 L263.5,566.0 L260.8,566.0 Z  '/></g>
<g fill="none" color="black" stroke="currentColor" stroke-width="1.00" stroke-linecap="butt" stroke-linejoin="miter">
	<g stroke='none' shape-rendering='crispEdges'>
		<polygon fill = 'rgb(240, 228,  66)' points = '280.1,566.0 283.0,566.0 283.0,565.1 280.1,565.1 '/>
	</g>
	<path stroke='rgb(  0,   0,   0)'  d='M280.1,566.0 L280.1,565.2 L282.9,565.2 L282.9,566.0 L280.1,566.0 Z  '/></g>
<g fill="none" color="black" stroke="currentColor" stroke-width="1.00" stroke-linecap="butt" stroke-linejoin="miter">
</g>
	</g>
<g fill="none" color="white" stroke="rgb(240, 228,  66)" stroke-width="2.00" stroke-linecap="butt" stroke-linejoin="miter">
</g>
<g fill="none" color="black" stroke="currentColor" stroke-width="2.00" stroke-linecap="butt" stroke-linejoin="miter">
</g>
<g fill="none" color="black" stroke="black" stroke-width="1.00" stroke-linecap="butt" stroke-linejoin="miter">
</g>
<g fill="none" color="black" stroke="currentColor" stroke-width="1.00" stroke-linecap="butt" stroke-linejoin="miter">
	<path stroke='black'  d='M82.5,19.6 L82.5,566.0 L295.3,566.0 L295.3,19.6 L82.5,19.6 Z  '/></g>
<g fill="none" color="black" stroke="currentColor" stroke-width="1.00" stroke-linecap="butt" stroke-linejoin="miter">
</g>
</g>
</svg>

