solution_id,armclang,armcc,gnu,clang,iar
function_ptr,2.5312546487015775,4.377952235258473,2.37106298542955,2.996518696400275,5.838884536743589
std_function,7.247103033992317,0,7.510533257722762,6.906782007655977,21.252381539627294
fixed_function,2.0194314411034844,3.792324518911777,3.800547384461643,2.0598958541097074,5.484307508330476
template,2.7538442265951515,4.604352684345089,2.0911973992643005,3.0962022142800545,6.588582306820607
template_copy,2.777133032237839,4.652661211911255,2.127544771217394,3.0668826934831337,6.487723729840358
