benchmark_id,speed_min,speed_max,speed_mean,size_min,size_max,size_mean
bind,37.75,232.0,175.4375,106.875,263.0,206.96875
free_function,26.875,244.0,184.575,54.875,240.0,189.575
stateful_closure,42.75,252.0,194.55,55.75,250.0,194.95
stateful_closure_large,268.0,484.0,399.7,280.0,482.0,400.3
stateful_function_object,39.375,252.0,197.075,47.875,250.0,198.575
stateless_closure,19.875,236.0,181.175,37.75,230.0,183.35
stateless_function_object,22.75,236.0,181.75,28.75,232.0,183.15
static_member_function,46.75,244.0,188.55,47.875,240.0,188.175
