solution_id,toolchain_id,text_size,rodata_size,data_size,stack_usage
fixed_function,armclang,1414.5,200.0,32.0,510.0
fixed_function,armcc,1446.25,None,28.0,598.0
fixed_function,gnu,941.25,14.375,32.0,544.0
fixed_function,clang,1374.75,8.0,32.0,504.0
fixed_function,iar,1064.5,1601.0,32.0,362.0
function_ptr,armclang,746.75,200.0,12.0,246.0
function_ptr,armcc,691.5,None,12.0,250.0
function_ptr,gnu,270.75,14.375,12.0,216.0
function_ptr,clang,650.75,8.0,12.0,246.0
function_ptr,iar,433.5,601.0,12.0,47.875
function_template,armclang,1561.5,200.0,32.0,404.0
function_template,armcc,1649.0,None,28.0,410.0
function_template,gnu,624.75,14.375,32.0,362.0
function_template,clang,3653.25,8.0,32.0,400.5
function_template,iar,833.5,1601.0,32.0,192.0
function_template_copy,armclang,1561.5,200.0,32.0,404.0
function_template_copy,armcc,1314.0,None,28.0,484.0
function_template_copy,gnu,636.75,14.375,32.0,442.0
function_template_copy,clang,3653.25,8.0,32.0,400.5
function_template_copy,iar,909.5,1601.0,32.0,268.0
std_function,armclang,2432.0,402.0,36.0,375.0
std_function,armcc,None,None,None,0
std_function,gnu,1842.75,14.375,57.0,514.0
std_function,clang,2234.25,8.0,57.0,384.0
std_function,iar,6653.0,1853.0,36.0,272.0
virtual_function,armclang,714.75,174.0,8.0,248.0
virtual_function,armcc,638.0,24.0,8.0,256.0
virtual_function,gnu,325.75,38.375,8.0,224.0
virtual_function,clang,610.25,32.0,8.0,248.0
virtual_function,iar,393.0,425.0,8.0,39.75
virtual_function_no_rtti,armclang,714.75,174.0,8.0,248.0
virtual_function_no_rtti,armcc,638.0,24.0,8.0,256.0
virtual_function_no_rtti,gnu,325.75,38.375,8.0,224.0
virtual_function_no_rtti,clang,610.25,32.0,8.0,248.0
virtual_function_no_rtti,iar,393.0,425.0,8.0,48.75
